MHz;dB;dB
4;-32,5;-25,1
5;-34,1;
6;-35,9;
7;-38,1;
8;-40,7;
8,5;-42,5;
9;-44,8;
9,5;-47,7;
10;-52,5;
10,25;-56;
10,5;-61;
10,56;-61;
10,75;-59;
11;-54,8;
11,5;-48;
12;-44;
12,5;-41,1;
13;-38,8;
14;-35;
15;-32,2;
16;-30;
17;-28,7;-22,8
