\babel@toc {ngerman}{}
\contentsline {section}{\numberline {1}Aufgaben}{1}{section.1}%
\contentsline {section}{\numberline {2}Physikalische Grundlagen und experimenteller Aufbau}{2}{section.2}%
\contentsline {section}{\numberline {3}Durchführung}{3}{section.3}%
\contentsline {section}{\numberline {4}Resultate}{4}{section.4}%
\contentsline {section}{\numberline {5}Diskussion}{12}{section.5}%
\providecommand \tocbasic@end@toc@file {}\tocbasic@end@toc@file 
