# Fdb version 3
["pdflatex"] 1654419007 "/Users/jannikdierks/Documents/Studium/Semester_6/fp2_protokolle/08_Spektrographie/Protokoll/08_Spektrographie.tex" "/Users/jannikdierks/Documents/Studium/Semester_6/fp2_protokolle/08_Spektrographie/Protokoll/08_Spektrographie.pdf" "08_Spektrographie" 1654419009
  "/Users/jannikdierks/Documents/Studium/Semester_6/fp2_protokolle/08_Spektrographie/Protokoll/08_Spektrographie.aux" 1654419009 7625 eb847d11a8e2de62095bba017d798381 ""
  "/Users/jannikdierks/Documents/Studium/Semester_6/fp2_protokolle/08_Spektrographie/Protokoll/08_Spektrographie.tex" 1654418904 13296 80a1c2b27efb9d74a737669d75ebff77 ""
  "/usr/local/texlive/2021/texmf-dist/fonts/enc/dvips/base/8r.enc" 1165713224 4850 80dc9bab7f31fb78a000ccfed0e27cab ""
  "/usr/local/texlive/2021/texmf-dist/fonts/map/fontname/texfonts.map" 1577235249 3524 cb3e574dea2d1052e39280babc910dc8 ""
  "/usr/local/texlive/2021/texmf-dist/fonts/tfm/adobe/helvetic/phvb8r.tfm" 1136768653 4484 b828043cbd581d289d955903c1339981 ""
  "/usr/local/texlive/2021/texmf-dist/fonts/tfm/adobe/helvetic/phvb8t.tfm" 1136768653 6628 34c39492c0adc454c1c199922bba8363 ""
  "/usr/local/texlive/2021/texmf-dist/fonts/tfm/adobe/helvetic/phvbo8r.tfm" 1136768653 4736 423eba67d4e9420ec9df4a8def143b08 ""
  "/usr/local/texlive/2021/texmf-dist/fonts/tfm/adobe/helvetic/phvbo8t.tfm" 1136768653 6880 fe6c7967f27585f6fa9876f3af14edd2 ""
  "/usr/local/texlive/2021/texmf-dist/fonts/tfm/adobe/helvetic/phvr8r.tfm" 1136768653 4712 9ef4d7d106579d4b136e1529e1a4533c ""
  "/usr/local/texlive/2021/texmf-dist/fonts/tfm/adobe/helvetic/phvr8t.tfm" 1136768653 7040 b2bd27e2bfe6f6948cbc3239cae7444f ""
  "/usr/local/texlive/2021/texmf-dist/fonts/tfm/adobe/helvetic/phvro8t.tfm" 1136768653 7292 d408122871055bbc541d7280c154e210 ""
  "/usr/local/texlive/2021/texmf-dist/fonts/tfm/jknappen/ec/ecrm1000.tfm" 1136768653 3584 adb004a0c8e7c46ee66cad73671f37b4 ""
  "/usr/local/texlive/2021/texmf-dist/fonts/tfm/public/amsfonts/cmextra/cmex7.tfm" 1246382020 1004 54797486969f23fa377b128694d548df ""
  "/usr/local/texlive/2021/texmf-dist/fonts/tfm/public/amsfonts/symbols/msam10.tfm" 1246382020 916 f87d7c45f9c908e672703b83b72241a3 ""
  "/usr/local/texlive/2021/texmf-dist/fonts/tfm/public/amsfonts/symbols/msam5.tfm" 1246382020 924 9904cf1d39e9767e7a3622f2a125a565 ""
  "/usr/local/texlive/2021/texmf-dist/fonts/tfm/public/amsfonts/symbols/msam7.tfm" 1246382020 928 2dc8d444221b7a635bb58038579b861a ""
  "/usr/local/texlive/2021/texmf-dist/fonts/tfm/public/amsfonts/symbols/msbm10.tfm" 1246382020 908 2921f8a10601f252058503cc6570e581 ""
  "/usr/local/texlive/2021/texmf-dist/fonts/tfm/public/amsfonts/symbols/msbm5.tfm" 1246382020 940 75ac932a52f80982a9f8ea75d03a34cf ""
  "/usr/local/texlive/2021/texmf-dist/fonts/tfm/public/amsfonts/symbols/msbm7.tfm" 1246382020 940 228d6584342e91276bf566bcf9716b83 ""
  "/usr/local/texlive/2021/texmf-dist/fonts/tfm/public/cm/cmss10.tfm" 1136768653 1316 b636689f1933f24d1294acdf6041daaa ""
  "/usr/local/texlive/2021/texmf-dist/fonts/tfm/public/cm/cmss8.tfm" 1136768653 1296 d77f431d10d47c8ea2cc18cf45346274 ""
  "/usr/local/texlive/2021/texmf-dist/fonts/tfm/public/cm/cmtt10.tfm" 1136768653 768 1321e9409b4137d6fb428ac9dc956269 ""
  "/usr/local/texlive/2021/texmf-dist/fonts/tfm/public/cm/cmtt8.tfm" 1136768653 768 d7b9a2629a0c353102ad947dc9221d49 ""
  "/usr/local/texlive/2021/texmf-dist/fonts/tfm/public/latex-fonts/lasy6.tfm" 1136768653 520 4889cce2180234b97cad636b6039c722 ""
  "/usr/local/texlive/2021/texmf-dist/fonts/type1/public/amsfonts/cm/cmex10.pfb" 1248133631 30251 6afa5cb1d0204815a708a080681d4674 ""
  "/usr/local/texlive/2021/texmf-dist/fonts/type1/public/amsfonts/cm/cmmi10.pfb" 1248133631 36299 5f9df58c2139e7edcf37c8fca4bd384d ""
  "/usr/local/texlive/2021/texmf-dist/fonts/type1/public/amsfonts/cm/cmmi7.pfb" 1248133631 36281 c355509802a035cadc5f15869451dcee ""
  "/usr/local/texlive/2021/texmf-dist/fonts/type1/public/amsfonts/cm/cmr10.pfb" 1248133631 35752 024fb6c41858982481f6968b5fc26508 ""
  "/usr/local/texlive/2021/texmf-dist/fonts/type1/public/amsfonts/cm/cmr7.pfb" 1248133631 32762 224316ccc9ad3ca0423a14971cfa7fc1 ""
  "/usr/local/texlive/2021/texmf-dist/fonts/type1/public/amsfonts/cm/cmss10.pfb" 1248133631 24457 5cbb7bdf209d5d1ce9892a9b80a307cc ""
  "/usr/local/texlive/2021/texmf-dist/fonts/type1/public/amsfonts/cm/cmsy10.pfb" 1248133631 32569 5e5ddc8df908dea60932f3c484a54c0d ""
  "/usr/local/texlive/2021/texmf-dist/fonts/type1/public/amsfonts/cm/cmsy7.pfb" 1248133631 32716 08e384dc442464e7285e891af9f45947 ""
  "/usr/local/texlive/2021/texmf-dist/fonts/type1/urw/helvetic/uhvb8a.pfb" 1136849748 35941 f27169cc74234d5bd5e4cca5abafaabb ""
  "/usr/local/texlive/2021/texmf-dist/fonts/type1/urw/helvetic/uhvbo8a.pfb" 1136849748 39013 b244066151b1e3e718f9b8e88a5ff23b ""
  "/usr/local/texlive/2021/texmf-dist/fonts/type1/urw/helvetic/uhvr8a.pfb" 1136849748 44648 23115b2a545ebfe2c526c3ca99db8b95 ""
  "/usr/local/texlive/2021/texmf-dist/fonts/vf/adobe/helvetic/phvb8t.vf" 1136768653 2340 0efed6a948c3c37d870e4e7ddb85c7c3 ""
  "/usr/local/texlive/2021/texmf-dist/fonts/vf/adobe/helvetic/phvbo8t.vf" 1136768653 2344 88834f8322177295b0266ecc4b0754c3 ""
  "/usr/local/texlive/2021/texmf-dist/fonts/vf/adobe/helvetic/phvr8t.vf" 1136768653 2344 44ff28c9ef2fc97180cd884f900fee71 ""
  "/usr/local/texlive/2021/texmf-dist/tex/context/base/mkii/supp-pdf.mkii" 1461363279 71627 94eb9990bed73c364d7f53f960cc8c5b ""
  "/usr/local/texlive/2021/texmf-dist/tex/generic/atbegshi/atbegshi.sty" 1575674566 24708 5584a51a7101caf7e6bbf1fc27d8f7b1 ""
  "/usr/local/texlive/2021/texmf-dist/tex/generic/babel-german/ngerman.ldf" 1614462139 2289 b1d356015c8fd065cb4437d567449559 ""
  "/usr/local/texlive/2021/texmf-dist/tex/generic/babel-german/ngermanb.ldf" 1614462139 7752 76871ff65dd4689e1a548995ac96d8c3 ""
  "/usr/local/texlive/2021/texmf-dist/tex/generic/babel/babel.def" 1616621270 118719 e672239d75d9419ba29850a1b391bd00 ""
  "/usr/local/texlive/2021/texmf-dist/tex/generic/babel/babel.sty" 1616621270 37894 44955682e4f134137b9d1033fb86e0ef ""
  "/usr/local/texlive/2021/texmf-dist/tex/generic/babel/txtbabel.def" 1611697649 5230 84624d139fa443f96294434bccf82f8c ""
  "/usr/local/texlive/2021/texmf-dist/tex/generic/bigintcalc/bigintcalc.sty" 1576625341 40635 c40361e206be584d448876bba8a64a3b ""
  "/usr/local/texlive/2021/texmf-dist/tex/generic/bitset/bitset.sty" 1576016050 33961 6b5c75130e435b2bfdb9f480a09a39f9 ""
  "/usr/local/texlive/2021/texmf-dist/tex/generic/etexcmds/etexcmds.sty" 1576625273 7734 b98cbb34c81f667027c1e3ebdbfce34b ""
  "/usr/local/texlive/2021/texmf-dist/tex/generic/gettitlestring/gettitlestring.sty" 1576625223 8371 9d55b8bd010bc717624922fb3477d92e ""
  "/usr/local/texlive/2021/texmf-dist/tex/generic/iftex/iftex.sty" 1583617216 6501 4011d89d9621e0b0901138815ba5ff29 ""
  "/usr/local/texlive/2021/texmf-dist/tex/generic/iftex/ifvtex.sty" 1572645307 1057 525c2192b5febbd8c1f662c9468335bb ""
  "/usr/local/texlive/2021/texmf-dist/tex/generic/infwarerr/infwarerr.sty" 1575499628 8356 7bbb2c2373aa810be568c29e333da8ed ""
  "/usr/local/texlive/2021/texmf-dist/tex/generic/intcalc/intcalc.sty" 1576625065 31769 002a487f55041f8e805cfbf6385ffd97 ""
  "/usr/local/texlive/2021/texmf-dist/tex/generic/kvdefinekeys/kvdefinekeys.sty" 1576878844 5412 d5a2436094cd7be85769db90f29250a6 ""
  "/usr/local/texlive/2021/texmf-dist/tex/generic/kvsetkeys/kvsetkeys.sty" 1576624944 13807 952b0226d4efca026f0e19dd266dcc22 ""
  "/usr/local/texlive/2021/texmf-dist/tex/generic/ltxcmds/ltxcmds.sty" 1600895880 17859 4409f8f50cd365c68e684407e5350b1b ""
  "/usr/local/texlive/2021/texmf-dist/tex/generic/pdfescape/pdfescape.sty" 1576015897 19007 15924f7228aca6c6d184b115f4baa231 ""
  "/usr/local/texlive/2021/texmf-dist/tex/generic/pdftexcmds/pdftexcmds.sty" 1593379760 20089 80423eac55aa175305d35b49e04fe23b ""
  "/usr/local/texlive/2021/texmf-dist/tex/generic/ulem/ulem.sty" 1578692523 15682 94f55b803e160cf7fb6e4d77d07cfe1d ""
  "/usr/local/texlive/2021/texmf-dist/tex/generic/uniquecounter/uniquecounter.sty" 1576624663 7008 f92eaa0a3872ed622bbf538217cd2ab7 ""
  "/usr/local/texlive/2021/texmf-dist/tex/latex/amsfonts/amsfonts.sty" 1359763108 5949 3f3fd50a8cc94c3d4cbf4fc66cd3df1c ""
  "/usr/local/texlive/2021/texmf-dist/tex/latex/amsfonts/amssymb.sty" 1359763108 13829 94730e64147574077f8ecfea9bb69af4 ""
  "/usr/local/texlive/2021/texmf-dist/tex/latex/amsfonts/umsa.fd" 1359763108 961 6518c6525a34feb5e8250ffa91731cff ""
  "/usr/local/texlive/2021/texmf-dist/tex/latex/amsfonts/umsb.fd" 1359763108 961 d02606146ba5601b5645f987c92e6193 ""
  "/usr/local/texlive/2021/texmf-dist/tex/latex/amsmath/amsbsy.sty" 1523134290 2211 ca7ce284ab93c8eecdc6029dc5ccbd73 ""
  "/usr/local/texlive/2021/texmf-dist/tex/latex/amsmath/amsgen.sty" 1523134290 4161 7f6eb9092061a11f87d08ed13515b48d ""
  "/usr/local/texlive/2021/texmf-dist/tex/latex/amsmath/amsmath.sty" 1601675358 87353 2c21ff5f2e32e1bf714e600924d810db ""
  "/usr/local/texlive/2021/texmf-dist/tex/latex/amsmath/amsopn.sty" 1523134290 4116 32e6abd27229755a83a8b7f18e583890 ""
  "/usr/local/texlive/2021/texmf-dist/tex/latex/amsmath/amstext.sty" 1523134290 2432 8ff93b1137020e8f21930562a874ae66 ""
  "/usr/local/texlive/2021/texmf-dist/tex/latex/appendix/appendix.sty" 1581200180 8878 d9f65b39ca82f1d70030390eca653b1c ""
  "/usr/local/texlive/2021/texmf-dist/tex/latex/atveryend/atveryend.sty" 1576191570 19336 ce7ae9438967282886b3b036cfad1e4d ""
  "/usr/local/texlive/2021/texmf-dist/tex/latex/auxhook/auxhook.sty" 1576625391 3935 57aa3c3e203a5c2effb4d2bd2efbc323 ""
  "/usr/local/texlive/2021/texmf-dist/tex/latex/base/atbegshi-ltx.sty" 1609451599 2973 00085839f5881178c538db5970d3c38e ""
  "/usr/local/texlive/2021/texmf-dist/tex/latex/base/atveryend-ltx.sty" 1610149055 2596 b3a02e33035865e9f0457e064d436fb8 ""
  "/usr/local/texlive/2021/texmf-dist/tex/latex/base/fontenc.sty" 1601675358 4947 8cb7717f0cc771eca0fda15160c7fee9 ""
  "/usr/local/texlive/2021/texmf-dist/tex/latex/base/inputenc.sty" 1601675358 5050 0d3b77275060ca09a40635b830c3c904 ""
  "/usr/local/texlive/2021/texmf-dist/tex/latex/bookmark/bkm-pdftex.def" 1604871679 8609 8ac7db65d9617618cf703bd16c1bd0b8 ""
  "/usr/local/texlive/2021/texmf-dist/tex/latex/bookmark/bookmark.sty" 1604871679 18237 5cbdfe9ef383a557f780a0a1f45cdb1c ""
  "/usr/local/texlive/2021/texmf-dist/tex/latex/caption/caption-koma.sto" 1603745920 6559 a1f99be1697762b19f714b4553fcaefa ""
  "/usr/local/texlive/2021/texmf-dist/tex/latex/caption/caption.sty" 1603745920 51746 e89c4da670ba533e6ab38e045ce6d1d9 ""
  "/usr/local/texlive/2021/texmf-dist/tex/latex/caption/caption3.sty" 1603745920 67929 d50ae850e1d9604065e8337a75a41029 ""
  "/usr/local/texlive/2021/texmf-dist/tex/latex/chemgreek/chemgreek.sty" 1579297960 47530 64600845afa9c25b782d42fa33f66772 ""
  "/usr/local/texlive/2021/texmf-dist/tex/latex/colortbl/colortbl.sty" 1579991017 10793 d0af3aa11e27ae35ba4685b17597b122 ""
  "/usr/local/texlive/2021/texmf-dist/tex/latex/csquotes/csquotes.cfg" 1429144587 7068 06f8d141725d114847527a66439066b6 ""
  "/usr/local/texlive/2021/texmf-dist/tex/latex/csquotes/csquotes.def" 1614030765 20781 dc1bec6693d5466d8972ecc6b81f9f0b ""
  "/usr/local/texlive/2021/texmf-dist/tex/latex/csquotes/csquotes.sty" 1614030765 62518 6e0d74482f5cb16b3b0755031e72faf1 ""
  "/usr/local/texlive/2021/texmf-dist/tex/latex/enumitem/enumitem.sty" 1561238569 51697 f8f08183cd2080d9d18a41432d651dfb ""
  "/usr/local/texlive/2021/texmf-dist/tex/latex/epstopdf-pkg/epstopdf-base.sty" 1579991033 13886 d1306dcf79a944f6988e688c1785f9ce ""
  "/usr/local/texlive/2021/texmf-dist/tex/latex/etoolbox/etoolbox.sty" 1601931149 46845 3b58f70c6e861a13d927bff09d35ecbc ""
  "/usr/local/texlive/2021/texmf-dist/tex/latex/float/float.sty" 1137110151 6749 16d2656a1984957e674b149555f1ea1d ""
  "/usr/local/texlive/2021/texmf-dist/tex/latex/footmisc/footmisc.sty" 1312311212 25776 d28bd6d82f168f8cb2268584b67a2a98 ""
  "/usr/local/texlive/2021/texmf-dist/tex/latex/geometry/geometry.sty" 1578002852 41601 9cf6c5257b1bc7af01a58859749dd37a ""
  "/usr/local/texlive/2021/texmf-dist/tex/latex/graphics-cfg/color.cfg" 1459978653 1213 620bba36b25224fa9b7e1ccb4ecb76fd ""
  "/usr/local/texlive/2021/texmf-dist/tex/latex/graphics-cfg/graphics.cfg" 1465944070 1224 978390e9c2234eab29404bc21b268d1e ""
  "/usr/local/texlive/2021/texmf-dist/tex/latex/graphics-def/pdftex.def" 1601931164 19103 48d29b6e2a64cb717117ef65f107b404 ""
  "/usr/local/texlive/2021/texmf-dist/tex/latex/graphics/color.sty" 1601675358 7102 5b27b7e61091c6128cd6300e21704e4b ""
  "/usr/local/texlive/2021/texmf-dist/tex/latex/graphics/graphics.sty" 1601675358 18272 a8c6a275b34ab6717ceeb8fa04b104e2 ""
  "/usr/local/texlive/2021/texmf-dist/tex/latex/graphics/graphicx.sty" 1601675358 7919 20fdfdd783821971c55bc8ee918cbe63 ""
  "/usr/local/texlive/2021/texmf-dist/tex/latex/graphics/keyval.sty" 1580683321 2590 e3b24ff953e5b58d924f163d25380312 ""
  "/usr/local/texlive/2021/texmf-dist/tex/latex/graphics/trig.sty" 1580683321 3976 d7fa7d81d2870d509d25b17d0245e735 ""
  "/usr/local/texlive/2021/texmf-dist/tex/latex/hycolor/hycolor.sty" 1580250785 17914 4c28a13fc3d975e6e81c9bea1d697276 ""
  "/usr/local/texlive/2021/texmf-dist/tex/latex/hyperref/hpdftex.def" 1614638310 49890 ad792e908af8bc5c293b806bd181e58d ""
  "/usr/local/texlive/2021/texmf-dist/tex/latex/hyperref/hyperref-langpatches.def" 1614638310 1777 31eee4f3f5c138e44a4e16abfcaefa41 ""
  "/usr/local/texlive/2021/texmf-dist/tex/latex/hyperref/hyperref.sty" 1614638310 230839 177eac084bda18ae827a77792a17292e ""
  "/usr/local/texlive/2021/texmf-dist/tex/latex/hyperref/nameref.sty" 1612734870 13242 133e617c5eebffdd05e421624022b267 ""
  "/usr/local/texlive/2021/texmf-dist/tex/latex/hyperref/pd1enc.def" 1614638310 14132 3a8b7a8250bdb5871e322188be7c9ff6 ""
  "/usr/local/texlive/2021/texmf-dist/tex/latex/hyperref/puenc.def" 1614638310 117004 7c05c6dde5b2b6a14f97dd4137739212 ""
  "/usr/local/texlive/2021/texmf-dist/tex/latex/koma-script/scrartcl.cls" 1616362473 234961 149dedaa7668110ac6e8c2b152954597 ""
  "/usr/local/texlive/2021/texmf-dist/tex/latex/koma-script/scrbase.sty" 1616362473 98623 0a1bc467d2181ad2c2f161ec89654c86 ""
  "/usr/local/texlive/2021/texmf-dist/tex/latex/koma-script/scrkbase.sty" 1616362473 21853 4dd3a4fdedb468766ec2234531937286 ""
  "/usr/local/texlive/2021/texmf-dist/tex/latex/koma-script/scrlayer-scrpage.sty" 1616362473 60507 8158e006d201e72402732dfbc16dc8cc ""
  "/usr/local/texlive/2021/texmf-dist/tex/latex/koma-script/scrlayer.sty" 1616362473 87056 b81e2767109ac36be0dfd8278b0bd9c8 ""
  "/usr/local/texlive/2021/texmf-dist/tex/latex/koma-script/scrlfile-hook.sty" 1616362473 9861 1c84049c7d8ca184731fe52eeb4c342f ""
  "/usr/local/texlive/2021/texmf-dist/tex/latex/koma-script/scrlfile.sty" 1616362473 3128 0f937965be3412c191cc30181f7ad889 ""
  "/usr/local/texlive/2021/texmf-dist/tex/latex/koma-script/scrlogo.sty" 1616362473 1954 d3f157130a5b7ccb270d92af50c6297b ""
  "/usr/local/texlive/2021/texmf-dist/tex/latex/koma-script/scrsize10pt.clo" 1616362473 6340 79fa8a419693d003331556d74d95e5db ""
  "/usr/local/texlive/2021/texmf-dist/tex/latex/koma-script/tocbasic.sty" 1616362473 106047 24806cd8637fc950d6c478426f9ba321 ""
  "/usr/local/texlive/2021/texmf-dist/tex/latex/koma-script/typearea.sty" 1616362473 56021 192ec5bf5b5402cbddffa5dac8deb1ce ""
  "/usr/local/texlive/2021/texmf-dist/tex/latex/kvoptions/kvoptions.sty" 1602274869 22521 d2fceb764a442a2001d257ef11db7618 ""
  "/usr/local/texlive/2021/texmf-dist/tex/latex/l3backend/l3backend-pdftex.def" 1616101731 27164 3d5f7887a89df4eb2f6e86ba26ef3254 ""
  "/usr/local/texlive/2021/texmf-dist/tex/latex/l3kernel/expl3.sty" 1613686676 6208 7497703c7e95fb22a69d3ed6f9024046 ""
  "/usr/local/texlive/2021/texmf-dist/tex/latex/l3packages/l3keys2e/l3keys2e.sty" 1615590017 4614 3d280c6851211796f3b4f2310e7af080 ""
  "/usr/local/texlive/2021/texmf-dist/tex/latex/l3packages/xparse/xparse-2020-10-01.sty" 1612304173 6195 8bc989fdf3bb45de5ab646a95bf3352b ""
  "/usr/local/texlive/2021/texmf-dist/tex/latex/l3packages/xparse/xparse-generic.tex" 1612304173 80141 dd4859747b9d959c1acfee24fd462951 ""
  "/usr/local/texlive/2021/texmf-dist/tex/latex/l3packages/xparse/xparse.sty" 1615590017 6289 682e18a28ebd34b27d72772c8a4cedcb ""
  "/usr/local/texlive/2021/texmf-dist/tex/latex/latexconfig/epstopdf-sys.cfg" 1279039959 678 4792914a8f45be57bb98413425e4c7af ""
  "/usr/local/texlive/2021/texmf-dist/tex/latex/letltxmacro/letltxmacro.sty" 1575499565 5766 13a9e8766c47f30327caf893ece86ac8 ""
  "/usr/local/texlive/2021/texmf-dist/tex/latex/mdframed/md-frame-0.mdf" 1372030994 24831 326d9f019009ed0c076106fa6cb860fb ""
  "/usr/local/texlive/2021/texmf-dist/tex/latex/mdframed/mdframed.sty" 1372805434 53487 3e997243f47cb3ba8b4c7b8df9c82989 ""
  "/usr/local/texlive/2021/texmf-dist/tex/latex/mhchem/mhchem.sty" 1529960175 133481 dc82a4183457b704dd7d0522a9b06baf ""
  "/usr/local/texlive/2021/texmf-dist/tex/latex/multirow/multirow.sty" 1615845910 6149 2398eec4faa1ee24ff761581e580ecf1 ""
  "/usr/local/texlive/2021/texmf-dist/tex/latex/needspace/needspace.sty" 1364856750 852 0e34dbb72efc69fa07602405ad95585e ""
  "/usr/local/texlive/2021/texmf-dist/tex/latex/psnfss/helvet.sty" 1586716065 1499 de0ad166b701b820e03588a29bb30798 ""
  "/usr/local/texlive/2021/texmf-dist/tex/latex/psnfss/t1phv.fd" 1586716065 1483 47067fbe7c3ffed1ede7aaa7b8549d7a ""
  "/usr/local/texlive/2021/texmf-dist/tex/latex/refcount/refcount.sty" 1576624809 9878 9e94e8fa600d95f9c7731bb21dfb67a4 ""
  "/usr/local/texlive/2021/texmf-dist/tex/latex/rerunfilecheck/rerunfilecheck.sty" 1575674187 9715 b051d5b493d9fe5f4bc251462d039e5f ""
  "/usr/local/texlive/2021/texmf-dist/tex/latex/siunitx/siunitx-abbreviations.cfg" 1579124948 4745 793d4d5a808c37a7085f620706b56fe1 ""
  "/usr/local/texlive/2021/texmf-dist/tex/latex/siunitx/siunitx.sty" 1582668387 273434 c3d90844d64bf82fded1b064359b4e14 ""
  "/usr/local/texlive/2021/texmf-dist/tex/latex/subfig/subfig.sty" 1158586182 21369 9ef165ca6df8815c92e693146a376c92 ""
  "/usr/local/texlive/2021/texmf-dist/tex/latex/tools/array.sty" 1601675358 12675 9a7bbb9e485cd81cdcc1d56212b088ff ""
  "/usr/local/texlive/2021/texmf-dist/tex/latex/tools/calc.sty" 1580683321 10216 5efd55f2010055e7b7875afd6a75be82 ""
  "/usr/local/texlive/2021/texmf-dist/tex/latex/translator/translator-basic-dictionary-English.dict" 1596662134 3535 7dc96051305a7e943219126c49c44cd6 ""
  "/usr/local/texlive/2021/texmf-dist/tex/latex/translator/translator.sty" 1596662134 8765 3368c4a5a4b5466261cafb836195e916 ""
  "/usr/local/texlive/2021/texmf-dist/tex/latex/url/url.sty" 1388531844 12796 8edb7d69a20b857904dd0ea757c14ec9 ""
  "/usr/local/texlive/2021/texmf-dist/tex/latex/xcolor/xcolor.sty" 1463002160 55589 34128738f682d033422ca125f82e5d62 ""
  "/usr/local/texlive/2021/texmf-dist/tex/latex/zref/zref-abspage.sty" 1602274933 2275 d29aca6fd67823551cb07584e3681d5d ""
  "/usr/local/texlive/2021/texmf-dist/tex/latex/zref/zref-base.sty" 1602274933 20688 beaddf14d96104d4bf016523be5395c5 ""
  "/usr/local/texlive/2021/texmf-dist/web2c/texmf.cnf" 1616443989 39972 3d6bb4d9d719e93193fa020b58adf5d4 ""
  "/usr/local/texlive/2021/texmf-var/fonts/map/pdftex/updmap/pdftex.map" 1616695603 5169178 a2ce6e2d73f603b690db6777d06dbccb ""
  "/usr/local/texlive/2021/texmf-var/web2c/pdftex/pdflatex.fmt" 1633357515 2724745 144a4ea28e251dfcdeb0800160914c84 ""
  "/usr/local/texlive/2021/texmf.cnf" 1616695596 577 4c1911a7228e554c6032256d3cf5567d ""
  "08_Spektrographie.aux" 1654419009 7625 eb847d11a8e2de62095bba017d798381 "pdflatex"
  "08_Spektrographie.out" 1654419008 0 d41d8cd98f00b204e9800998ecf8427e "pdflatex"
  "08_Spektrographie.tex" 1654418904 13296 80a1c2b27efb9d74a737669d75ebff77 ""
  "08_Spektrographie.toc" 1654419009 518 5295876e65e2627f15e0a5c6b6b3952f "pdflatex"
  "Bilder//Linse_3.png" 1654411712 309991 63ac5bf4bbb7c4acf60439c46f2da19b ""
  "Bilder//Metallinterferenzfilter.jpg" 1654411712 47788 f517a7ec0e3db66b036b74cf9cf54250 ""
  "Bilder//Spektrograph.png" 1654411712 772907 f66a9a4dee937236a309a9f2d79c214d ""
  "Bilder//logo.pdf" 1654411712 644266 dceaed36768846827a875444dd2d8681 ""
  (generated)
  "08_Spektrographie.toc"
  "08_Spektrographie.aux"
  "/Users/jannikdierks/Documents/Studium/Semester_6/fp2_protokolle/08_Spektrographie/Protokoll/08_Spektrographie.pdf"
  "08_Spektrographie.pdf"
  "08_Spektrographie.log"
  "08_Spektrographie.out"
  "/Users/jannikdierks/Documents/Studium/Semester_6/fp2_protokolle/08_Spektrographie/Protokoll/08_Spektrographie.log"
