\babel@toc {ngerman}{}
\contentsline {section}{\numberline {1}Aufgabenstellung}{2}{section.1}%
\contentsline {section}{\numberline {2}Physikalische Grundlagen}{2}{section.2}%
\contentsline {section}{\numberline {3}Experimenteller Aufbau}{3}{section.3}%
\contentsline {section}{\numberline {4}Durchführung}{5}{section.4}%
\contentsline {section}{\numberline {5}Resultate}{5}{section.5}%
\contentsline {section}{\numberline {6}Diskussion}{5}{section.6}%
\providecommand \tocbasic@end@toc@file {}\tocbasic@end@toc@file 
