\relax 
\providecommand\zref@newlabel[2]{}
\providecommand\hyper@newdestlabel[2]{}
\providecommand*\new@tpo@label[2]{}
\providecommand\babel@aux[2]{}
\@nameuse{bbl@beforestart}
\catcode `"\active 
\providecommand\HyperFirstAtBeginDocument{\AtBeginDocument}
\HyperFirstAtBeginDocument{\ifx\hyper@anchor\@undefined
\global\let\oldcontentsline\contentsline
\gdef\contentsline#1#2#3#4{\oldcontentsline{#1}{#2}{#3}}
\global\let\oldnewlabel\newlabel
\gdef\newlabel#1#2{\newlabelxx{#1}#2}
\gdef\newlabelxx#1#2#3#4#5#6{\oldnewlabel{#1}{{#2}{#3}}}
\AtEndDocument{\ifx\hyper@anchor\@undefined
\let\contentsline\oldcontentsline
\let\newlabel\oldnewlabel
\fi}
\fi}
\global\let\hyper@last\relax 
\gdef\HyperFirstAtBeginDocument#1{#1}
\providecommand\HyField@AuxAddToFields[1]{}
\providecommand\HyField@AuxAddToCoFields[2]{}
\providecommand\BKM@entry[2]{}
\babel@aux{ngerman}{}
\BKM@entry{id=1,dest={73656374696F6E2E31},srcline={87}}{5C3337365C3337375C303030415C303030755C303030665C303030675C303030615C303030625C303030655C3030306E5C303030735C303030745C303030655C3030306C5C3030306C5C303030755C3030306E5C30303067}
\BKM@entry{id=2,dest={73656374696F6E2E32},srcline={91}}{5C3337365C3337375C303030505C303030685C303030795C303030735C303030695C3030306B5C303030615C3030306C5C303030695C303030735C303030635C303030685C303030655C3030305C3034305C303030475C303030725C303030755C3030306E5C303030645C3030306C5C303030615C303030675C303030655C3030306E}
\@writefile{toc}{\contentsline {section}{\numberline {1}Aufgabenstellung}{2}{section.1}\protected@file@percent }
\@writefile{toc}{\contentsline {section}{\numberline {2}Physikalische Grundlagen}{2}{section.2}\protected@file@percent }
\@writefile{lof}{\contentsline {figure}{\numberline {2.1}{\ignorespaces Strahlenverlauf eines einfallenden Lichtstrahls am Metallinterferenzfilter. $\theta $ ist dabei der Winkel zum Lot, das orthogonal auf der planaren Spiegelfläche steht. $n$ und $n_0$ sind die jeweiligen Brechungsindizes der Materialien und $l$ der Abstand der beiden Spiegelflächen (also die Dicke der dielektrischen Schicht). $T_0$ und $T_1$ beschreiben die transmittierten Strahlen. [\ref  {bib:Metallinterferenzfilter}]\relax }}{2}{figure.2.1}\protected@file@percent }
\newlabel{fig:Metallinterferenzfilter}{{2.1}{2}{Strahlenverlauf eines einfallenden Lichtstrahls am Metallinterferenzfilter. $\theta $ ist dabei der Winkel zum Lot, das orthogonal auf der planaren Spiegelfläche steht. $n$ und $n_0$ sind die jeweiligen Brechungsindizes der Materialien und $l$ der Abstand der beiden Spiegelflächen (also die Dicke der dielektrischen Schicht). $T_0$ und $T_1$ beschreiben die transmittierten Strahlen. \bib {Metallinterferenzfilter}\relax }{figure.2.1}{}}
\newlabel{eq:TransmissionWellenlaenge}{{2.1}{2}{Physikalische Grundlagen}{equation.2.1}{}}
\newlabel{eq:Delta}{{2.2}{2}{Physikalische Grundlagen}{equation.2.2}{}}
\BKM@entry{id=3,dest={73656374696F6E2E33},srcline={130}}{5C3337365C3337375C303030455C303030785C303030705C303030655C303030725C303030695C3030306D5C303030655C3030306E5C303030745C303030655C3030306C5C3030306C5C303030655C303030725C3030305C3034305C303030415C303030755C303030665C303030625C303030615C30303075}
\@writefile{toc}{\contentsline {section}{\numberline {3}Experimenteller Aufbau}{3}{section.3}\protected@file@percent }
\@writefile{lof}{\contentsline {figure}{\numberline {3.1}{\ignorespaces Schematischer Versuchsaufbau des Prismenspektrographen. $LQ$ beschreibt dabei die jeweilige Lichtquelle. $L_0$ ist die Kollimations-Linse, um das stark divergente Licht der einzelnen Lichtquellen zu kollimieren. $S_1$ und $S_2$ stehen für Spiegel, die das kollimierte Licht in den Spektrographen-Aufbau lenken.$L_1: f = \SI {50}{\mm } , L_2: f = \SI {75}{\mm }, L_3: f = \SI {300}{\mm }$ sind Linsen, die für den Fokus des Lichtstrahls in den Einzelspalt $Sp$ bzw. ($L_3$) für die Fokussierung der Spektrallinien auf die CCD-Zeile zuständig sind. $B_1$ und $A$ sind Blenden, die die jeweilige Strahlbreite begrenzen. $Sp$ beschreibt einen verstellbaren Einzelspalt, der die Maximale Intensität des Lichts begrenzt, das durch den Spektrographen geschickt wird und $P$ das Prisma, das für die spektrale Aufspaltung des Lichts sorgt. Am Ende des Aufbaus ist eine CCD-Zeile eingebaut, die die Intensität des Lichtes räumlich (1D) getrennt in $x$-Richtung auflöst.\relax }}{3}{figure.3.1}\protected@file@percent }
\newlabel{fig:AufbauSpektro}{{3.1}{3}{Schematischer Versuchsaufbau des Prismenspektrographen. $LQ$ beschreibt dabei die jeweilige Lichtquelle. $L_0$ ist die Kollimations-Linse, um das stark divergente Licht der einzelnen Lichtquellen zu kollimieren. $S_1$ und $S_2$ stehen für Spiegel, die das kollimierte Licht in den Spektrographen-Aufbau lenken.$L_1: f = \SI {50}{\mm } , L_2: f = \SI {75}{\mm }, L_3: f = \SI {300}{\mm }$ sind Linsen, die für den Fokus des Lichtstrahls in den Einzelspalt $Sp$ bzw. ($L_3$) für die Fokussierung der Spektrallinien auf die CCD-Zeile zuständig sind. $B_1$ und $A$ sind Blenden, die die jeweilige Strahlbreite begrenzen. $Sp$ beschreibt einen verstellbaren Einzelspalt, der die Maximale Intensität des Lichts begrenzt, das durch den Spektrographen geschickt wird und $P$ das Prisma, das für die spektrale Aufspaltung des Lichts sorgt. Am Ende des Aufbaus ist eine CCD-Zeile eingebaut, die die Intensität des Lichtes räumlich (1D) getrennt in $x$-Richtung auflöst.\relax }{figure.3.1}{}}
\BKM@entry{id=4,dest={73656374696F6E2E34},srcline={198}}{5C3337365C3337375C303030445C303030755C303030725C303030635C303030685C303030665C3030305C3337345C303030685C303030725C303030755C3030306E5C30303067}
\@writefile{lof}{\contentsline {figure}{\numberline {3.2}{\ignorespaces Laterale Trennung des Lichts für verschiedene Wellenlängen durch die Kombination eines dispersiven Elementes $D$ und einer fokussierenden Linse $L_3$. Das dispersive Element ist in unserem Fall ein Prisma (s. Abb. \ref  {fig:AufbauSpektro}).\relax }}{4}{figure.3.2}\protected@file@percent }
\newlabel{fig:Linse3}{{3.2}{4}{Laterale Trennung des Lichts für verschiedene Wellenlängen durch die Kombination eines dispersiven Elementes $D$ und einer fokussierenden Linse $L_3$. Das dispersive Element ist in unserem Fall ein Prisma (s. \abb {AufbauSpektro}).\relax }{figure.3.2}{}}
\newlabel{eq:LatAufspaltung}{{3.1}{4}{Experimenteller Aufbau}{equation.3.1}{}}
\newlabel{eq:Dispersionsrelation}{{3.2}{4}{Experimenteller Aufbau}{equation.3.2}{}}
\newlabel{eq:CauchyGleichung}{{3.3}{4}{Experimenteller Aufbau}{equation.3.3}{}}
\newlabel{eq:Differentialform}{{3.4}{4}{Experimenteller Aufbau}{equation.3.4}{}}
\newlabel{eq:FitModell}{{3.5}{4}{Experimenteller Aufbau}{equation.3.5}{}}
\BKM@entry{id=5,dest={73656374696F6E2E35},srcline={206}}{5C3337365C3337375C303030525C303030655C303030735C303030755C3030306C5C303030745C303030615C303030745C30303065}
\BKM@entry{id=6,dest={73656374696F6E2E36},srcline={209}}{5C3337365C3337375C303030445C303030695C303030735C3030306B5C303030755C303030735C303030735C303030695C3030306F5C3030306E}
\bibcite{}{1}
\bibcite{}{2}
\@writefile{toc}{\contentsline {section}{\numberline {4}Durchführung}{5}{section.4}\protected@file@percent }
\@writefile{toc}{\contentsline {section}{\numberline {5}Resultate}{5}{section.5}\protected@file@percent }
\@writefile{toc}{\contentsline {section}{\numberline {6}Diskussion}{5}{section.6}\protected@file@percent }
\newlabel{bib:Metallinterferenzfilter}{{1}{5}{\refname }{section*.4}{}}
\newlabel{bib:Cauchy}{{2}{5}{\refname }{section*.4}{}}
\global\@namedef{scr@dte@section@lastmaxnumwidth}{9.55988pt}
\@writefile{toc}{\providecommand\tocbasic@end@toc@file{}\tocbasic@end@toc@file}
\gdef \@abspage@last{5}
