Number of lines: 01

Pixels per line: 8160

26;11;18;11;18;11;12;11;22;11;18;8;21;10;20;10;17;10;20;10;17;10;20;9;21;9;20;10;22;9;23;11;23;9;21;11;23;9;24;5;23;10;21;5;21;11;20;12;24;7;23;5;20;7;23;6;23;5;21;10;19;10;22;12;19;9;22;12;21;10;21;8;23;6;21;8;21;8;20;11;21;6;20;6;22;9;21;7;17;8;21;8;23;10;18;8;20;8;18;5;19;11;18;8;19;9;21;7;18;10;21;7;20;10;23;8;19;8;20;3;20;8;24;7;24;9;21;11;22;4;16;7;20;10;17;6;20;7;17;5;20;10;18;6;21;7;23;6;14;2;14;7;18;5;21;6;19;4;21;6;18;5;22;7;19;4;22;6;18;6;13;9;21;4;20;7;20;7;15;3;16;7;19;6;15;8;18;2;17;7;17;8;18;2;19;8;20;5;15;5;19;6;19;11;13;6;16;5;19;8;19;5;20;8;20;7;15;6;15;6;14;8;20;8;13;3;16;5;20;7;15;3;14;4;17;6;16;5;14;4;15;9;16;9;15;3;17;8;17;5;15;6;17;5;15;5;16;8;13;4;22;1;15;5;23;11;15;1;16;6;12;3;16;3;18;6;18;12;12;10;16;3;16;8;13;2;15;8;18;8;16;10;10;5;15;5;16;5;19;2;13;6;18;3;12;3;15;6;15;3;15;7;11;6;17;4;15;7;18;6;12;4;17;3;13;5;11;4;17;6;15;5;11;3;13;7;16;6;10;9;11;5;12;6;12;6;16;4;12;6;12;5;15;0;11;4;16;2;14;6;14;5;12;4;14;3;10;7;14;6;14;3;10;3;14;0;12;0;11;5;11;3;8;6;11;5;16;4;13;7;11;2;13;3;13;3;13;4;13;6;12;0;12;9;14;6;12;4;11;0;12;1;16;5;18;4;8;5;8;0;15;3;18;4;10;3;11;4;17;6;12;2;16;3;16;5;10;3;13;1;12;4;16;4;11;5;14;0;13;3;10;2;13;3;12;7;11;1;15;1;13;2;12;3;10;5;11;4;10;0;12;5;13;1;9;3;15;3;12;4;13;0;12;3;13;2;9;7;9;3;13;3;11;1;9;1;9;3;11;4;12;0;11;5;15;4;9;2;13;2;13;3;12;5;11;4;8;4;7;2;13;4;11;4;11;3;12;6;11;5;11;2;12;2;8;4;10;1;10;3;11;3;9;5;11;1;10;3;8;3;13;1;10;7;10;4;14;3;7;2;8;2;14;0;13;0;10;2;10;3;11;7;8;2;10;0;15;5;7;4;10;0;11;4;12;0;6;5;11;0;11;2;10;4;14;1;14;0;10;0;7;3;9;0;11;0;17;2;7;1;10;3;5;0;8;0;9;0;10;0;11;0;8;0;14;0;12;3;7;2;6;1;9;4;11;0;15;3;10;4;10;0;13;0;9;0;7;2;14;1;12;0;11;1;12;2;12;3;11;1;15;1;12;0;13;0;13;2;14;7;12;2;11;0;12;6;11;0;8;0;8;3;10;0;9;1;10;0;11;2;10;0;10;6;10;0;11;0;6;1;10;0;14;0;10;1;8;1;10;3;7;0;10;2;11;0;10;3;10;1;9;0;9;0;10;0;10;3;11;0;5;1;12;3;13;1;11;7;12;2;12;5;12;0;10;2;8;4;9;0;10;0;8;0;8;2;10;5;12;2;11;3;12;3;9;1;10;1;12;0;11;3;8;2;8;4;9;3;3;3;10;0;13;2;14;3;13;0;10;0;9;0;12;3;8;3;6;0;9;0;9;0;3;0;14;0;13;0;10;4;10;1;13;1;8;1;7;0;9;1;9;1;9;2;9;2;12;5;12;0;11;0;8;0;6;2;9;4;7;1;8;1;8;0;10;2;11;1;10;0;9;0;8;0;8;0;12;0;10;0;9;0;9;0;13;0;10;0;8;2;12;5;8;0;7;5;11;0;9;0;8;0;10;1;10;1;10;0;11;0;10;0;8;3;9;3;9;2;5;0;8;0;12;0;8;0;7;2;10;4;9;1;12;1;11;0;11;0;9;0;7;1;8;3;11;1;11;1;7;1;9;1;11;2;7;0;11;2;9;0;12;1;8;2;7;5;11;0;7;6;9;0;4;0;8;2;7;0;8;1;9;4;7;0;9;0;8;4;8;2;8;0;7;0;6;0;7;0;12;2;9;0;8;0;10;2;7;0;10;1;8;0;6;2;9;1;9;3;11;0;9;0;10;0;8;0;8;0;13;0;8;5;5;3;7;3;8;2;9;0;9;0;9;1;4;0;8;1;5;0;7;0;8;0;8;3;4;1;9;0;7;1;4;0;4;0;10;0;8;1;9;2;9;2;9;0;9;0;6;0;9;0;8;0;12;1;8;0;5;1;8;0;7;1;8;1;10;0;10;0;7;0;9;0;7;0;7;2;8;1;6;0;10;1;9;2;9;0;10;0;9;1;7;0;11;0;7;0;6;0;8;0;6;1;7;2;6;2;5;4;9;0;7;0;8;2;10;3;9;0;9;0;8;2;9;0;8;3;7;0;10;0;8;0;7;0;7;1;8;0;9;0;5;0;7;0;7;0;10;1;10;0;8;0;7;1;6;0;8;0;7;2;8;0;7;0;5;2;9;0;9;0;10;0;7;0;3;0;8;0;7;0;7;0;10;0;8;1;11;0;8;0;9;2;5;0;9;4;8;0;5;0;9;0;9;0;12;0;9;0;8;1;8;0;12;0;9;4;8;1;11;5;17;6;16;9;19;19;46;60;90;112;145;182;224;268;304;347;372;424;473;562;609;692;719;780;805;857;859;912;907;967;922;991;972;1013;976;1003;1030;1050;1010;1050;1037;1075;1030;1050;1042;1074;1017;1053;990;974;919;875;751;698;604;547;469;436;390;345;290;239;199;176;142;99;81;43;38;25;25;16;19;7;15;3;13;4;13;5;14;5;17;3;13;5;10;8;10;2;13;8;11;6;9;4;10;3;9;4;10;0;10;1;11;1;11;3;11;2;10;3;8;2;10;5;12;4;15;3;10;2;7;0;9;1;9;1;8;0;15;1;12;1;9;4;11;0;9;0;9;0;11;0;11;1;13;0;12;1;11;0;8;0;12;1;10;2;11;1;8;2;12;2;9;1;16;3;11;5;11;1;12;2;14;7;11;3;13;8;11;3;8;5;14;2;11;5;14;1;13;1;16;1;10;3;11;3;7;0;6;0;11;2;9;2;8;0;8;2;11;1;10;0;13;0;10;0;13;1;14;1;11;4;14;6;10;0;9;0;12;3;11;2;13;4;10;3;9;5;15;3;10;1;8;8;14;3;12;3;11;2;13;2;10;3;8;0;11;3;9;0;8;2;9;0;8;0;8;1;11;5;8;0;7;0;8;0;9;0;8;1;10;1;6;0;8;0;5;0;5;5;8;2;9;0;8;0;9;0;7;0;4;2;8;0;7;2;13;0;8;1;8;1;8;0;7;1;6;0;6;0;7;2;5;0;7;0;8;0;10;2;9;0;9;2;8;1;10;0;9;0;9;0;8;0;8;3;9;0;9;0;10;0;8;0;9;0;10;0;9;2;9;3;9;3;9;0;8;0;9;4;10;0;9;0;12;1;10;2;7;1;8;1;9;1;8;0;10;0;8;0;10;1;8;0;10;0;7;1;10;1;6;0;8;0;10;5;7;0;8;0;8;0;6;0;10;0;6;0;10;3;13;0;9;2;9;0;8;0;6;0;9;0;8;1;9;0;9;0;5;0;9;3;7;0;5;0;11;0;9;1;6;0;6;0;9;2;9;0;11;0;11;0;2;0;9;0;10;0;4;0;6;0;12;0;7;1;6;1;6;0;9;1;12;5;8;0;6;0;3;3;8;0;8;0;6;0;6;2;8;0;14;0;14;0;9;0;8;2;9;0;9;0;4;0;8;0;7;0;9;0;9;0;12;0;8;0;6;5;8;0;4;0;8;0;5;0;6;2;5;2;9;5;6;0;7;1;8;0;6;0;9;0;8;1;9;0;9;0;5;0;7;0;6;0;14;0;8;0;5;0;10;1;11;2;12;2;6;0;10;1;8;0;7;0;8;0;6;0;5;0;6;0;8;0;8;0;8;0;5;0;10;3;10;0;5;0;7;0;6;1;6;0;12;1;7;0;6;0;5;0;9;1;8;0;8;2;7;1;8;0;9;1;7;1;7;0;8;1;8;0;10;0;8;0;8;0;8;3;7;1;8;1;8;0;12;0;8;1;9;0;7;0;7;0;8;0;7;3;8;0;6;0;6;0;8;3;10;3;8;0;13;1;12;2;8;0;8;0;7;0;8;0;11;0;6;1;9;0;10;0;11;1;6;0;8;0;3;1;9;0;7;0;4;0;8;2;9;0;10;0;10;1;6;0;10;0;4;0;6;0;8;0;6;0;9;0;9;0;9;0;7;1;11;0;3;2;8;0;6;0;6;0;4;3;6;0;6;1;9;1;10;0;5;0;11;1;7;1;9;0;6;0;9;0;5;1;9;0;6;0;8;2;6;0;8;0;8;0;10;1;8;0;8;0;7;1;6;0;10;0;7;0;8;0;8;6;9;0;5;0;7;0;7;1;10;0;9;0;9;0;7;0;5;2;9;5;7;3;7;0;10;0;7;0;4;0;8;4;9;0;6;0;6;0;7;3;7;2;11;0;10;0;8;5;12;2;8;0;6;0;12;1;9;2;3;0;10;0;9;0;9;0;7;0;10;0;5;1;10;0;10;0;11;0;7;3;12;0;5;4;9;0;11;1;6;0;8;1;7;0;6;0;10;0;8;2;8;0;12;2;9;0;9;0;9;0;8;0;9;0;11;0;5;0;9;0;9;0;7;0;7;0;8;2;12;0;8;0;9;0;9;2;7;0;13;0;6;0;11;0;6;0;7;0;10;0;8;0;11;1;13;0;4;0;8;2;8;0;8;1;8;4;7;0;9;1;9;0;10;0;10;0;9;0;9;3;7;2;9;0;10;0;11;0;7;4;5;0;9;0;7;0;7;4;11;1;10;0;7;0;5;0;8;0;9;0;6;0;6;0;7;0;11;2;9;0;7;2;11;0;9;0;6;0;8;0;6;0;10;0;6;0;8;1;7;0;8;0;11;0;8;0;11;0;8;0;4;0;9;1;8;1;9;0;9;0;6;1;6;0;8;0;7;4;5;1;9;1;2;0;9;1;7;0;9;0;5;0;6;0;9;0;8;0;5;0;14;1;7;0;8;0;11;0;5;0;6;0;8;3;6;0;6;0;7;0;7;2;9;0;8;0;8;1;10;0;8;1;3;2;10;1;6;0;5;0;10;0;9;0;7;1;9;0;5;0;8;0;8;1;8;3;8;0;10;0;9;0;11;0;9;0;9;0;9;0;8;0;6;0;9;0;9;1;7;0;8;0;11;3;7;6;9;1;7;0;8;0;8;0;6;0;11;0;8;0;9;2;7;0;6;2;7;4;10;0;8;0;9;1;9;1;11;2;9;4;10;0;8;0;9;0;10;2;8;0;8;0;7;0;7;2;10;2;7;3;8;0;10;0;13;3;13;4;12;6;16;12;21;18;25;17;24;18;31;22;37;25;37;27;33;28;40;31;41;33;43;34;41;34;44;34;42;38;45;40;41;38;45;35;46;34;45;39;48;31;44;29;35;25;33;18;25;14;21;9;14;3;11;4;12;3;10;2;12;3;9;3;8;0;9;2;8;2;11;0;7;0;9;0;11;4;11;0;6;0;10;0;11;0;8;0;7;0;7;1;9;0;8;1;6;2;7;0;9;1;11;0;11;0;9;0;6;0;11;1;6;0;7;0;7;4;7;0;9;0;4;3;6;0;7;0;10;0;6;3;6;2;9;0;7;0;15;0;7;0;6;1;8;0;10;0;6;1;7;0;10;1;4;0;8;0;6;0;8;0;8;0;7;0;6;0;8;2;5;0;7;0;13;0;10;2;8;0;10;3;7;1;13;0;10;1;9;5;12;2;11;3;12;5;13;3;17;6;16;12;15;5;18;12;16;8;13;6;17;7;16;11;13;12;17;9;19;12;23;8;18;11;15;6;18;11;16;6;16;6;11;7;11;3;12;2;9;4;12;0;10;1;7;0;8;1;8;2;8;3;8;1;7;2;10;0;8;0;6;1;7;0;5;1;9;0;6;0;5;0;9;2;6;0;8;0;7;2;10;0;11;0;9;0;3;0;6;0;6;0;8;0;8;0;5;0;12;2;3;0;8;2;9;0;10;0;8;0;6;0;9;1;6;0;7;0;2;0;9;0;10;0;10;0;12;0;7;0;8;0;8;0;6;0;6;0;10;1;5;4;7;0;13;0;9;0;11;0;13;2;4;0;8;0;9;0;8;0;9;0;9;0;6;0;9;0;12;2;6;0;8;0;5;4;12;0;7;0;8;4;9;0;13;1;9;0;6;0;6;0;6;1;8;0;7;0;8;0;6;0;7;0;5;0;5;0;9;0;7;0;5;0;9;0;7;1;8;0;10;0;7;0;7;0;7;2;10;3;6;0;9;0;8;0;8;0;8;0;9;0;5;0;6;3;10;0;5;2;3;0;6;0;7;0;10;0;9;2;6;0;10;2;9;2;7;2;10;1;10;1;7;1;10;0;9;0;6;0;12;2;8;0;6;0;10;1;9;0;4;0;8;0;7;1;7;0;8;0;6;0;6;0;8;0;10;0;8;0;8;0;7;2;9;0;9;1;5;1;7;0;6;0;7;0;8;0;9;0;7;0;10;1;8;0;8;0;3;0;10;1;8;0;8;0;4;0;9;3;10;0;9;0;8;0;9;0;8;0;9;1;5;2;8;0;9;0;8;0;6;0;4;0;12;2;8;0;8;0;6;0;14;0;11;1;11;0;11;0;12;0;11;0;9;1;10;0;11;0;6;0;10;0;10;0;12;0;8;0;8;0;6;2;7;0;8;0;6;0;7;0;8;0;8;0;6;2;11;0;9;0;9;1;10;0;10;0;6;0;7;0;5;2;7;0;10;0;12;4;9;0;10;3;6;6;7;2;12;0;9;2;12;1;13;5;10;5;11;0;13;3;13;3;12;1;12;6;11;5;13;3;12;5;13;0;10;4;8;3;9;3;12;0;5;0;9;1;12;2;8;0;9;0;8;0;8;0;4;0;6;1;7;0;9;0;9;0;3;0;7;0;5;2;7;0;7;0;6;0;7;0;7;0;10;1;8;0;4;0;9;0;5;2;11;2;8;1;8;0;7;0;13;0;7;0;9;2;10;0;9;4;9;4;7;1;5;0;10;0;8;0;7;0;9;0;9;0;6;0;9;0;6;2;9;0;12;1;7;0;7;2;9;0;9;1;6;0;10;0;9;0;9;0;7;0;4;0;7;0;11;1;7;0;9;2;9;0;9;0;7;0;9;0;11;0;7;0;9;0;10;1;8;3;10;2;8;0;9;0;7;0;12;0;7;0;41;0;7;0;9;1;6;1;7;0;5;0;10;0;8;0;11;0;8;0;5;0;5;1;6;0;7;1;6;0;7;4;7;2;8;0;8;0;4;0;8;2;9;0;7;0;7;0;11;0;9;0;7;0;8;1;9;0;6;0;9;0;6;0;9;1;9;0;7;0;4;0;9;2;6;0;9;1;8;0;8;0;8;1;9;0;7;3;7;0;6;2;6;4;9;0;6;0;5;0;7;0;8;0;8;0;8;0;9;1;10;1;8;0;8;1;4;0;6;0;11;2;8;1;6;0;10;2;6;2;6;0;8;0;6;0;10;0;6;0;7;0;8;0;6;1;11;0;10;0;8;0;9;0;5;0;6;0;12;0;10;2;10;2;10;0;8;0;8;0;5;0;10;1;8;1;8;0;6;0;6;1;7;0;7;0;8;0;7;3;12;0;7;0;11;0;8;0;7;2;6;0;8;2;12;0;9;0;11;0;9;1;5;0;9;0;8;0;7;0;7;0;7;1;9;0;7;2;10;0;6;0;4;0;5;0;8;2;6;0;7;0;8;0;9;3;8;0;8;0;6;0;9;2;8;0;8;1;11;0;6;0;5;2;9;0;6;0;8;0;12;0;6;0;7;1;4;0;10;0;8;0;9;0;11;0;9;1;8;0;7;0;7;2;8;0;6;0;6;1;6;0;6;1;9;0;10;1;7;3;10;0;7;1;8;0;9;5;10;0;8;2;6;1;11;0;7;0;8;0;12;2;11;0;9;0;6;2;8;0;8;0;6;0;8;1;4;0;4;2;10;0;6;0;8;1;10;0;6;0;8;4;7;0;5;3;10;1;9;1;9;0;7;0;6;0;8;0;13;0;9;0;8;4;10;0;10;0;9;0;9;1;8;0;7;2;10;0;6;0;6;5;4;0;10;2;7;0;9;1;4;0;8;0;12;0;6;0;5;0;8;2;8;0;8;0;6;1;8;1;12;0;10;3;10;6;13;0;14;4;17;10;23;13;23;17;22;15;32;24;32;20;34;20;32;26;37;26;33;27;37;28;38;28;40;27;33;30;42;30;38;29;36;27;33;25;31;22;30;20;29;17;27;13;19;8;20;8;15;7;13;2;16;6;10;2;10;3;9;3;10;0;10;2;7;0;9;3;6;0;11;1;11;0;8;1;8;0;9;0;8;0;7;0;10;0;9;0;10;0;9;0;9;0;7;0;10;1;7;0;9;0;8;2;9;1;9;1;10;0;9;1;6;0;8;0;12;1;8;0;10;5;8;1;10;1;9;0;6;0;11;0;12;0;10;0;9;2;8;0;9;2;9;1;10;0;11;3;8;0;9;0;10;0;8;3;6;2;13;0;10;0;7;0;4;3;11;1;10;0;6;3;12;1;10;0;10;0;9;0;7;0;9;0;9;0;7;0;13;0;10;0;10;0;9;2;7;2;12;0;10;0;8;0;8;3;7;0;10;0;10;0;7;0;12;0;13;0;9;1;9;0;7;2;6;0;10;1;10;1;10;0;8;0;10;2;8;1;9;0;9;0;7;0;9;0;6;1;10;1;10;5;8;0;9;0;5;1;16;3;8;2;15;2;10;0;8;0;12;0;10;0;9;2;7;3;12;0;9;5;11;1;14;2;8;0;9;2;10;0;9;1;8;2;10;4;12;0;9;1;10;1;11;0;5;0;9;0;10;0;9;0;8;0;11;0;13;1;14;2;12;0;11;0;12;2;9;3;13;5;11;0;8;1;12;3;12;2;12;3;10;1;14;0;12;0;8;4;16;6;11;0;11;3;18;0;13;1;10;1;10;0;13;0;9;2;10;4;13;2;11;3;13;1;10;2;9;2;12;1;13;0;13;0;12;0;9;2;10;1;9;6;9;1;11;1;12;1;9;1;6;0;12;0;12;0;12;0;13;0;13;0;11;2;14;0;12;0;11;0;11;5;13;3;9;3;9;1;9;2;11;1;12;0;11;0;10;2;10;0;12;0;8;0;9;2;8;1;9;3;10;0;12;1;9;1;6;4;12;2;9;0;12;3;15;2;10;4;9;2;13;1;12;0;7;1;9;4;13;0;13;0;9;1;10;2;8;3;10;1;12;3;10;3;10;2;8;1;11;0;10;0;12;0;9;1;9;0;10;1;13;2;10;3;13;2;11;2;9;0;10;1;11;0;12;4;9;0;10;1;7;0;8;0;7;0;9;0;8;4;11;0;11;5;11;3;11;3;11;0;11;0;10;4;11;3;14;0;9;0;13;3;9;1;9;1;12;4;8;3;12;0;8;4;8;5;12;1;12;0;10;0;12;2;13;1;10;0;11;0;10;2;13;4;11;1;12;0;10;1;11;4;14;7;13;0;14;3;11;0;14;1;8;0;12;1;11;2;11;3;12;1;8;0;9;1;12;5;10;0;11;0;9;1;10;0;10;1;13;0;10;3;10;0;8;4;9;1;11;0;10;0;9;0;11;0;15;0;8;0;8;0;11;2;9;1;9;0;8;0;9;0;10;1;10;0;9;0;11;0;14;0;7;1;11;1;10;0;10;1;10;2;9;2;7;0;6;2;14;5;10;0;8;1;9;1;10;0;9;1;12;1;8;0;10;0;9;1;10;1;10;0;10;3;9;1;9;3;6;0;9;0;10;0;7;8;9;4;8;2;13;0;13;2;13;0;10;0;12;0;10;0;11;0;16;2;8;0;8;1;13;3;10;0;12;1;12;3;11;1;10;0;9;4;10;0;11;0;11;0;10;1;12;0;16;0;10;2;8;0;10;3;10;0;10;5;13;2;10;3;10;3;5;1;11;3;11;2;9;2;8;2;12;0;8;0;11;2;9;2;8;0;12;2;8;3;11;4;8;0;8;0;9;0;9;0;8;1;10;0;11;0;11;2;10;0;12;0;9;3;9;0;12;0;11;2;9;2;7;3;13;0;13;1;10;0;12;1;6;0;9;2;11;5;8;0;9;2;7;0;9;4;9;0;12;0;12;0;14;0;8;3;8;0;8;1;12;0;13;0;8;3;11;3;12;0;11;4;10;3;9;1;12;0;10;1;11;0;10;0;11;0;8;2;13;0;8;6;9;4;11;0;9;2;10;1;8;2;12;0;12;0;8;0;13;2;7;0;8;0;14;0;9;2;10;2;8;0;9;0;9;1;10;5;10;0;12;0;11;0;10;1;9;0;7;3;11;1;9;2;9;4;9;0;12;3;10;1;10;3;11;0;11;1;9;0;7;0;9;2;6;3;11;0;12;2;11;1;10;0;14;0;8;2;8;0;11;1;12;2;9;1;11;0;12;0;12;5;9;0;7;0;12;0;14;1;10;1;10;3;10;4;12;2;14;1;13;1;11;0;10;0;13;3;8;0;10;5;10;0;10;1;9;0;8;2;11;0;11;0;13;1;12;0;11;1;12;5;10;2;10;2;13;0;10;6;11;2;12;0;9;0;12;0;9;0;9;1;8;1;10;0;10;5;8;1;16;3;8;1;9;1;10;0;12;0;13;0;6;0;10;1;8;0;9;2;12;1;10;0;12;0;13;2;9;0;13;0;11;0;8;3;11;3;10;3;14;1;11;0;12;0;8;2;11;1;6;0;11;0;11;0;10;0;11;2;12;3;7;0;9;2;10;2;12;0;7;2;8;1;7;1;14;0;9;1;8;0;9;0;9;3;12;0;9;0;9;0;9;2;9;0;9;0;11;0;10;0;10;1;12;4;10;0;8;0;10;2;12;0;12;1;9;0;10;2;9;0;8;3;10;0;13;0;11;4;10;2;12;0;10;2;10;1;9;4;6;0;9;2;10;4;10;3;9;0;8;4;10;1;10;0;8;4;8;2;11;0;10;0;8;2;14;0;9;0;9;6;12;0;11;2;10;5;12;0;9;0;10;3;8;1;9;0;11;3;8;0;12;2;9;1;9;0;8;1;10;0;10;0;11;0;13;1;10;0;12;0;10;0;11;0;14;0;10;0;15;1;13;2;13;2;12;0;15;0;13;0;13;0;12;0;10;3;8;0;9;2;8;6;10;0;7;0;10;1;11;1;9;0;9;1;10;2;10;3;12;1;8;1;9;3;13;0;12;0;9;4;9;0;7;0;9;2;11;0;13;0;9;0;9;0;6;0;8;0;12;4;15;0;12;0;9;1;12;0;9;0;11;0;13;0;9;2;8;0;8;3;8;0;9;2;8;1;13;4;9;1;11;1;11;2;12;0;12;0;13;0;8;5;9;0;14;3;10;0;10;0;9;3;9;1;10;0;14;2;12;3;8;0;10;0;9;0;12;0;13;0;9;0;10;1;9;1;9;0;12;2;7;2;11;0;9;0;10;0;9;0;12;0;9;0;7;0;13;3;12;0;8;0;10;0;11;1;10;0;11;0;15;0;7;1;9;0;10;0;9;0;10;1;9;0;10;0;9;0;12;2;7;0;11;0;13;0;9;2;10;0;10;0;7;0;8;0;8;0;8;3;10;0;9;1;10;0;10;1;11;2;11;0;9;4;9;0;9;0;12;2;13;1;10;0;10;0;10;0;11;1;9;1;8;0;9;0;12;1;9;3;9;0;11;0;13;0;9;0;9;3;6;1;8;2;12;0;12;0;9;0;9;0;10;2;6;0;12;2;8;0;12;0;9;2;15;2;10;1;10;0;11;0;7;0;13;0;14;3;13;0;12;0;10;1;9;0;12;4;11;0;11;0;11;2;9;3;10;0;9;0;13;3;9;0;12;2;6;2;8;0;11;0;10;3;11;3;10;1;12;0;8;0;10;0;9;2;9;1;9;0;14;0;9;0;9;3;12;3;10;0;14;0;8;0;5;3;10;1;10;0;11;0;12;3;10;1;10;0;13;0;10;3;7;0;4;0;10;1;10;2;11;0;12;0;10;0;10;0;13;0;11;0;11;1;10;0;7;0;8;1;10;1;10;0;7;0;13;0;7;1;12;4;12;2;6;3;13;0;11;1;9;0;11;0;10;1;9;0;9;1;14;3;8;1;9;1;7;0;8;1;6;0;12;5;11;1;10;2;10;2;8;2;10;0;11;2;10;3;9;0;12;3;8;0;11;0;10;0;13;0;7;0;11;3;12;0;8;0;9;0;9;0;9;0;9;0;11;0;9;1;10;0;10;0;12;1;10;1;10;0;10;0;10;2;9;0;14;1;12;5;9;0;11;1;10;6;9;1;9;0;12;0;11;1;9;0;10;2;8;0;13;3;11;0;8;1;9;0;9;2;18;0;8;0;11;0;10;0;10;1;10;4;4;0;9;0;7;1;14;4;8;2;14;3;9;0;7;0;9;0;9;0;7;0;10;1;9;0;8;0;8;1;9;2;9;3;11;0;8;0;10;1;10;0;7;0;8;0;7;1;9;4;11;0;9;0;11;0;11;1;10;6;8;3;10;3;10;0;14;1;8;0;7;2;11;0;12;0;11;1;8;0;7;1;9;2;6;0;8;0;7;0;9;0;10;4;9;0;11;0;10;0;10;4;10;3;11;0;10;0;11;0;11;0;10;0;12;0;7;0;10;0;9;0;8;0;11;2;8;0;11;0;7;0;9;3;9;0;10;0;10;0;7;0;11;0;9;0;12;0;6;0;11;0;12;4;9;0;12;0;12;0;9;0;8;0;7;0;10;0;8;0;9;0;8;0;11;0;10;0;11;0;9;3;10;2;10;2;10;1;11;0;10;2;10;3;10;3;14;1;9;0;10;2;10;0;9;1;10;0;13;2;8;0;5;4;12;1;9;0;8;0;12;1;9;0;10;3;12;0;8;0;11;0;10;2;10;0;10;1;15;0;7;0;13;2;8;0;7;0;12;4;14;0;10;1;9;0;9;1;12;0;8;0;8;0;10;0;9;0;10;4;8;0;9;0;9;0;8;0;6;0;9;0;8;4;10;0;9;2;9;0;12;0;10;4;12;4;7;0;9;0;11;0;9;2;8;0;10;0;9;1;8;3;8;0;7;3;7;3;11;0;8;0;9;0;7;0;11;0;12;0;5;3;9;0;8;2;10;0;13;0;7;0;10;1;8;0;8;0;10;2;9;0;12;1;10;0;14;6;9;1;10;0;8;0;13;0;6;0;10;0;12;0;10;2;17;3;12;4;10;0;13;2;11;4;11;0;15;2;14;6;12;2;14;4;14;5;13;3;18;6;18;7;17;9;19;12;21;8;19;10;20;8;18;8;17;11;17;11;22;9;18;11;21;11;17;8;16;6;15;6;20;8;19;8;17;6;15;11;12;5;15;5;16;7;12;3;16;4;11;5;10;0;8;0;9;0;10;5;8;0;12;0;16;5;8;0;9;2;6;0;11;0;10;0;9;2;8;3;12;0;6;0;8;0;11;0;7;0;7;0;7;0;8;0;8;0;8;0;9;2;11;0;8;4;9;2;6;3;8;0;5;0;9;0;13;0;6;3;11;0;10;1;8;0;9;0;9;0;8;1;10;0;8;0;9;0;10;0;10;0;9;0;13;0;10;1;6;0;7;0;11;0;11;0;9;0;11;0;10;0;7;0;9;0;10;0;7;0;15;1;10;1;13;0;11;0;11;0;14;1;10;0;10;0;13;0;10;0;10;2;10;3;6;0;8;0;10;0;9;0;9;0;6;0;8;4;8;2;8;1;10;0;7;3;9;5;11;0;10;0;8;0;11;0;6;0;12;0;8;0;8;0;8;3;5;3;9;0;9;0;11;0;7;0;10;0;10;0;7;0;7;2;10;0;8;3;6;3;11;0;9;0;7;3;16;0;11;0;10;4;8;2;7;0;6;0;8;1;10;0;7;0;10;0;6;0;12;0;8;0;10;0;11;0;10;2;10;1;12;0;10;0;6;0;11;0;11;0;9;0;7;0;8;0;9;1;9;1;7;0;13;5;12;0;10;0;7;0;5;1;8;0;7;0;7;0;8;0;5;0;8;1;11;1;10;0;5;0;7;0;12;0;11;2;8;2;5;0;11;0;6;2;10;2;10;0;7;0;9;0;7;0;9;0;8;0;10;0;11;0;9;1;9;0;7;3;9;1;10;0;6;0;10;0;12;0;8;0;7;0;9;0;10;0;8;1;12;0;8;0;4;0;11;0;7;0;5;1;7;0;6;0;8;0;9;0;9;0;9;0;8;3;7;1;12;0;11;0;7;0;5;1;9;0;8;0;6;0;7;0;9;1;6;0;11;0;12;0;11;0;7;1;11;5;12;0;9;0;10;0;10;0;8;1;5;0;11;1;6;0;10;0;6;2;6;2;11;0;8;0;9;0;9;1;9;0;10;0;9;0;9;0;8;0;10;1;7;0;6;0;12;1;8;0;11;0;14;0;9;0;6;3;12;4;11;0;8;0;5;0;11;0;7;0;6;3;10;0;9;1;7;0;7;0;9;0;11;0;8;0;10;1;13;0;9;0;5;0;8;0;7;0;6;0;9;0;9;0;6;2;10;0;11;0;5;1;10;0;7;0;8;0;11;0;7;0;10;0;5;2;10;0;7;4;10;0;8;0;10;0;6;0;7;0;12;0;7;0;8;0;11;2;8;1;8;2;7;0;9;0;6;0;9;1;10;1;7;0;10;0;8;0;7;0;8;0;11;0;10;0;6;0;9;0;4;0;8;3;9;0;6;0;7;2;11;0;7;0;6;1;7;5;9;0;7;0;11;0;6;3;9;0;5;3;6;0;6;0;9;0;8;0;5;0;9;0;10;0;10;0;13;3;7;0;9;0;13;1;5;0;7;1;7;0;10;1;7;2;6;0;10;0;14;3;12;0;8;0;10;0;9;0;8;0;11;2;11;0;10;0;10;0;12;2;13;0;10;0;9;4;4;0;6;0;8;1;11;0;9;0;8;1;8;0;7;0;8;1;9;0;12;1;4;0;8;1;10;0;6;0;10;3;12;0;9;0;6;1;7;0;9;0;6;0;13;0;11;0;9;0;14;1;15;3;11;4;13;7;8;2;12;3;13;2;13;7;10;6;13;1;13;1;11;0;12;3;9;6;9;0;14;0;12;0;8;3;16;3;14;6;9;1;11;0;9;0;10;0;13;0;10;0;6;0;8;0;10;0;10;1;8;1;11;0;7;0;9;0;7;2;7;0;9;0;5;0;7;2;9;0;8;0;4;1;11;2;9;1;16;0;7;0;10;0;10;0;7;1;7;0;8;0;8;0;8;1;5;0;7;0;9;0;6;0;5;0;8;0;7;0;9;1;8;0;9;0;7;1;8;0;5;1;4;0;10;5;7;0;8;0;8;0;4;0;9;2;9;0;9;0;7;0;8;0;4;0;9;0;9;0;10;0;11;0;9;0;11;0;7;3;8;0;8;0;12;0;5;4;6;0;10;2;9;0;7;0;18;0;8;0;7;0;6;0;9;0;6;0;7;1;9;1;7;0;8;0;8;0;13;1;8;0;9;0;9;0;13;0;7;0;9;0;7;0;7;0;4;0;8;0;11;3;9;1;10;0;10;0;7;0;9;0;7;0;7;0;9;0;7;0;9;0;8;0;12;0;5;0;9;0;11;0;8;1;4;0;9;0;9;0;11;0;8;9;9;0;4;0;4;0;6;0;8;1;10;0;7;0;10;0;7;0;7;1;6;0;9;0;7;2;4;0;10;0;8;0;10;0;6;0;8;0;8;1;6;0;11;0;8;0;9;0;10;0;7;0;12;0;9;2;7;0;6;0;4;0;10;0;11;0;9;2;6;0;7;0;7;0;7;0;9;1;12;3;10;0;10;4;9;1;4;1;13;0;10;2;10;0;10;3;9;0;11;0;10;1;7;0;8;0;9;1;9;1;8;1;10;0;9;0;9;0;14;0;9;0;11;1;10;0;7;1;10;0;8;0;7;2;7;0;12;5;7;1;10;0;12;0;12;2;9;0;9;0;10;0;10;0;12;0;9;2;10;0;7;0;5;0;8;2;11;0;8;0;9;0;10;0;9;0;10;0;7;0;13;3;9;0;10;0;7;0;7;0;10;0;6;2;4;1;9;0;11;1;11;0;9;0;10;0;7;0;7;3;11;0;7;0;7;3;7;0;8;0;12;0;13;0;10;0;8;2;9;2;10;0;7;0;8;0;9;0;12;0;7;0;8;0;9;1;6;0;10;0;9;0;9;0;5;3;12;0;7;0;9;0;10;0;6;0;11;0;9;0;9;0;8;0;10;2;6;0;7;0;7;0;6;0;7;0;9;0;9;0;10;0;11;0;8;2;9;0;10;0;8;0;5;0;11;0;11;0;11;0;13;0;8;1;10;0;11;0;7;0;11;0;11;0;5;0;9;0;10;0;4;0;9;0;12;0;5;3;7;0;10;0;6;1;12;0;8;2;8;0;7;2;11;3;12;0;10;0;11;0;13;0;13;0;12;2;14;0;14;0;14;0;9;0;11;4;11;0;9;0;10;0;9;2;13;3;12;0;11;0;13;0;9;1;12;8;11;0;7;0;6;1;9;0;8;0;12;0;8;0;6;2;10;1;9;1;5;1;9;3;11;3;7;0;13;1;10;0;11;0;7;0;9;2;9;2;8;0;10;0;9;3;13;2;10;0;9;0;10;0;11;0;8;0;7;0;7;0;8;0;14;0;7;0;8;1;11;0;12;0;13;2;9;1;10;0;10;0;8;0;8;3;8;1;8;2;12;0;5;4;10;2;10;2;7;1;8;0;10;0;10;3;9;1;9;1;12;3;11;2;10;0;9;2;9;0;11;1;10;2;9;0;11;0;7;4;8;2;7;0;11;0;10;0;8;2;9;1;8;0;6;4;8;0;10;2;7;0;7;0;12;0;11;3;11;0;8;1;13;4;10;0;11;4;7;0;7;2;9;0;10;0;9;0;12;0;9;2;8;0;12;0;8;0;12;0;9;0;12;0;11;6;7;0;11;2;8;0;6;0;9;0;10;0;9;5;12;0;12;3;9;0;7;0;9;0;11;4;9;0;9;2;6;0;7;0;10;3;10;2;9;0;13;0;9;0;10;0;11;2;9;1;9;1;7;0;11;0;10;1;6;1;11;2;11;0;14;1;8;4;10;1;12;0;14;0;13;0;12;0;14;4;12;0;9;0;11;0;12;2;12;1;11;0;9;0;9;2;13;0;10;2;10;0;11;5;11;0;10;1;11;5;8;2;8;0;8;1;14;0;12;0;15;0;12;4;15;1;10;4;11;0;10;0;11;0;9;1;8;0;14;0;11;0;10;0;11;0;10;0;10;0;11;0;9;0;13;0;9;2;13;0;11;2;14;1;11;3;11;2;15;1;11;0;12;1;12;3;11;0;13;0;8;3;11;1;14;0;8;2;15;2;12;0;13;0;12;5;14;4;14;0;12;1;13;3;10;0;14;0;13;2;13;3;14;0;9;0;12;5;10;2;13;1;11;0;12;3;13;0;12;0;16;2;12;0;12;2;12;0;13;0;11;4;11;5;12;0;13;1;12;0;12;0;13;0;11;2;10;0;13;0;13;0;16;1;19;0;9;0;14;0;12;0;10;3;18;0;12;1;14;3;14;0;17;3;12;1;17;1;10;0;12;0;18;0;12;4;15;1;16;0;13;0;16;0;17;3;13;0;8;0;18;6;14;3;12;2;17;0;19;1;11;1;14;1;16;0;13;4;21;3;13;2;16;0;15;0;15;2;12;1;10;0;14;2;13;1;14;1;14;2;16;4;14;2;19;0;16;0;16;0;16;2;19;2;15;4;13;0;12;0;16;0;15;6;11;1;13;2;18;8;14;3;16;6;17;0;17;4;19;3;19;0;16;4;15;0;15;1;16;3;14;0;18;0;12;0;16;0;18;0;17;3;12;5;15;0;15;0;14;1;11;1;13;7;11;2;9;3;10;2;17;1;13;1;9;3;12;2;12;0;

