Number of lines: 01

Pixels per line: 8160

19;4;12;4;12;2;6;8;10;4;10;3;10;2;13;3;15;5;11;3;8;1;12;6;14;4;11;4;12;2;15;6;12;6;13;10;14;3;13;0;14;3;12;0;14;3;8;5;14;1;16;0;11;3;9;0;14;0;9;1;8;3;15;3;13;2;13;0;11;1;12;5;15;3;14;1;14;2;11;8;14;2;16;4;9;5;14;4;9;0;9;4;16;3;8;6;11;5;11;0;12;2;8;4;11;4;9;1;13;1;14;0;12;6;13;6;11;0;12;0;10;6;13;3;16;2;14;6;13;0;9;1;11;8;10;2;9;1;12;3;11;5;6;1;11;2;16;1;7;4;12;2;8;1;11;0;12;0;12;0;11;0;11;0;7;0;11;3;14;3;10;4;14;0;9;2;13;3;10;0;11;1;10;0;9;2;12;0;11;3;8;4;12;0;11;0;11;1;11;0;14;0;9;0;7;3;12;0;10;0;10;0;11;2;12;5;10;1;11;0;9;4;11;5;11;0;9;0;15;3;13;1;11;6;10;1;10;0;8;1;9;3;12;2;9;0;13;2;11;1;11;3;12;2;8;0;8;2;6;0;16;0;10;1;15;6;12;1;11;1;9;0;9;0;12;3;11;6;8;5;10;2;10;1;8;1;9;7;12;3;11;6;9;4;8;4;12;2;12;1;8;1;9;1;9;0;9;2;8;0;10;3;10;3;8;0;8;4;10;0;7;5;14;1;11;3;11;1;15;3;10;1;8;2;8;6;12;0;8;4;13;1;10;3;10;5;11;2;11;2;12;0;9;0;10;0;15;0;12;1;14;0;13;3;13;0;8;5;11;2;14;0;10;0;12;0;9;1;10;0;9;0;8;3;13;1;13;1;13;0;13;0;9;0;12;3;14;0;12;2;11;0;10;3;16;6;13;0;11;3;13;1;14;2;11;2;13;3;14;0;14;3;15;1;10;2;10;2;15;2;14;0;14;1;14;3;9;0;12;3;9;3;14;2;12;4;13;0;14;0;14;3;12;2;10;4;12;1;12;1;11;0;12;2;12;1;11;4;11;2;12;3;11;2;14;0;17;1;14;4;11;0;11;0;13;2;11;5;9;4;13;2;13;3;11;4;11;2;11;2;14;2;11;2;13;5;10;1;12;3;10;0;13;5;14;6;13;3;11;3;14;4;13;2;11;1;8;2;14;5;12;1;11;0;9;2;13;3;14;1;15;2;13;2;13;0;11;5;12;3;14;0;14;3;17;2;16;4;11;4;13;4;13;1;15;2;9;5;17;1;12;10;12;3;10;1;15;6;9;5;14;0;14;6;15;1;13;9;14;0;14;3;14;4;14;2;15;1;18;4;15;6;15;3;12;3;15;1;15;3;14;5;11;5;13;6;13;1;17;3;17;4;12;6;16;3;17;5;19;6;18;6;19;10;17;7;22;7;19;11;19;10;23;10;22;9;22;13;29;14;26;15;27;21;26;20;33;20;30;22;36;30;40;34;46;36;48;45;60;50;58;56;64;56;73;70;77;77;86;80;95;89;102;97;110;109;115;116;128;126;135;138;151;151;155;155;166;167;175;176;190;191;201;205;208;214;226;229;238;236;252;254;259;272;279;278;284;295;304;306;312;316;328;337;343;351;362;363;377;382;382;399;405;407;410;418;419;440;443;446;456;465;467;470;469;485;489;501;496;507;517;518;520;523;526;554;557;566;560;568;572;596;592;607;592;598;599;614;606;620;619;633;630;650;640;658;654;673;650;666;656;676;671;688;679;691;691;703;696;711;684;708;709;707;694;716;705;718;720;719;721;726;721;738;724;754;722;748;737;760;740;742;746;768;744;756;745;752;744;755;747;771;756;770;745;765;759;773;761;766;764;782;756;760;762;766;757;773;763;775;767;777;774;781;758;775;769;775;762;785;779;776;781;774;756;789;785;783;771;786;787;793;795;791;795;800;777;789;783;797;773;795;790;791;790;798;789;792;795;798;782;809;774;800;781;788;790;792;793;807;787;802;776;805;797;822;793;808;797;796;793;806;804;813;778;808;803;819;800;816;800;819;801;811;801;809;792;821;805;820;802;823;807;831;804;828;814;815;811;827;804;816;801;836;803;822;815;820;811;824;819;831;810;826;806;802;793;841;806;813;794;802;794;838;810;845;818;839;798;832;799;828;811;831;811;830;811;836;800;826;812;826;810;820;817;830;816;835;813;829;814;827;808;810;817;828;814;839;825;829;811;826;810;823;819;832;817;824;820;836;815;827;819;838;815;833;823;836;811;824;820;821;818;830;823;832;816;835;813;841;825;837;820;835;820;822;821;840;822;834;816;838;816;819;837;834;841;834;821;839;819;835;819;834;826;822;828;849;815;846;817;845;835;835;836;830;825;838;826;838;829;832;829;844;853;850;834;834;844;845;823;818;831;849;840;846;829;837;838;826;839;849;839;853;835;835;831;853;829;838;857;854;848;845;840;832;846;843;851;870;847;860;843;855;838;851;840;843;842;854;837;847;844;858;836;853;844;842;839;865;841;859;840;855;838;861;851;859;845;847;843;856;868;859;864;866;843;861;844;870;861;864;843;868;853;868;856;873;861;855;862;880;836;859;855;884;861;852;851;869;848;876;869;868;856;872;855;869;842;854;846;877;860;858;844;862;846;860;860;871;853;867;861;875;850;874;842;875;852;865;843;875;862;891;848;874;856;866;851;892;853;879;864;874;844;863;856;880;850;885;861;876;851;868;835;862;848;877;846;872;858;897;841;865;842;856;839;866;854;866;827;858;845;865;837;873;843;868;841;868;853;861;830;868;857;868;832;883;831;857;844;875;829;866;821;844;827;863;827;852;854;861;839;863;828;847;815;831;850;857;822;853;836;864;827;842;843;846;816;854;829;850;822;851;819;833;838;847;820;832;818;836;817;835;811;824;816;826;822;838;793;838;824;833;816;824;805;812;815;828;813;832;823;826;823;839;820;833;820;838;811;819;818;842;814;810;817;815;796;817;808;822;807;814;800;816;814;815;803;806;803;810;798;810;797;794;803;807;793;819;817;803;803;803;801;792;808;806;781;809;807;796;792;793;800;788;796;793;782;795;789;796;789;793;803;791;794;802;794;807;792;804;806;789;784;800;786;787;777;795;780;794;795;781;785;807;775;798;793;800;779;777;786;790;789;785;784;788;776;776;785;791;788;784;778;770;785;789;762;787;780;767;769;779;776;782;781;773;772;769;776;788;779;762;770;778;781;772;776;790;764;760;769;750;758;763;782;767;763;770;783;790;775;764;763;765;761;765;769;766;755;757;757;758;761;753;757;760;744;758;739;752;747;765;743;735;769;774;764;751;747;763;749;755;756;762;749;757;742;749;747;747;739;750;736;757;741;743;732;737;739;751;742;754;743;756;753;739;744;729;741;760;722;742;741;734;727;739;726;742;720;727;725;743;722;743;715;734;735;742;715;720;712;728;711;724;710;726;724;734;720;727;724;731;707;724;699;718;710;717;707;708;709;727;699;708;708;714;710;718;712;708;686;708;692;711;704;710;694;703;692;704;702;711;691;695;696;695;690;696;691;702;691;695;686;713;684;679;701;703;680;694;668;696;665;691;667;691;676;695;680;683;672;685;666;680;679;684;671;684;681;673;663;667;661;680;660;687;664;680;660;671;658;681;670;668;659;671;658;680;654;671;650;656;653;663;650;671;651;678;655;663;641;664;654;655;637;644;652;665;645;650;645;652;647;651;641;643;629;659;635;651;650;632;648;634;649;647;633;644;635;632;638;657;627;643;645;646;637;656;643;625;639;642;643;640;632;639;618;633;621;629;631;641;627;627;620;640;634;627;633;634;624;632;618;632;627;621;623;615;623;626;618;624;624;632;615;621;607;614;630;619;620;616;615;615;614;605;609;611;612;616;615;611;623;614;618;614;617;614;605;601;618;615;603;612;601;604;595;596;605;597;595;606;602;587;595;589;594;581;599;592;595;612;609;592;586;596;597;594;585;594;598;592;589;595;591;594;577;582;585;590;595;584;601;577;587;590;588;575;591;585;572;569;590;572;584;577;591;582;579;572;587;572;578;574;568;571;585;578;569;561;578;567;574;556;582;572;569;566;576;562;563;559;571;573;566;563;582;547;570;556;569;554;574;550;564;554;569;560;561;560;554;559;558;553;559;563;547;544;556;550;557;562;568;544;551;555;560;556;564;552;544;543;545;530;519;508;511;512;510;526;512;507;523;527;534;529;532;533;533;535;538;532;538;532;530;531;545;541;537;534;528;529;535;533;527;538;533;529;528;533;520;524;520;521;528;522;520;517;520;507;525;526;519;530;516;519;518;521;521;508;510;527;512;521;523;530;509;512;513;505;503;520;514;504;513;507;508;512;515;507;518;512;506;507;506;504;499;507;513;511;504;503;502;511;498;489;489;503;501;504;486;489;489;491;493;487;482;490;491;488;478;498;482;482;481;488;479;482;485;490;485;488;477;495;480;484;475;466;474;486;477;479;473;482;463;488;473;487;478;469;467;483;464;467;461;467;462;471;461;469;461;473;461;466;457;460;466;462;458;465;454;457;466;456;456;459;454;453;446;457;453;468;448;451;454;450;456;459;448;447;442;454;450;456;454;443;441;450;450;440;436;435;428;441;442;445;439;449;429;440;436;445;435;432;434;430;436;418;433;436;424;427;424;427;423;414;421;426;420;423;419;425;422;422;420;416;425;419;413;417;412;418;419;414;416;407;406;406;411;414;408;408;405;396;410;401;404;399;397;402;405;396;402;402;401;394;390;398;394;396;396;397;399;390;400;389;399;387;388;380;385;377;395;394;396;382;386;379;386;380;396;374;388;372;383;369;382;386;383;375;386;379;378;370;381;368;376;367;359;366;370;351;372;360;379;363;373;357;365;372;372;354;371;356;360;359;377;362;361;357;375;346;348;357;355;347;362;347;353;353;359;354;358;340;348;339;350;343;347;336;354;353;356;343;343;342;356;336;347;339;351;342;343;336;339;333;335;338;334;333;349;336;336;330;338;319;331;332;333;326;335;327;338;329;331;324;329;323;336;325;328;321;332;324;328;329;327;319;324;314;334;316;327;305;324;317;312;313;318;313;315;319;319;306;322;305;312;313;322;308;313;313;316;305;315;304;308;297;305;299;311;300;306;296;312;298;310;299;301;304;303;302;303;295;302;292;311;297;296;290;297;300;305;294;299;295;304;292;298;299;302;289;295;291;294;300;292;289;291;288;295;290;290;285;293;284;289;288;298;286;284;287;289;296;285;301;285;289;281;294;290;278;285;286;292;285;284;290;280;283;284;290;291;285;279;289;286;291;287;282;284;285;279;280;282;282;282;273;284;285;281;286;280;278;278;283;273;279;276;276;283;279;283;289;275;280;279;275;273;278;278;275;275;281;275;277;278;276;281;282;279;274;277;269;271;274;276;276;278;277;287;278;280;285;282;277;279;285;288;282;279;283;277;280;274;276;272;288;275;274;270;275;279;275;287;283;272;277;281;277;278;280;287;270;283;280;276;285;282;279;280;285;277;272;281;274;276;274;282;281;282;272;276;276;281;282;284;280;274;276;280;279;282;267;283;276;275;282;282;289;280;289;285;276;283;281;284;274;285;291;286;290;291;284;295;281;290;284;282;279;290;287;286;291;287;288;296;291;276;282;286;285;289;282;290;288;289;286;291;278;289;289;304;287;297;294;297;287;289;291;294;284;292;293;298;289;296;294;292;297;295;296;303;297;304;291;295;301;302;290;304;290;304;303;300;296;290;294;300;299;315;298;301;297;299;296;307;305;298;302;303;310;306;303;295;305;307;310;306;298;311;303;318;298;311;307;315;306;302;305;307;315;316;302;327;304;318;308;314;309;312;309;313;305;330;303;314;312;318;310;322;315;320;316;325;314;310;315;329;316;326;315;325;320;322;322;324;329;327;319;328;325;330;320;328;329;334;322;331;326;335;322;335;336;337;328;335;327;336;328;345;327;346;330;344;335;341;341;339;329;348;340;341;337;344;341;352;345;344;345;354;349;351;345;351;345;356;360;351;347;353;357;360;352;355;348;363;358;366;363;366;362;363;367;375;367;367;371;371;359;369;365;379;368;387;374;378;374;382;380;386;374;376;373;383;387;388;379;387;397;390;380;387;388;392;395;391;395;398;403;395;400;407;402;397;405;404;417;408;409;399;415;417;395;407;418;408;411;412;421;423;417;418;427;421;429;419;433;416;437;426;425;424;428;427;423;437;437;440;431;449;433;449;451;447;449;448;444;453;452;443;457;456;458;459;455;455;469;468;470;461;464;459;466;456;471;466;469;473;484;474;485;485;486;482;490;480;491;479;491;487;511;494;500;495;497;498;516;493;521;506;508;508;523;524;509;510;533;508;517;514;534;531;519;529;540;536;531;540;543;533;546;548;535;533;545;529;555;533;561;539;556;548;564;543;568;550;561;546;565;575;572;564;570;568;576;576;588;567;589;574;588;591;590;596;596;588;591;584;599;593;607;581;599;589;607;596;614;589;607;604;614;599;615;612;618;598;622;611;622;622;620;628;638;630;636;628;643;636;639;637;648;616;649;643;649;636;644;640;664;645;653;637;666;644;656;648;658;663;666;669;679;679;670;659;661;671;676;670;667;674;689;679;672;680;668;698;685;690;698;693;689;694;697;689;701;708;693;690;713;698;699;703;723;700;724;709;719;720;735;728;724;709;729;720;728;730;734;730;737;713;738;734;738;752;745;750;755;753;742;742;759;767;742;745;759;743;744;755;761;778;764;750;757;765;762;758;782;781;777;759;772;774;783;784;781;780;791;775;783;768;788;780;805;798;803;802;800;792;798;804;814;801;815;803;816;816;827;798;818;824;824;814;815;835;836;817;866;836;845;837;847;848;842;846;856;844;856;841;853;865;881;869;862;860;869;853;859;882;883;868;880;867;877;907;883;871;883;892;897;886;898;890;906;891;905;894;923;927;903;917;921;931;920;916;916;899;955;965;935;932;968;953;951;975;948;958;953;968;957;979;972;980;991;980;992;976;994;1002;989;996;996;1008;1004;996;1007;999;1006;1011;1004;1001;1025;1018;1027;1033;1038;1031;1029;1042;1054;1063;1060;1064;1057;1072;1055;1074;1062;1065;1087;1079;1078;1084;1081;1097;1105;1097;1100;1096;1132;1105;1111;1123;1112;1121;1114;1114;1152;1145;1134;1129;1147;1133;1173;1141;1164;1135;1159;1157;1165;1153;1156;1149;1176;1164;1187;1182;1193;1155;1212;1185;1201;1209;1205;1188;1218;1213;1227;1216;1229;1212;1245;1225;1258;1222;1246;1247;1261;1249;1244;1250;1273;1253;1285;1240;1284;1291;1293;1271;1315;1269;1306;1291;1302;1284;1319;1287;1298;1325;1336;1291;1342;1307;1326;1307;1346;1332;1348;1321;1352;1335;1364;1319;1363;1342;1357;1348;1394;1350;1362;1331;1388;1390;1389;1331;1405;1374;1397;1378;1400;1386;1426;1376;1420;1381;1438;1385;1432;1398;1445;1416;1435;1401;1464;1399;1452;1425;1447;1414;1460;1451;1466;1428;1473;1409;1491;1443;1452;1447;1472;1466;1480;1447;1479;1442;1478;1425;1475;1441;1479;1472;1508;1423;1475;1444;1466;1469;1531;1455;1498;1481;1484;1466;1502;1468;1504;1466;1498;1489;1497;1441;1510;1499;1505;1473;1502;1457;1469;1479;1522;1451;1512;1458;1506;1465;1524;1460;1521;1506;1538;1472;1493;1488;1501;1468;1527;1483;1511;1455;1534;1490;1504;1460;1490;1461;1512;1480;1501;1475;1528;1492;1534;1444;1511;1494;1510;1463;1502;1447;1504;1466;1497;1450;1511;1459;1486;1479;1505;1464;1508;1475;1483;1464;1507;1441;1483;1441;1475;1430;1475;1434;1477;1449;1478;1406;1446;1405;1451;1402;1461;1431;1456;1405;1437;1418;1466;1429;1454;1402;1430;1381;1433;1371;1403;1387;1406;1358;1399;1382;1435;1383;1395;1360;1403;1384;1378;1362;1383;1342;1390;1332;1395;1354;1369;1357;1342;1339;1361;1332;1354;1332;1341;1324;1371;1309;1335;1328;1346;1284;1338;1295;1326;1293;1306;1290;1316;1262;1303;1266;1287;1261;1274;1268;1285;1232;1265;1265;1264;1236;1259;1249;1265;1234;1271;1208;1242;1220;1233;1215;1219;1198;1200;1184;1233;1205;1179;1175;1207;1174;1180;1184;1182;1160;1176;1169;1158;1151;1162;1148;1147;1132;1136;1127;1137;1122;1129;1130;1105;1127;1101;1097;1098;1104;1102;1079;1067;1069;1080;1075;1076;1088;1074;1049;1059;1054;1054;1073;1028;1029;1024;1018;1032;1028;1009;1012;1021;1014;989;1003;1016;1012;991;957;983;971;1006;973;978;960;977;959;979;961;929;939;937;937;931;938;940;915;919;925;916;917;916;887;904;886;889;877;884;900;885;860;869;853;858;845;875;859;839;854;841;849;840;846;833;811;820;827;818;821;812;805;831;792;798;802;780;792;785;782;773;762;767;760;770;760;755;754;756;740;739;740;736;735;712;733;731;715;709;725;717;707;703;694;712;695;686;693;687;688;679;681;665;651;667;676;660;660;650;666;646;635;648;648;642;638;632;638;621;622;636;631;624;617;617;617;612;599;598;600;595;581;581;581;596;583;583;576;576;571;575;558;576;573;569;570;543;554;550;554;541;540;540;532;525;534;528;526;531;517;531;521;514;506;509;501;515;516;496;501;501;483;489;490;483;472;493;487;487;480;477;467;473;471;477;463;475;456;465;451;464;459;456;456;448;457;448;449;439;436;444;435;442;433;437;426;435;423;427;422;424;424;405;410;416;409;415;408;405;404;400;403;404;395;405;400;398;389;376;384;388;392;391;383;377;383;381;374;383;370;361;376;364;366;370;362;360;349;353;356;346;346;361;354;345;338;348;342;345;341;340;341;338;338;340;345;338;334;331;344;335;323;322;317;332;316;328;315;311;315;308;323;314;308;303;299;304;304;302;296;301;301;289;290;303;295;298;290;293;295;285;291;289;280;276;279;277;280;269;282;275;270;278;275;269;265;268;267;263;269;270;267;267;261;256;257;250;256;258;253;262;254;258;258;250;247;252;248;249;245;237;249;248;241;236;248;240;240;234;231;235;236;235;231;232;234;226;223;229;230;226;226;228;227;221;224;222;221;213;225;227;217;216;221;216;219;217;210;212;214;211;210;204;208;208;204;212;211;203;211;196;207;196;196;204;199;188;207;193;196;200;197;192;192;189;189;186;188;183;183;184;193;179;192;179;188;184;190;178;189;178;178;170;179;174;177;178;176;166;171;169;174;167;169;171;168;166;175;165;167;164;166;155;168;167;162;162;168;159;159;156;156;157;161;158;157;151;162;154;154;147;157;150;152;147;154;150;151;147;153;147;154;144;143;141;142;144;148;134;149;145;141;142;136;133;140;133;145;136;135;125;135;126;136;131;137;127;134;127;135;129;135;126;129;125;128;127;128;127;128;130;131;116;127;118;120;120;120;122;124;120;128;118;123;121;120;108;120;114;120;115;117;107;117;108;116;109;121;108;115;107;113;107;115;100;110;99;115;104;111;101;113;102;108;100;111;99;108;105;103;94;103;96;103;99;105;100;107;90;100;90;106;91;99;90;100;90;99;90;95;83;99;87;99;93;100;83;97;87;95;83;94;87;92;85;96;81;95;83;92;80;92;78;90;80;89;77;92;80;92;81;92;80;85;78;91;76;82;81;87;80;84;77;79;76;84;73;87;73;82;72;82;72;84;66;81;66;85;70;81;70;77;68;79;66;80;67;81;68;77;72;80;72;75;70;76;66;75;67;72;62;76;66;78;65;74;66;66;61;74;67;69;59;73;57;75;66;71;64;69;61;69;61;68;59;67;61;72;60;67;61;71;59;72;55;67;62;66;56;68;55;67;56;67;55;65;53;66;57;69;52;67;52;63;54;66;60;66;52;59;54;61;50;64;46;61;51;59;49;54;48;61;53;57;47;58;50;62;51;66;54;56;51;59;46;58;48;59;45;54;45;56;39;59;47;56;46;57;43;51;42;59;45;52;45;55;43;50;46;55;42;55;43;53;44;60;42;51;37;51;39;52;39;52;42;50;36;47;36;53;42;48;36;50;38;51;37;48;40;49;38;50;37;45;38;47;34;48;32;48;38;50;35;50;39;47;29;48;32;47;40;50;31;51;36;46;36;45;37;39;33;49;39;46;34;46;32;45;31;50;35;44;31;43;27;42;36;45;36;46;30;45;27;42;33;46;36;43;28;43;28;44;30;44;24;42;31;49;29;42;34;44;28;41;31;41;31;44;22;44;29;36;30;43;28;42;27;35;30;36;25;39;24;43;28;41;23;42;30;38;31;41;29;38;29;37;26;41;23;41;25;39;29;36;28;38;26;39;23;36;25;36;27;35;25;35;24;39;27;35;25;37;23;35;26;37;23;38;21;37;25;37;19;33;25;38;23;33;23;34;24;38;24;35;21;34;25;35;19;36;20;34;20;34;22;33;25;36;23;33;16;34;21;31;23;34;23;32;21;37;18;35;22;43;18;33;19;31;20;36;24;32;18;37;20;35;19;40;27;33;21;29;19;29;17;32;15;34;18;29;20;34;16;36;17;31;20;32;23;35;18;34;18;31;17;36;19;29;20;32;17;28;20;35;21;31;25;33;18;34;15;33;18;32;22;31;20;29;18;28;19;33;17;29;20;32;18;30;17;30;17;31;17;32;18;28;20;29;16;26;16;31;17;29;13;32;12;30;20;30;15;31;12;33;13;30;12;28;14;33;12;30;13;30;14;30;14;24;13;27;14;31;19;28;11;26;12;29;17;28;13;26;15;31;11;28;11;29;12;27;15;33;10;26;14;29;14;26;12;27;15;24;13;27;19;27;19;29;14;29;14;26;16;26;12;24;11;27;12;30;15;23;18;25;12;28;12;27;11;30;11;24;14;27;12;22;13;27;14;28;13;25;9;27;8;22;9;23;11;29;14;26;15;29;17;25;15;25;15;24;13;26;14;23;9;25;13;27;12;27;12;28;13;22;12;25;13;25;15;25;16;23;12;28;9;27;10;28;9;27;11;24;13;27;12;22;12;25;11;25;14;26;8;26;11;23;15;25;13;27;12;23;12;25;13;29;10;21;8;25;10;27;7;26;9;26;14;24;9;21;14;25;11;26;10;25;15;27;14;27;17;26;11;25;8;28;12;25;8;24;8;26;11;21;7;23;11;22;12;24;12;23;13;23;13;24;8;23;12;26;7;24;11;22;9;26;12;22;11;23;9;24;9;24;14;25;10;24;9;23;5;21;9;23;9;23;11;21;13;22;10;24;17;22;7;23;9;26;12;26;5;29;8;23;8;23;13;20;15;25;10;20;5;22;11;24;11;21;9;22;7;22;9;24;8;23;9;26;12;21;15;23;9;23;9;22;11;22;11;25;8;22;9;23;11;22;11;24;6;24;12;24;10;25;7;23;17;19;10;23;10;20;11;22;6;20;10;20;10;22;8;24;11;22;7;17;4;21;4;24;10;23;11;23;9;21;10;21;9;23;11;18;7;25;11;22;7;23;7;23;12;22;10;20;7;23;6;23;9;24;9;21;6;24;11;21;13;21;11;24;6;22;11;22;13;22;11;25;8;21;12;23;9;21;11;20;10;21;9;23;8;22;13;19;7;23;11;23;9;21;8;19;9;22;10;23;7;22;9;20;7;24;7;22;10;22;12;22;9;23;11;21;14;23;9;22;9;23;11;20;9;21;12;19;4;20;9;24;13;21;9;19;8;20;9;22;6;24;6;22;8;21;12;19;7;20;10;22;6;19;7;23;10;18;7;23;11;19;9;21;15;20;5;21;11;24;8;25;4;22;7;19;9;20;6;20;6;21;10;20;7;19;6;18;10;20;8;20;10;20;11;22;8;21;11;23;8;21;9;19;12;23;9;22;9;21;7;19;7;19;7;19;13;22;8;22;12;21;8;18;4;20;6;19;9;19;11;25;8;22;8;18;8;25;11;19;10;25;4;25;6;21;7;17;8;17;7;22;6;21;10;22;4;24;11;20;11;23;10;24;6;21;8;22;3;23;5;19;9;22;10;23;10;18;7;20;8;20;7;18;4;22;8;23;11;25;8;18;5;19;10;20;8;23;5;23;9;21;9;16;8;17;9;22;9;22;8;19;11;19;6;20;5;19;7;17;7;21;9;19;7;18;7;20;5;21;9;19;8;21;9;22;7;21;6;21;6;22;7;19;7;20;7;19;4;18;7;17;9;19;9;21;8;17;4;21;7;18;4;20;1;20;7;18;8;19;5;23;10;22;10;19;4;20;8;22;3;19;7;23;12;16;9;21;9;20;8;20;6;18;8;20;8;22;6;23;7;21;9;16;11;19;6;22;11;20;7;18;10;21;3;19;7;20;6;23;12;21;8;20;5;25;10;16;7;18;6;19;7;18;9;20;4;24;8;22;4;17;8;21;7;17;3;19;11;19;4;20;7;23;7;24;7;16;6;21;4;19;4;19;9;20;6;21;8;21;6;20;6;24;9;19;9;23;9;20;5;18;9;17;7;20;8;17;6;18;3;25;11;18;3;20;7;20;9;17;6;20;8;21;9;18;6;17;7;20;4;18;9;15;7;21;9;19;5;20;11;24;9;20;10;19;9;20;10;18;6;20;6;15;10;16;9;18;9;21;9;20;3;21;8;19;10;19;7;20;8;19;12;18;8;16;8;21;12;21;5;22;3;19;5;18;7;20;3;22;7;20;8;22;9;20;8;18;11;19;8;21;9;19;8;15;7;21;8;18;7;22;8;22;11;20;5;22;7;18;7;20;4;17;8;21;4;16;7;17;7;20;9;16;7;21;5;18;2;21;8;17;3;20;9;18;4;19;5;21;5;18;7;23;3;21;6;19;8;19;3;21;9;18;2;17;4;19;7;20;5;17;5;18;3;20;3;21;7;21;8;17;7;19;8;20;9;17;7;18;1;20;5;19;11;21;7;20;8;20;7;21;8;20;5;17;7;21;2;21;9;18;8;20;10;22;9;19;5;20;3;20;6;19;7;17;7;22;4;17;6;19;9;16;8;16;6;17;5;19;5;26;3;17;6;20;9;19;4;18;7;17;8;16;6;18;6;17;10;19;7;19;7;21;7;18;4;16;6;17;3;20;6;17;5;21;4;16;6;17;9;18;4;16;11;18;11;20;7;19;4;20;5;20;4;16;7;18;3;16;9;20;8;20;5;21;3;16;4;17;4;18;6;19;7;16;8;18;8;22;5;16;6;16;5;18;4;21;6;17;4;14;5;18;6;20;7;20;7;21;3;18;5;17;9;21;13;17;5;21;8;20;5;17;11;18;3;16;9;19;5;17;4;23;5;18;3;18;3;17;3;17;8;16;6;20;8;20;6;15;5;19;4;19;7;18;11;19;8;18;4;18;2;19;3;18;4;17;3;21;5;15;4;20;5;20;4;17;6;23;6;17;12;15;6;19;7;17;3;20;5;17;6;17;4;15;3;19;5;16;1;20;9;19;6;21;8;19;6;19;6;20;3;21;8;21;9;18;4;22;8;17;7;19;4;19;7;20;6;18;3;22;10;19;3;17;7;22;6;18;8;21;5;21;10;19;4;21;8;23;4;21;7;23;6;21;13;20;5;17;3;20;4;18;5;23;5;18;3;15;1;20;7;23;7;19;5;19;3;20;4;23;3;17;5;21;5;22;4;15;3;21;8;20;6;20;1;18;9;16;7;18;4;18;7;16;6;18;9;19;6;18;6;22;6;21;9;16;10;16;3;17;6;19;4;19;7;17;8;19;8;18;7;20;9;19;2;14;8;19;9;19;6;19;9;18;11;20;7;19;6;19;7;16;7;19;5;17;7;17;6;19;10;17;7;20;5;19;5;21;7;20;8;23;6;21;4;19;5;24;10;17;6;21;8;22;6;23;7;18;6;17;1;21;6;17;10;23;9;16;12;18;7;20;8;18;4;20;10;22;9;21;10;16;8;18;6;21;12;16;6;18;6;16;7;15;7;16;8;24;6;19;4;19;8;21;3;16;9;18;8;20;9;16;10;15;6;18;8;19;3;18;6;22;7;18;4;20;7;19;8;16;4;20;7;18;7;16;10;21;6;19;7;18;6;15;8;17;9;17;6;20;8;20;7;21;12;16;2;17;12;14;8;18;8;16;5;21;6;19;7;16;8;15;6;18;4;19;8;17;4;16;5;17;9;15;7;17;2;19;5;17;6;17;7;15;8;15;7;20;7;17;7;17;11;20;5;25;8;16;8;18;5;20;8;15;8;18;7;18;8;19;8;20;1;19;8;21;9;20;4;18;7;17;5;17;9;21;8;17;4;15;9;22;3;16;8;20;3;19;7;20;7;12;8;19;12;18;6;16;8;20;12;17;10;20;7;19;5;15;5;16;4;18;8;17;6;18;6;18;1;17;4;19;8;14;2;14;3;20;10;16;1;19;6;17;7;17;9;13;7;13;7;20;3;13;6;18;11;18;8;19;8;15;3;20;9;16;7;18;4;18;8;18;6;18;9;17;11;17;3;16;5;17;3;18;2;16;5;19;4;16;4;18;4;18;5;19;8;14;5;15;9;19;3;17;7;24;8;20;2;17;8;15;8;18;5;17;6;21;8;16;2;18;2;19;5;17;3;19;3;18;9;19;1;20;2;18;9;21;8;23;7;23;9;13;4;21;5;19;5;18;11;14;5;21;4;18;13;17;6;18;4;17;4;18;4;18;7;18;7;17;8;18;5;15;3;16;3;21;4;14;5;18;7;20;8;21;8;12;6;18;8;21;10;23;5;20;7;14;2;21;1;17;8;20;6;18;6;20;8;20;5;20;1;22;3;19;7;21;4;21;6;20;8;17;4;16;7;18;9;20;3;18;7;19;4;20;6;20;7;19;7;16;10;19;4;16;8;20;3;22;5;17;8;19;5;19;6;18;6;17;4;16;6;17;5;17;7;19;2;19;9;19;9;19;8;23;7;18;6;19;7;14;6;22;5;20;7;15;6;16;7;17;4;18;6;20;2;20;3;22;11;21;2;19;4;24;8;18;6;20;5;20;3;18;6;16;4;23;6;16;4;15;7;20;8;18;9;20;4;19;4;19;1;23;7;20;9;15;8;21;8;19;7;18;2;16;8;13;4;19;6;15;9;16;9;22;8;22;3;16;4;16;6;22;11;16;7;18;4;17;6;19;6;16;7;16;8;18;2;16;7;15;7;15;4;20;4;21;10;16;7;19;8;19;11;15;9;19;9;18;6;20;5;19;1;18;4;18;3;16;11;18;7;18;4;17;8;20;7;22;8;17;4;19;6;16;7;17;5;17;9;17;7;14;12;21;11;20;5;18;7;14;6;14;9;17;6;17;10;20;10;19;7;20;6;16;10;17;6;18;11;19;6;18;10;18;5;16;9;18;8;19;4;21;6;20;7;24;9;20;7;17;4;17;8;15;8;18;8;14;6;17;3;17;6;20;5;14;4;18;8;17;8;20;8;19;9;17;7;15;10;16;5;18;9;18;6;18;11;19;5;20;5;18;4;16;4;20;5;16;8;23;15;19;6;18;5;20;6;15;8;15;12;16;3;19;9;17;4;16;6;19;4;21;7;20;6;18;11;18;4;11;6;19;3;17;4;19;6;14;2;19;6;18;0;21;2;17;4;16;9;16;2;14;5;15;7;18;7;15;5;16;3;15;7;14;3;15;7;20;6;20;8;14;10;9;3;17;7;17;1;15;7;17;2;20;8;18;9;17;5;16;8;16;8;17;5;18;3;14;5;17;7;20;7;17;4;17;7;16;9;18;5;16;5;19;6;15;7;19;2;19;8;13;4;17;10;14;7;14;6;20;5;17;6;12;8;15;5;19;9;17;8;16;5;20;10;14;5;17;3;17;8;14;7;21;9;13;9;17;7;16;8;21;6;13;8;13;10;17;7;14;7;17;3;17;3;10;7;17;5;12;5;12;8;16;5;18;10;21;8;14;5;18;14;19;8;19;9;18;7;16;6;18;6;18;7;16;6;16;3;18;6;16;4;16;5;14;4;18;7;14;6;16;9;18;10;16;9;19;2;17;4;16;2;22;7;18;3;15;6;13;6;14;5;16;6;18;4;19;6;17;5;19;3;17;6;22;8;20;11;18;8;19;8;19;6;18;10;19;11;18;6;19;4;19;9;15;9;16;7;16;9;16;9;14;8;24;1;16;6;14;3;19;2;16;6;18;6;17;3;19;10;14;8;17;0;18;8;19;6;23;8;17;5;14;1;18;4;18;4;16;4;13;0;11;4;14;7;18;2;18;8;16;5;18;11;17;5;13;5;17;5;14;3;14;6;16;9;11;3;17;2;20;5;20;3;11;6;18;4;19;4;17;8;14;2;19;8;19;6;17;9;19;18;19;3;16;6;14;8;17;8;16;8;15;9;12;7;17;5;18;5;16;4;14;5;15;4;17;8;14;4;20;5;17;6;18;7;16;6;20;3;17;6;19;5;19;3;15;7;14;4;15;4;17;0;17;4;18;10;16;7;17;8;14;5;15;5;18;2;17;10;15;2;12;4;13;9;16;5;14;4;20;5;17;7;17;10;16;8;18;3;21;8;19;8;17;1;18;6;18;1;19;5;16;3;19;8;18;4;17;10;16;6;14;3;19;7;16;4;19;6;19;5;19;8;18;7;16;2;16;9;19;8;15;6;14;2;16;6;16;4;12;9;16;7;18;4;18;6;16;2;16;4;18;9;17;6;16;10;15;8;18;4;19;8;13;6;19;5;21;9;13;7;16;2;17;4;17;9;15;8;15;7;18;4;17;7;17;9;13;7;20;6;17;5;16;9;17;6;17;4;15;5;16;4;20;5;14;13;16;9;17;7;17;8;16;7;14;10;15;5;20;0;17;5;22;5;16;2;17;8;13;6;18;6;16;6;17;6;16;3;17;2;17;8;18;4;13;5;14;6;17;7;17;2;13;4;14;8;19;4;14;6;13;5;12;5;18;4;16;8;16;3;15;6;14;5;17;4;15;3;14;5;15;6;11;7;11;3;16;8;14;5;17;0;17;5;14;8;15;1;16;8;16;7;16;4;21;6;18;6;16;2;18;9;10;5;16;2;18;3;16;7;16;0;18;5;16;0;18;3;13;4;14;3;13;6;17;7;15;3;17;4;19;11;13;8;14;5;13;7;18;3;17;4;16;6;16;1;15;6;18;4;16;5;16;2;14;6;17;6;14;4;16;4;11;4;17;7;14;4;18;4;14;3;16;7;19;3;16;2;17;8;15;0;18;3;16;9;17;3;17;1;16;6;17;2;14;5;16;1;16;5;14;4;16;6;18;4;15;5;21;9;17;3;17;0;20;7;16;3;18;5;17;3;17;2;14;2;16;1;16;3;17;4;17;7;15;1;14;0;20;1;18;1;14;0;14;3;11;1;16;2;16;5;12;1;13;2;19;2;17;0;18;5;17;2;17;5;18;6;16;1;12;7;18;3;13;0;14;3;15;6;16;4;18;6;15;1;18;1;16;0;16;1;19;6;15;3;18;4;17;7;13;0;15;6;15;1;17;6;14;6;17;0;16;2;11;4;17;6;16;0;19;7;16;7;16;3;17;6;16;0;14;8;12;3;15;3;13;6;14;0;16;4;17;4;20;4;14;3;18;5;17;2;18;6;15;2;16;2;16;3;13;0;13;3;20;2;16;2;14;5;20;5;15;6;17;3;17;2;19;1;13;7;16;1;15;6;15;2;13;6;16;4;16;0;15;8;14;0;14;1;12;6;15;1;13;2;14;7;18;0;17;3;12;1;13;4;15;6;12;3;12;3;17;0;17;4;20;3;14;4;19;4;21;3;16;4;16;1;14;8;13;3;15;0;16;8;16;4;12;2;16;5;16;3;18;3;17;2;16;2;20;4;17;0;16;3;14;0;15;3;17;4;15;2;12;0;12;2;19;5;17;4;12;2;14;2;18;6;12;1;12;3;17;0;12;3;15;5;12;0;14;1;15;4;17;5;14;3;14;6;15;5;14;4;14;5;10;1;13;2;15;2;10;2;13;4;16;0;12;3;13;2;14;3;13;1;13;2;12;0;14;1;15;3;18;4;10;3;14;5;14;3;12;3;15;4;13;5;13;5;14;2;11;4;12;4;14;2;13;6;14;5;17;7;14;0;16;4;16;6;16;2;13;4;13;5;13;1;15;4;17;6;16;7;14;2;16;3;14;6;14;8;15;3;15;4;10;5;13;1;14;3;16;3;17;5;16;1;12;5;18;6;13;5;12;5;17;2;18;6;13;1;13;2;16;5;13;5;14;1;17;1;15;4;16;2;18;0;12;3;15;0;14;3;10;3;17;3;14;4;13;5;17;2;18;4;14;3;14;9;14;1;12;5;16;3;9;6;18;3;17;1;17;6;14;1;14;3;13;3;13;0;17;15;16;2;16;9;18;4;16;3;14;2;13;4;15;0;16;4;23;2;16;8;15;6;16;0;16;4;13;1;13;1;17;5;14;5;15;5;14;6;16;1;15;6;18;5;16;7;19;2;19;3;22;2;15;7;16;4;13;6;14;5;18;7;17;8;17;6;16;5;15;11;17;6;15;4;18;4;16;4;19;3;14;2;16;2;16;7;18;6;12;1;16;6;15;4;17;3;17;1;20;4;13;8;19;4;14;4;14;6;14;5;18;8;15;5;10;6;14;8;19;4;13;7;14;7;12;9;19;8;

