Number of lines: 01

Pixels per line: 8160

15;3;11;4;6;0;5;4;9;4;10;1;11;2;9;0;12;5;9;0;9;0;11;1;12;1;11;1;12;2;10;2;13;3;12;6;10;1;12;0;11;0;9;0;9;3;10;5;9;0;14;0;9;0;8;0;12;0;10;2;3;1;12;2;10;1;10;0;9;0;12;2;13;0;12;0;8;1;9;6;9;0;9;1;9;4;9;1;6;0;6;0;10;0;8;0;7;3;10;0;10;1;7;2;9;0;9;0;9;1;7;0;7;2;11;6;8;0;8;0;9;0;13;4;13;0;10;3;11;0;10;1;8;5;8;0;9;1;9;0;5;0;7;0;13;0;9;0;4;2;8;2;7;0;8;0;8;0;9;0;7;0;10;0;7;0;11;0;10;0;8;0;9;0;8;1;10;1;7;0;9;1;9;0;6;0;9;0;8;0;7;0;8;0;9;0;9;0;10;0;10;0;7;0;3;0;9;0;7;0;8;0;9;2;11;0;7;0;8;0;8;2;11;3;7;0;7;0;9;0;9;0;6;0;9;2;9;0;4;0;10;0;8;1;7;0;10;1;7;0;7;0;9;0;4;0;7;0;5;0;11;0;4;0;14;1;10;0;5;0;9;0;6;0;7;0;9;1;7;1;7;0;6;1;7;0;9;2;9;0;8;1;5;0;8;1;10;2;13;0;7;1;8;0;7;0;5;1;7;1;7;1;5;2;7;0;1;4;7;0;8;0;9;0;6;0;9;0;14;0;6;0;7;0;4;0;8;0;6;2;5;0;7;1;8;0;7;0;6;3;8;0;6;0;5;0;7;0;8;0;8;0;11;0;6;0;2;0;11;2;11;0;6;0;8;0;6;0;4;1;6;0;6;0;4;0;10;0;7;0;5;0;6;0;6;0;10;1;6;0;9;0;9;0;10;3;5;0;7;0;9;0;10;0;13;0;6;1;9;0;9;0;10;0;7;0;4;0;11;0;7;0;9;0;9;2;6;0;7;0;3;0;10;0;7;0;9;0;5;0;7;0;9;0;8;5;7;0;9;0;6;0;9;0;4;0;2;0;4;0;7;0;7;0;7;0;7;0;7;0;6;0;8;0;8;0;6;2;4;0;12;0;8;0;7;0;6;0;6;0;9;0;6;0;10;0;3;0;9;0;5;0;7;0;8;0;5;0;7;0;7;0;10;0;2;1;7;0;7;0;6;0;6;0;2;0;12;0;6;0;8;0;8;0;8;0;8;2;4;0;7;0;7;0;8;0;10;0;6;0;4;0;9;0;8;0;5;0;6;0;8;2;5;0;3;1;8;1;3;2;7;0;9;1;9;0;4;0;8;0;9;0;7;0;9;0;6;0;4;0;7;1;3;0;7;0;8;0;6;0;2;0;4;0;4;0;5;0;8;0;7;0;4;0;7;0;10;1;6;0;5;0;8;0;7;0;10;1;6;0;5;0;8;0;6;0;5;0;13;0;7;0;4;0;5;2;7;0;6;0;9;0;7;0;7;0;8;0;9;3;8;0;6;0;8;1;8;0;7;0;6;1;8;0;5;0;3;0;8;0;7;0;9;1;8;0;5;0;4;0;5;0;7;0;9;0;6;0;7;0;2;0;7;0;9;0;6;0;5;1;2;0;6;0;7;0;9;0;7;0;3;0;7;1;5;0;9;1;7;1;9;3;7;0;5;0;5;0;7;0;8;0;9;0;5;0;5;1;6;0;8;0;7;0;9;0;9;0;8;0;8;0;3;1;6;0;6;0;2;0;8;0;12;0;10;0;10;0;10;0;9;0;8;0;9;0;6;0;9;0;5;0;5;0;11;0;8;0;10;0;9;0;14;0;9;0;8;0;7;0;9;0;8;0;10;0;8;3;9;0;7;0;6;0;5;0;5;0;7;0;8;0;5;1;10;0;8;0;11;0;9;0;7;0;7;2;8;0;8;0;7;0;5;0;10;0;11;0;9;0;7;3;9;0;7;0;7;0;8;0;7;0;9;0;13;0;8;0;7;0;7;0;11;0;7;0;9;0;8;0;7;0;10;0;6;0;8;1;10;0;8;0;10;0;13;0;11;0;9;0;9;0;5;0;9;0;7;0;10;0;10;0;10;0;7;0;10;0;9;0;12;0;7;0;5;0;4;0;7;2;8;0;7;0;10;0;8;0;9;2;9;0;6;0;7;0;8;0;7;0;9;0;8;0;9;0;6;0;11;0;8;0;6;0;7;0;5;0;10;0;8;0;4;0;6;0;6;0;9;0;4;0;10;0;7;0;7;0;7;0;4;3;7;0;9;0;6;0;8;0;6;0;6;0;6;0;3;0;3;0;2;0;8;0;11;0;3;0;7;0;5;0;3;0;4;0;9;0;7;0;5;1;8;0;4;0;6;0;5;0;7;0;6;0;8;0;7;0;4;0;6;0;5;0;6;0;6;0;5;0;7;0;7;0;4;0;4;0;4;0;3;0;7;0;6;0;6;0;5;0;7;0;9;0;11;0;10;0;6;0;6;0;4;0;4;0;5;0;7;1;5;0;8;0;6;0;9;0;9;0;8;0;7;0;9;0;6;0;2;0;8;0;2;0;6;0;5;0;8;0;6;0;6;0;6;0;4;0;7;0;5;0;5;0;6;0;4;0;6;0;5;0;7;0;1;0;6;0;8;0;7;0;9;0;4;0;4;0;4;0;6;0;3;0;7;0;3;0;4;0;7;0;5;0;5;0;6;0;5;0;4;0;10;0;6;0;8;0;7;0;6;0;8;0;8;0;7;0;0;0;6;0;10;0;8;0;4;0;7;1;4;0;5;0;3;0;8;1;3;0;3;0;8;0;3;0;5;0;7;0;8;0;9;0;3;0;3;0;6;0;6;0;3;0;5;0;8;0;6;0;2;0;8;0;6;0;8;0;6;0;10;0;5;0;4;1;6;0;8;0;4;0;6;0;7;0;5;0;2;0;4;0;8;0;8;0;7;0;4;0;5;0;8;0;4;0;6;0;4;0;4;0;4;0;4;0;7;0;5;0;6;0;4;0;8;0;5;0;6;0;10;0;6;0;2;0;5;0;4;0;4;0;9;0;8;0;2;0;4;0;7;0;4;0;6;0;9;0;9;0;9;0;5;0;4;0;5;1;6;0;6;0;4;0;6;0;4;0;8;0;6;0;4;0;8;0;3;0;7;0;3;2;4;0;4;0;8;0;6;0;8;0;4;0;9;0;5;0;9;0;7;0;2;0;7;0;8;0;5;0;3;0;8;0;2;0;9;0;6;0;7;0;7;0;7;0;8;2;6;0;6;0;8;0;6;0;8;0;4;0;5;0;10;2;6;0;6;6;12;0;10;0;9;1;11;1;11;2;9;0;11;2;8;3;11;4;11;0;11;3;15;4;14;7;13;4;15;5;15;3;18;7;16;10;22;9;17;11;18;10;15;10;17;21;26;17;21;16;27;15;23;18;22;17;24;23;29;20;28;20;30;20;33;22;32;18;27;25;33;28;35;23;34;23;34;24;36;28;37;28;42;31;40;35;37;35;44;36;47;38;43;36;48;41;47;39;49;40;54;45;51;47;57;42;55;46;55;45;58;52;63;52;65;56;65;61;67;59;67;60;69;60;67;68;73;66;76;68;85;74;83;72;84;76;77;80;80;78;84;82;90;85;94;86;97;87;94;89;100;89;96;94;101;94;107;102;103;103;107;109;109;107;112;105;112;105;112;110;117;111;116;113;119;114;124;113;124;117;120;118;123;114;123;118;125;116;124;120;125;119;128;117;125;119;127;123;126;108;125;123;123;118;122;116;127;114;120;116;122;111;120;112;121;104;112;109;113;110;119;101;115;104;107;105;108;102;106;88;103;101;102;96;96;89;94;89;102;93;86;84;93;81;88;88;87;81;88;75;85;76;79;76;82;71;92;69;77;70;77;63;72;69;77;63;72;66;71;59;68;50;62;62;65;56;61;51;61;50;57;48;62;51;56;51;56;50;55;45;52;43;51;46;48;44;51;45;47;40;45;43;47;39;46;39;48;34;42;33;42;33;47;31;37;32;42;30;38;31;43;29;37;30;37;30;38;27;37;22;38;28;32;25;37;25;32;25;34;27;32;20;33;22;28;18;32;19;27;21;35;17;27;16;25;23;24;17;23;19;30;19;24;12;23;16;24;16;26;19;24;15;19;13;22;14;21;12;20;12;21;14;21;13;23;10;24;12;19;14;19;13;21;10;18;8;20;11;20;10;19;8;19;11;20;11;18;11;16;8;19;9;17;8;15;8;14;7;17;8;17;9;17;12;15;6;16;5;13;4;14;7;16;4;14;3;14;5;14;1;12;4;11;2;10;4;10;1;14;5;10;5;13;1;11;1;13;7;9;2;8;2;10;3;9;2;13;0;9;2;9;1;11;0;11;0;11;1;9;1;12;1;7;0;9;0;9;0;6;1;11;2;8;2;9;0;8;0;12;0;7;0;7;2;7;0;7;1;8;5;8;0;5;0;9;3;10;0;4;1;8;1;10;0;9;0;10;0;7;1;7;0;8;0;7;2;4;0;8;0;7;0;5;0;9;0;8;0;10;0;10;0;5;2;9;2;7;0;7;0;11;5;7;0;7;1;6;0;9;0;5;0;2;0;10;0;10;0;8;1;10;1;6;4;9;0;8;0;5;0;7;0;7;1;6;0;5;0;6;0;9;0;8;0;8;0;10;0;9;3;10;0;7;0;7;0;8;2;5;0;7;0;8;0;8;0;9;0;9;0;6;0;3;0;9;1;8;0;10;0;10;2;5;0;6;1;10;0;8;0;7;0;6;0;7;0;5;0;11;0;7;0;7;0;10;2;6;0;10;1;10;0;6;0;5;0;9;0;2;0;10;0;8;1;7;0;9;0;11;0;13;0;8;2;10;0;8;1;7;0;13;0;8;0;10;0;6;0;5;0;7;0;8;0;9;0;8;0;6;0;5;0;7;0;7;0;9;3;8;0;9;0;12;0;7;0;10;0;7;0;8;0;7;0;10;0;7;0;9;0;10;2;7;0;8;0;6;0;4;0;8;0;9;0;8;0;8;0;8;0;8;0;7;0;7;0;5;0;10;0;7;0;3;2;9;1;6;0;8;0;9;0;5;0;7;0;6;0;8;0;8;0;6;1;11;0;8;0;8;0;7;0;7;0;7;0;7;0;6;0;7;0;3;0;7;0;9;0;9;1;7;3;10;2;7;0;6;0;7;0;9;0;3;2;6;0;8;0;9;0;4;1;15;1;5;0;7;1;10;0;5;0;4;0;10;0;2;0;6;1;8;0;6;0;4;2;8;0;6;0;4;0;8;0;3;1;7;0;3;2;4;0;7;0;6;2;6;0;8;0;6;0;5;0;8;0;10;3;3;0;9;0;6;0;8;0;13;0;7;0;7;0;10;2;4;0;6;0;9;0;5;0;5;0;10;1;7;3;6;0;7;0;9;0;6;1;6;0;9;0;7;1;11;0;6;2;6;0;6;3;7;0;5;0;7;0;9;2;4;0;8;0;9;0;7;0;9;0;5;0;8;0;8;0;4;0;6;2;7;0;5;3;6;3;8;0;8;1;8;0;4;0;7;0;3;0;8;0;6;0;7;0;9;0;8;0;5;0;5;0;9;0;10;0;7;0;6;0;7;2;11;0;7;0;7;0;7;0;8;1;10;0;7;0;4;0;7;0;8;0;9;0;4;0;8;0;8;0;6;0;7;3;9;0;8;0;8;0;6;4;8;0;6;0;7;0;6;0;10;0;5;0;8;0;11;1;9;0;5;0;5;0;6;0;8;2;9;1;9;0;4;0;7;0;10;0;6;0;7;0;8;3;6;0;4;2;6;3;9;0;8;1;10;3;5;0;6;0;10;0;6;2;11;1;8;0;8;0;11;0;7;0;7;0;9;0;6;0;7;0;8;0;8;1;6;0;8;0;6;0;9;0;8;0;8;0;6;0;12;0;5;0;4;0;10;1;10;1;6;0;7;0;5;2;10;0;7;0;6;0;10;0;8;0;6;0;8;0;5;0;9;1;7;0;5;1;8;0;4;0;10;0;9;2;4;0;8;1;8;1;10;0;4;0;7;0;7;0;10;0;9;0;7;6;8;0;7;1;5;0;10;0;8;0;4;0;9;1;7;0;1;2;9;1;10;0;9;0;8;0;8;0;8;0;6;0;4;0;9;0;9;0;9;0;6;0;6;0;10;1;6;0;8;0;9;0;2;0;6;0;4;0;7;0;7;0;7;0;4;0;4;0;7;0;8;0;10;0;8;0;7;0;11;0;6;0;5;0;6;0;8;0;7;0;7;0;10;0;3;0;8;0;6;0;3;0;3;0;6;0;5;2;4;0;12;0;8;0;10;0;9;0;7;0;7;0;11;0;9;1;6;0;8;0;7;0;9;0;9;0;6;0;11;0;8;0;11;1;11;0;8;0;6;0;9;0;7;0;6;0;7;0;8;0;4;1;7;0;8;0;6;0;6;0;10;0;6;0;5;0;6;0;4;0;8;0;4;0;8;0;8;0;4;0;6;0;10;0;7;0;3;0;7;2;5;0;6;0;10;0;7;0;7;0;8;0;7;0;6;1;5;0;7;0;4;0;10;0;8;0;7;0;9;0;5;0;6;0;8;0;8;0;6;0;9;0;7;0;4;0;11;0;6;0;5;0;9;1;8;0;5;0;7;2;9;0;7;0;7;0;8;0;5;0;6;0;9;0;8;0;6;0;6;0;9;0;11;3;6;0;4;0;7;0;11;0;5;0;8;0;6;0;6;0;6;2;5;0;5;0;9;1;9;0;9;0;7;0;3;3;7;1;8;0;6;0;6;0;8;0;5;0;4;0;7;0;8;0;7;0;6;2;6;0;9;0;9;0;7;0;4;0;11;0;7;5;4;0;8;0;7;0;7;0;3;0;8;0;6;0;4;0;6;0;8;0;10;0;4;0;5;0;6;0;8;0;7;0;6;0;9;0;9;0;5;0;4;0;11;0;9;0;9;0;10;0;10;0;7;0;6;0;4;0;7;0;8;0;7;0;4;0;7;0;5;0;7;0;8;0;7;0;8;0;7;1;6;0;5;0;9;0;6;0;8;0;8;0;5;0;10;0;6;2;8;0;11;0;8;0;4;1;6;0;3;0;6;0;9;1;7;0;6;0;6;0;7;0;3;0;3;0;10;0;7;0;5;0;2;0;11;0;6;0;5;0;4;0;4;0;7;0;7;0;10;0;4;0;6;0;8;0;3;0;8;2;5;0;5;0;5;0;8;0;8;0;7;0;9;0;7;1;7;1;8;0;2;0;8;0;5;0;7;0;6;0;9;0;6;0;5;0;9;0;5;0;8;0;4;0;4;0;7;0;6;0;8;0;8;0;8;0;6;0;9;0;6;0;6;0;9;0;9;0;6;0;6;0;4;0;6;0;9;0;9;0;4;0;9;0;7;0;6;2;3;0;6;0;8;1;6;0;8;0;5;0;33;0;3;0;7;0;5;0;6;0;6;0;8;0;7;1;7;0;5;0;7;0;5;0;4;0;6;0;6;0;7;1;7;0;6;0;6;0;4;0;7;0;6;0;4;0;9;0;8;0;9;0;4;0;8;0;7;0;6;0;9;0;3;0;6;0;5;0;4;0;5;0;6;0;8;0;8;0;8;0;3;0;8;0;6;0;8;0;6;0;4;0;5;2;5;0;5;1;8;0;6;0;5;0;5;0;6;0;6;0;4;0;6;0;7;0;3;0;6;0;11;1;6;0;8;0;8;1;4;0;4;0;2;0;9;0;7;0;4;0;4;0;7;0;5;0;7;0;7;0;7;0;7;0;0;0;6;0;13;0;8;0;7;0;9;0;3;0;8;0;6;0;6;0;5;1;7;0;1;0;6;2;10;0;7;0;9;0;2;0;8;0;4;0;8;0;7;0;5;0;6;0;7;0;4;0;5;0;9;0;7;0;6;0;3;0;6;0;7;0;7;0;3;0;6;1;4;0;8;0;7;0;2;0;7;0;8;3;9;0;8;0;10;0;9;0;8;0;4;0;4;2;3;0;8;0;4;2;10;2;4;0;5;0;7;0;5;0;8;0;8;0;6;0;5;0;8;0;8;0;5;0;8;0;8;0;8;1;9;1;9;0;8;0;9;0;4;0;3;0;7;0;7;0;5;0;8;0;4;0;6;0;9;0;7;0;7;0;9;0;6;0;4;0;10;0;6;0;6;0;8;0;8;0;9;0;10;0;8;0;3;0;9;0;3;0;4;0;7;0;7;0;7;0;8;1;11;2;5;0;7;0;6;0;4;0;7;0;6;0;7;0;4;0;7;0;7;1;10;0;5;0;5;0;4;0;6;1;7;0;6;0;7;0;3;0;9;0;5;0;6;0;6;0;5;2;4;0;10;0;4;0;6;0;9;0;7;0;3;0;5;0;7;0;8;0;6;0;5;0;8;0;9;1;5;0;8;0;9;0;7;0;9;0;6;0;9;0;8;0;4;0;10;0;7;0;9;0;5;0;9;0;7;0;7;0;4;0;9;0;6;0;7;0;8;0;5;0;9;0;7;1;9;0;3;0;8;0;5;0;5;0;11;0;5;0;3;0;6;0;8;0;7;0;7;0;8;1;6;0;9;0;6;0;4;0;8;0;7;0;7;0;6;0;8;0;8;0;8;0;10;0;8;2;7;0;6;0;7;0;10;0;7;0;6;0;7;0;8;0;8;0;5;0;4;0;6;0;6;1;6;2;8;0;10;0;9;2;2;0;6;0;8;0;8;0;7;0;4;0;5;1;6;0;8;0;9;0;8;0;8;0;4;0;6;0;8;0;8;0;10;0;5;0;4;2;9;0;8;0;3;0;8;0;8;0;3;0;11;0;8;0;7;0;7;0;7;0;7;0;7;0;6;0;6;0;6;0;9;0;7;0;8;0;8;1;7;0;8;0;8;0;6;0;8;0;9;0;4;0;6;0;3;0;7;0;7;0;6;0;4;0;7;0;9;0;7;0;9;1;6;0;8;2;4;0;2;0;7;0;7;1;8;0;6;0;5;0;9;0;5;0;7;0;9;0;6;0;9;0;7;0;2;0;8;0;9;0;4;0;5;0;8;0;10;0;8;0;4;0;6;2;8;0;6;0;6;0;11;0;6;0;6;0;6;0;5;0;6;0;8;0;5;0;7;0;10;0;9;1;9;0;10;0;9;0;8;0;6;1;8;0;8;0;9;1;9;1;10;0;9;0;9;0;9;0;6;0;10;2;8;0;9;1;12;0;9;0;9;0;10;0;12;0;9;0;9;0;6;0;9;0;10;0;11;0;6;0;11;0;9;0;10;0;7;0;8;0;10;0;7;1;6;0;9;0;9;0;12;1;3;0;10;0;11;0;9;0;10;0;8;0;8;1;11;0;9;0;8;0;11;3;12;0;10;1;7;1;9;1;10;0;9;0;7;0;9;0;8;0;7;0;5;0;8;0;6;0;10;2;8;3;11;0;7;0;5;3;10;1;7;0;12;1;12;0;6;1;8;0;10;0;7;0;8;0;10;1;8;0;10;0;10;0;7;0;11;3;10;0;8;0;8;1;8;0;6;0;9;0;6;1;7;0;6;0;10;0;9;2;9;4;10;1;9;2;9;1;8;1;8;0;8;0;11;1;9;0;9;0;10;0;10;0;6;0;10;0;8;0;13;0;12;2;12;0;11;1;10;0;8;0;10;1;11;0;8;0;5;2;13;0;6;0;7;0;10;2;11;0;9;0;8;0;8;0;7;0;8;1;7;0;9;0;10;1;8;0;7;0;10;0;9;0;9;0;10;0;8;4;7;0;13;0;10;1;7;0;10;0;13;3;9;0;11;0;9;0;10;1;5;0;9;0;12;0;8;0;11;0;9;0;8;0;8;0;9;0;13;0;8;0;11;0;9;0;9;0;9;0;7;0;7;0;10;0;9;0;5;0;10;0;10;0;11;1;9;0;5;0;10;0;11;0;7;1;6;0;10;0;11;0;9;0;9;0;9;0;9;0;8;0;7;1;9;1;6;0;12;0;8;0;9;1;9;0;8;1;10;0;11;2;8;0;8;0;11;0;7;0;9;0;11;0;11;0;8;0;9;0;6;0;10;0;13;3;7;1;6;0;11;0;10;0;7;0;10;0;9;0;7;0;10;0;19;1;9;0;6;0;11;1;7;0;11;0;9;0;10;1;11;0;7;1;8;0;10;0;9;0;10;0;10;0;12;0;10;1;8;0;9;0;8;0;8;1;11;0;8;0;7;0;9;0;11;0;9;0;11;0;8;0;13;0;9;0;10;1;7;0;5;2;8;1;11;0;9;2;10;0;10;4;10;0;11;0;9;0;9;0;9;0;8;1;9;0;10;0;7;2;9;0;12;0;10;0;5;0;6;0;10;0;10;0;9;0;9;0;6;0;11;0;10;0;10;0;8;0;9;1;8;0;6;0;11;0;7;0;17;0;7;0;10;0;11;0;11;0;10;0;9;3;8;1;9;4;7;3;9;3;7;0;12;0;8;0;8;0;11;0;10;0;6;0;6;0;7;4;7;2;8;0;8;1;9;0;8;1;10;1;5;0;10;0;12;0;6;0;8;0;9;0;10;0;9;1;9;1;6;0;3;0;9;0;9;0;8;0;8;0;10;0;9;0;9;0;10;0;8;0;11;0;9;0;12;0;7;0;9;0;12;0;10;0;11;0;9;0;11;0;9;0;6;0;11;0;8;0;10;0;13;0;8;0;4;0;12;0;5;0;10;0;11;0;8;1;9;0;10;0;10;2;10;0;11;0;12;1;11;0;10;0;11;2;12;0;11;2;7;0;10;0;9;0;7;0;9;0;9;0;10;1;8;0;8;1;8;0;10;0;8;0;9;0;9;0;11;0;10;0;10;0;10;0;11;5;10;0;9;0;8;0;10;0;9;0;10;1;9;1;9;0;12;3;10;3;11;0;7;0;11;0;12;0;10;0;14;3;10;0;10;0;9;0;8;1;9;0;9;0;9;0;12;0;12;1;8;6;10;0;10;5;8;0;10;1;9;0;8;1;12;0;8;0;7;0;6;0;11;0;11;0;9;0;10;0;10;3;9;0;9;0;12;3;9;0;7;0;13;0;8;0;13;0;7;2;5;0;7;0;11;0;12;0;6;0;13;2;11;0;9;0;9;0;10;0;8;0;6;0;12;0;8;0;8;1;8;1;11;0;13;0;6;0;9;1;8;0;8;0;10;0;11;1;10;1;10;1;13;0;10;0;11;0;4;0;7;0;10;0;11;0;10;0;9;0;12;0;12;0;9;0;9;2;7;1;11;0;12;0;9;0;14;0;8;0;9;0;14;0;14;2;8;2;9;0;10;0;9;0;10;0;9;0;9;0;11;0;9;0;10;0;11;0;11;0;11;0;9;0;7;0;12;0;9;0;8;0;10;0;10;0;9;0;6;0;12;0;7;2;4;3;10;0;11;0;9;0;13;0;12;0;10;1;6;0;9;0;9;1;10;0;7;1;6;0;11;0;12;0;5;0;10;0;11;3;10;0;7;0;10;2;12;0;13;1;7;1;6;0;6;0;10;2;10;0;13;1;10;0;8;0;7;0;8;1;9;0;14;0;13;0;9;0;10;0;9;0;10;0;12;0;9;2;10;0;10;2;13;0;11;3;10;0;12;3;11;0;9;4;11;0;12;0;13;0;12;0;6;2;10;2;12;4;6;1;10;0;8;1;8;1;8;0;13;2;12;0;10;0;8;3;8;0;9;0;12;0;7;1;10;0;5;0;11;0;6;0;8;0;8;0;9;0;7;0;11;0;11;1;12;0;5;0;10;1;10;0;11;0;10;2;8;0;10;0;12;1;9;1;8;0;11;0;13;0;8;0;10;1;11;1;9;1;11;0;9;0;8;0;11;0;12;0;7;2;11;0;9;0;9;2;10;0;9;0;10;0;10;0;9;0;9;0;8;0;8;0;11;0;9;1;8;0;12;0;11;0;13;0;8;1;10;1;10;0;9;0;9;1;9;0;7;0;9;0;11;0;10;0;8;0;13;0;6;0;8;0;13;0;9;0;11;0;11;1;10;0;10;0;9;0;8;0;7;0;8;0;8;0;8;0;10;1;7;0;6;0;11;0;9;0;11;0;7;1;11;3;11;0;7;2;6;0;12;3;11;0;13;1;8;0;7;0;8;0;8;0;13;2;9;1;11;0;7;1;4;1;9;0;9;1;9;0;8;0;9;0;6;0;7;0;9;0;9;0;8;0;12;0;9;1;11;1;10;0;9;0;11;0;10;1;7;1;10;0;11;0;9;0;9;2;10;0;12;0;11;2;9;0;6;0;8;0;11;0;11;0;11;0;8;0;11;0;10;0;13;3;13;0;14;3;8;0;5;0;9;3;11;0;9;0;6;0;11;0;8;1;12;2;12;0;7;1;13;0;8;0;10;0;9;0;11;0;9;0;8;1;11;0;9;0;8;0;11;0;7;0;7;0;9;2;8;0;10;0;12;0;10;1;11;0;9;1;9;1;9;0;12;0;8;1;9;0;9;1;10;0;8;0;9;1;12;0;7;1;10;0;10;0;8;0;10;0;10;0;8;1;9;0;8;0;8;0;10;0;9;0;10;0;10;1;9;0;14;0;9;2;4;0;10;0;10;2;10;0;9;0;11;1;14;1;8;0;8;0;8;1;12;0;9;0;9;0;10;0;10;0;20;0;8;0;10;2;9;0;10;0;9;0;8;0;8;1;5;2;13;0;8;0;12;0;6;0;7;0;9;0;7;0;9;0;10;1;8;2;10;0;7;0;8;3;9;2;9;0;8;4;9;0;11;0;7;0;8;3;10;0;8;2;10;0;11;0;5;0;8;0;11;1;11;2;9;2;12;1;12;0;9;0;7;0;7;0;11;0;8;0;7;0;6;1;8;0;8;0;10;0;11;0;6;2;12;0;7;0;11;0;10;0;11;1;11;0;7;0;10;0;6;1;11;0;9;0;10;0;9;0;10;0;9;0;7;1;12;0;6;0;10;0;11;0;9;0;9;0;9;0;10;0;9;1;7;0;8;0;11;0;2;0;11;1;13;0;8;0;11;0;11;0;8;1;8;0;7;1;10;0;7;0;10;0;9;0;10;0;7;0;9;0;6;1;13;2;8;6;13;0;9;0;13;2;9;1;9;0;9;0;8;0;11;0;9;0;10;1;11;0;10;2;9;1;7;0;10;1;9;0;8;0;10;2;9;0;13;2;13;0;8;0;10;2;11;3;7;1;11;0;12;0;6;0;11;0;9;0;7;0;11;5;10;3;9;0;7;0;9;0;10;0;6;0;11;0;10;0;13;0;10;0;7;1;11;0;8;0;11;0;6;0;9;0;8;0;10;0;10;0;9;0;13;0;11;0;7;0;7;0;9;0;12;0;9;3;10;0;11;0;7;3;9;1;8;0;6;1;7;2;10;0;8;0;10;0;11;0;10;0;12;0;9;2;9;0;10;2;12;0;8;0;10;0;7;0;10;0;9;0;9;0;10;3;12;3;9;0;10;0;9;0;7;0;9;0;12;0;11;0;6;0;9;0;8;2;14;1;11;1;10;0;11;0;9;2;10;0;8;2;12;0;10;0;8;0;13;0;9;0;8;0;4;0;7;0;10;0;10;0;12;1;7;0;9;0;11;0;8;0;10;0;7;0;9;0;10;0;7;0;9;0;9;0;12;2;10;0;9;1;8;0;12;0;9;2;6;0;9;0;10;0;6;1;8;0;7;3;12;3;8;0;9;0;17;3;6;0;11;6;9;7;9;0;7;0;8;2;10;1;12;0;5;0;10;1;9;2;8;0;8;0;10;1;8;0;10;0;7;0;10;1;11;0;8;2;7;0;8;0;10;2;8;0;9;0;12;1;7;0;9;1;11;0;10;0;10;0;10;4;6;2;10;0;10;0;6;0;11;0;8;0;10;0;9;0;11;2;8;0;7;2;14;0;11;0;11;0;10;0;12;0;7;1;10;0;8;0;8;1;14;0;10;0;11;0;13;0;5;0;10;0;7;3;11;3;11;0;8;0;11;0;8;1;7;0;11;0;9;3;11;0;8;0;6;0;9;1;9;0;8;1;11;0;13;2;12;1;9;0;11;0;8;0;10;3;9;1;11;0;9;4;10;0;10;3;8;0;11;0;10;0;9;0;10;0;8;0;12;1;8;0;9;3;9;0;10;0;10;5;7;4;9;0;7;0;15;2;9;0;10;1;9;0;10;0;10;0;8;0;10;0;9;0;7;3;8;1;10;0;9;0;11;2;16;0;10;3;11;0;11;0;12;1;5;1;10;1;11;0;11;0;8;0;11;3;10;3;9;2;10;1;8;0;12;0;12;4;8;0;7;0;10;1;7;1;7;0;10;0;10;2;11;0;11;0;9;3;5;0;10;0;9;2;12;3;9;4;10;0;11;1;10;0;9;3;9;0;10;0;10;2;5;0;10;1;10;0;14;0;12;2;7;3;8;0;9;1;10;4;9;0;8;3;11;1;12;0;11;0;9;2;8;1;10;0;8;3;14;0;11;4;7;2;12;0;7;0;7;2;7;0;7;0;7;2;9;0;10;0;8;3;10;4;8;3;13;1;10;0;11;0;7;1;11;0;10;0;6;0;9;0;7;0;7;0;14;0;13;0;9;2;10;2;10;0;10;0;7;0;10;0;9;0;12;0;8;0;12;3;7;0;9;5;5;3;9;1;9;0;10;0;11;0;8;0;10;0;12;0;13;2;9;3;6;2;9;1;5;0;7;0;10;0;9;2;11;0;11;0;9;0;8;1;11;2;10;0;8;0;10;1;11;0;10;0;8;1;8;0;9;2;5;0;8;0;9;0;13;0;8;0;10;0;14;1;5;0;7;0;9;0;10;0;8;0;9;0;9;0;6;1;8;0;8;0;7;0;10;1;8;0;9;0;8;0;11;0;8;0;7;0;6;1;8;0;10;0;11;0;8;0;6;0;7;0;6;0;7;0;10;0;10;0;10;0;7;0;7;0;8;0;9;0;9;0;6;0;6;0;9;0;7;0;7;0;9;0;9;0;10;0;6;0;9;0;7;0;10;1;9;0;6;0;7;0;9;0;7;0;9;0;8;0;13;0;9;0;9;0;5;1;9;0;9;0;8;0;9;0;7;0;9;0;9;0;9;0;8;0;8;0;15;6;8;0;9;0;11;0;7;0;7;1;6;0;10;2;8;0;5;0;8;0;9;0;12;0;5;0;8;0;6;0;8;0;8;0;8;0;6;0;7;0;9;0;12;0;7;0;12;1;5;0;8;0;7;0;10;0;6;0;11;0;5;0;9;0;7;0;8;0;10;0;9;0;8;0;8;0;7;0;8;2;9;0;11;0;11;2;6;0;8;1;6;0;8;0;9;0;8;0;9;0;13;0;7;0;8;1;4;0;10;0;9;0;10;0;8;1;8;0;9;0;6;0;10;0;5;0;9;0;9;0;8;0;7;0;8;0;13;0;7;0;9;0;10;0;7;0;12;0;7;0;6;2;8;0;9;0;10;1;7;0;10;0;8;0;9;0;10;0;9;0;8;0;7;0;8;0;9;0;8;0;5;0;11;0;8;2;16;0;7;0;9;0;14;0;6;0;7;0;8;0;8;0;8;3;8;0;10;0;8;0;6;0;7;0;7;0;9;0;10;0;10;2;7;0;9;1;11;0;6;0;7;0;11;4;8;0;7;0;7;0;4;0;8;0;7;0;7;0;6;0;11;0;7;0;11;1;11;0;8;0;11;0;10;0;9;0;8;0;9;0;9;1;10;0;8;4;10;0;12;0;8;2;10;0;17;0;7;0;5;0;8;0;7;0;8;0;10;0;10;0;7;1;9;0;8;0;14;0;10;1;12;0;8;0;10;0;7;0;8;0;9;0;8;0;9;0;6;0;10;2;9;0;8;0;13;0;8;0;8;0;8;0;6;0;9;2;6;0;4;0;9;0;11;0;9;0;11;0;10;2;8;0;5;0;7;0;11;0;10;0;9;9;9;0;5;1;5;4;8;1;7;0;8;0;7;0;6;0;10;0;9;0;4;0;9;2;8;1;7;0;9;0;9;0;9;0;8;0;6;0;8;0;8;0;10;0;9;0;11;0;14;0;10;0;9;0;13;1;11;0;11;2;8;0;10;0;11;0;11;0;11;0;12;0;11;0;11;0;14;0;16;1;10;0;11;2;7;0;8;0;14;0;12;0;15;0;14;0;12;0;14;0;13;0;12;0;15;0;9;1;9;0;9;0;11;0;13;0;14;0;12;0;12;0;10;2;11;0;10;1;13;0;11;0;8;0;12;0;12;0;9;0;10;0;11;0;13;1;12;0;13;0;8;1;12;0;11;0;11;0;10;0;10;0;9;0;9;0;11;0;3;1;6;0;10;1;5;0;10;0;9;0;13;0;11;0;9;0;9;0;9;0;11;0;7;4;9;1;9;0;12;0;7;0;12;0;9;0;11;1;11;0;13;0;9;0;10;0;11;0;9;0;12;0;16;0;11;0;16;0;9;0;11;0;12;0;9;0;10;0;12;0;10;0;12;0;6;2;9;0;14;0;12;0;12;0;4;0;13;1;9;0;7;0;9;0;10;0;10;0;11;0;12;2;6;0;9;0;8;0;9;0;9;3;2;0;6;0;10;0;8;0;8;0;7;0;8;0;10;0;8;0;8;1;6;0;12;0;10;0;7;0;9;3;5;0;10;0;10;0;7;0;8;0;9;1;7;0;10;0;10;0;6;1;8;0;10;0;6;1;11;0;12;4;8;1;7;0;5;0;10;0;6;0;9;0;10;0;8;0;9;0;8;2;9;0;12;0;11;0;12;0;11;0;7;2;11;0;8;2;8;0;8;0;9;0;11;0;9;0;7;0;8;0;10;0;12;5;8;0;10;0;7;0;10;0;11;0;11;0;7;1;9;0;11;1;10;0;8;0;12;0;7;3;7;0;11;2;7;0;10;1;9;0;9;0;11;0;9;0;11;0;10;0;13;0;7;0;8;0;9;0;10;0;11;0;10;0;6;0;8;0;13;0;5;0;8;2;11;0;11;0;13;1;12;0;11;1;11;1;7;0;9;2;7;0;12;4;9;0;6;1;11;4;9;0;10;0;8;0;12;0;9;0;10;2;11;2;11;1;15;2;8;0;7;0;11;0;9;1;6;0;10;0;9;0;4;2;10;0;9;0;11;0;12;1;10;0;7;0;10;0;9;1;7;0;7;3;6;0;9;0;11;1;11;1;10;0;10;0;11;0;10;0;10;2;8;2;10;0;7;0;10;0;8;0;13;0;10;0;10;0;12;0;6;2;9;1;10;0;12;0;9;4;8;0;14;2;6;1;6;0;10;3;10;0;8;1;10;0;9;0;8;0;10;0;9;0;13;3;13;0;9;0;9;0;6;1;10;0;11;0;9;0;12;0;9;0;9;0;9;2;10;0;12;0;10;0;9;0;12;1;8;0;10;0;10;1;11;1;5;0;10;0;11;0;11;0;13;0;11;0;14;3;12;0;9;1;9;0;11;0;14;0;9;0;12;0;9;0;11;2;9;0;9;5;14;2;10;0;13;0;9;2;13;0;10;0;9;2;12;0;14;0;12;1;8;3;10;0;11;2;9;1;12;1;10;0;6;0;10;0;15;0;11;0;10;0;13;0;9;0;10;0;11;0;7;0;15;2;9;0;10;2;10;1;11;4;8;0;11;1;13;0;7;0;11;0;12;0;9;0;10;0;7;1;10;2;10;1;9;0;10;2;10;1;15;0;11;1;12;4;13;0;9;0;13;2;11;2;10;0;9;5;10;1;10;0;9;0;9;2;7;2;8;0;13;4;8;0;8;0;10;1;10;0;10;1;12;1;7;0;9;2;11;0;9;3;7;0;12;2;11;0;8;0;9;3;10;1;8;0;11;0;10;0;10;0;14;0;6;3;12;0;10;0;8;1;10;0;11;0;10;1;11;0;14;2;11;0;11;6;12;0;8;1;13;0;6;3;9;2;13;0;11;0;12;0;10;0;10;0;9;0;12;11;12;3;11;0;14;4;12;0;9;1;13;4;13;0;12;3;17;1;13;5;11;3;13;0;12;0;6;0;10;0;9;3;12;1;10;0;9;2;11;0;9;2;13;0;13;1;14;0;14;3;15;0;13;3;11;0;12;1;17;1;12;3;11;4;10;3;15;1;13;5;10;3;11;2;13;0;14;0;16;0;11;3;13;0;15;5;14;4;8;0;11;0;8;2;15;0;11;0;17;0;15;2;14;0;15;1;13;0;12;0;13;1;12;2;8;3;9;3;14;0;7;1;12;0;12;2;11;4;

