\relax 
\providecommand\zref@newlabel[2]{}
\providecommand\hyper@newdestlabel[2]{}
\providecommand*\new@tpo@label[2]{}
\providecommand\babel@aux[2]{}
\@nameuse{bbl@beforestart}
\catcode `"\active 
\providecommand\HyperFirstAtBeginDocument{\AtBeginDocument}
\HyperFirstAtBeginDocument{\ifx\hyper@anchor\@undefined
\global\let\oldcontentsline\contentsline
\gdef\contentsline#1#2#3#4{\oldcontentsline{#1}{#2}{#3}}
\global\let\oldnewlabel\newlabel
\gdef\newlabel#1#2{\newlabelxx{#1}#2}
\gdef\newlabelxx#1#2#3#4#5#6{\oldnewlabel{#1}{{#2}{#3}}}
\AtEndDocument{\ifx\hyper@anchor\@undefined
\let\contentsline\oldcontentsline
\let\newlabel\oldnewlabel
\fi}
\fi}
\global\let\hyper@last\relax 
\gdef\HyperFirstAtBeginDocument#1{#1}
\providecommand\HyField@AuxAddToFields[1]{}
\providecommand\HyField@AuxAddToCoFields[2]{}
\providecommand\BKM@entry[2]{}
\babel@aux{ngerman}{}
\BKM@entry{id=1,dest={73656374696F6E2E31},srcline={84}}{5C3337365C3337375C303030415C303030755C303030665C303030675C303030615C303030625C303030655C3030305C3034305C30303031}
\BKM@entry{id=2,dest={73756273656374696F6E2E312E31},srcline={85}}{5C3337365C3337375C303030415C303030755C303030665C303030675C303030615C303030625C303030655C3030306E5C303030735C303030745C303030655C3030306C5C3030306C5C303030755C3030306E5C30303067}
\BKM@entry{id=3,dest={73756273656374696F6E2E312E32},srcline={88}}{5C3337365C3337375C303030505C303030685C303030795C303030735C303030695C3030306B5C303030615C3030306C5C303030695C303030735C303030635C303030685C303030655C3030305C3034305C303030475C303030725C303030755C3030306E5C303030645C3030306C5C303030615C303030675C303030655C3030306E}
\BKM@entry{id=4,dest={73756273656374696F6E2E312E33},srcline={93}}{5C3337365C3337375C303030455C303030785C303030705C303030655C303030725C303030695C3030306D5C303030655C3030306E5C303030745C303030655C3030306C5C3030306C5C303030655C303030725C3030305C3034305C303030415C303030755C303030665C303030625C303030615C30303075}
\BKM@entry{id=5,dest={73756273656374696F6E2E312E34},srcline={120}}{5C3337365C3337375C303030445C303030755C303030725C303030635C303030685C303030665C3030305C3337345C303030685C303030725C303030755C3030306E5C30303067}
\BKM@entry{id=6,dest={73756273656374696F6E2E312E35},srcline={125}}{5C3337365C3337375C303030525C303030655C303030735C303030755C3030306C5C303030745C303030615C303030745C30303065}
\BKM@entry{id=7,dest={73756273656374696F6E2E312E36},srcline={128}}{5C3337365C3337375C303030445C303030695C303030735C3030306B5C303030755C303030735C303030735C303030695C3030306F5C3030306E}
\BKM@entry{id=8,dest={73656374696F6E2E32},srcline={131}}{5C3337365C3337375C303030415C303030755C303030665C303030675C303030615C303030625C303030655C3030305C3034305C30303032}
\BKM@entry{id=9,dest={73756273656374696F6E2E322E31},srcline={132}}{5C3337365C3337375C303030415C303030755C303030665C303030675C303030615C303030625C303030655C3030306E5C303030735C303030745C303030655C3030306C5C3030306C5C303030755C3030306E5C30303067}
\BKM@entry{id=10,dest={73756273656374696F6E2E322E32},srcline={135}}{5C3337365C3337375C303030505C303030685C303030795C303030735C303030695C3030306B5C303030615C3030306C5C303030695C303030735C303030635C303030685C303030655C3030305C3034305C303030475C303030725C303030755C3030306E5C303030645C3030306C5C303030615C303030675C303030655C3030306E}
\BKM@entry{id=11,dest={73756273656374696F6E2E322E33},srcline={140}}{5C3337365C3337375C303030455C303030785C303030705C303030655C303030725C303030695C3030306D5C303030655C3030306E5C303030745C303030655C3030306C5C3030306C5C303030655C303030725C3030305C3034305C303030415C303030755C303030665C303030625C303030615C30303075}
\BKM@entry{id=12,dest={73756273656374696F6E2E322E34},srcline={161}}{5C3337365C3337375C303030445C303030755C303030725C303030635C303030685C303030665C3030305C3337345C303030685C303030725C303030755C3030306E5C30303067}
\BKM@entry{id=13,dest={73756273656374696F6E2E322E35},srcline={166}}{5C3337365C3337375C303030525C303030655C303030735C303030755C3030306C5C303030745C303030615C303030745C30303065}
\BKM@entry{id=14,dest={73756273656374696F6E2E322E36},srcline={169}}{5C3337365C3337375C303030445C303030695C303030735C3030306B5C303030755C303030735C303030735C303030695C3030306F5C3030306E}
\BKM@entry{id=15,dest={73656374696F6E2E33},srcline={172}}{5C3337365C3337375C303030415C303030755C303030665C303030675C303030615C303030625C303030655C3030305C3034305C30303033}
\BKM@entry{id=16,dest={73756273656374696F6E2E332E31},srcline={173}}{5C3337365C3337375C303030415C303030755C303030665C303030675C303030615C303030625C303030655C3030306E5C303030735C303030745C303030655C3030306C5C3030306C5C303030755C3030306E5C30303067}
\BKM@entry{id=17,dest={73756273656374696F6E2E332E32},srcline={176}}{5C3337365C3337375C303030505C303030685C303030795C303030735C303030695C3030306B5C303030615C3030306C5C303030695C303030735C303030635C303030685C303030655C3030305C3034305C303030475C303030725C303030755C3030306E5C303030645C3030306C5C303030615C303030675C303030655C3030306E}
\@writefile{toc}{\contentsline {section}{\numberline {1}Aufgabe 1}{2}{section.1}\protected@file@percent }
\@writefile{toc}{\contentsline {subsection}{\numberline {1.1}Aufgabenstellung}{2}{subsection.1.1}\protected@file@percent }
\@writefile{toc}{\contentsline {subsection}{\numberline {1.2}Physikalische Grundlagen}{2}{subsection.1.2}\protected@file@percent }
\@writefile{toc}{\contentsline {subsection}{\numberline {1.3}Experimenteller Aufbau}{2}{subsection.1.3}\protected@file@percent }
\@writefile{toc}{\contentsline {subsection}{\numberline {1.4}Durchführung}{2}{subsection.1.4}\protected@file@percent }
\@writefile{toc}{\contentsline {subsection}{\numberline {1.5}Resultate}{2}{subsection.1.5}\protected@file@percent }
\@writefile{toc}{\contentsline {subsection}{\numberline {1.6}Diskussion}{2}{subsection.1.6}\protected@file@percent }
\@writefile{toc}{\contentsline {section}{\numberline {2}Aufgabe 2}{2}{section.2}\protected@file@percent }
\@writefile{toc}{\contentsline {subsection}{\numberline {2.1}Aufgabenstellung}{2}{subsection.2.1}\protected@file@percent }
\@writefile{toc}{\contentsline {subsection}{\numberline {2.2}Physikalische Grundlagen}{2}{subsection.2.2}\protected@file@percent }
\@writefile{toc}{\contentsline {subsection}{\numberline {2.3}Experimenteller Aufbau}{2}{subsection.2.3}\protected@file@percent }
\@writefile{toc}{\contentsline {subsection}{\numberline {2.4}Durchführung}{2}{subsection.2.4}\protected@file@percent }
\BKM@entry{id=18,dest={73756273656374696F6E2E332E33},srcline={181}}{5C3337365C3337375C303030455C303030785C303030705C303030655C303030725C303030695C3030306D5C303030655C3030306E5C303030745C303030655C3030306C5C3030306C5C303030655C303030725C3030305C3034305C303030415C303030755C303030665C303030625C303030615C30303075}
\BKM@entry{id=19,dest={73756273656374696F6E2E332E34},srcline={202}}{5C3337365C3337375C303030445C303030755C303030725C303030635C303030685C303030665C3030305C3337345C303030685C303030725C303030755C3030306E5C30303067}
\BKM@entry{id=20,dest={73756273656374696F6E2E332E35},srcline={207}}{5C3337365C3337375C303030525C303030655C303030735C303030755C3030306C5C303030745C303030615C303030745C30303065}
\BKM@entry{id=21,dest={73756273656374696F6E2E332E36},srcline={210}}{5C3337365C3337375C303030445C303030695C303030735C3030306B5C303030755C303030735C303030735C303030695C3030306F5C3030306E}
\BKM@entry{id=22,dest={73656374696F6E2E34},srcline={213}}{5C3337365C3337375C303030415C303030755C303030665C303030675C303030615C303030625C303030655C3030305C3034305C30303034}
\BKM@entry{id=23,dest={73756273656374696F6E2E342E31},srcline={214}}{5C3337365C3337375C303030415C303030755C303030665C303030675C303030615C303030625C303030655C3030306E5C303030735C303030745C303030655C3030306C5C3030306C5C303030755C3030306E5C30303067}
\BKM@entry{id=24,dest={73756273656374696F6E2E342E32},srcline={217}}{5C3337365C3337375C303030505C303030685C303030795C303030735C303030695C3030306B5C303030615C3030306C5C303030695C303030735C303030635C303030685C303030655C3030305C3034305C303030475C303030725C303030755C3030306E5C303030645C3030306C5C303030615C303030675C303030655C3030306E}
\BKM@entry{id=25,dest={73756273656374696F6E2E342E33},srcline={222}}{5C3337365C3337375C303030455C303030785C303030705C303030655C303030725C303030695C3030306D5C303030655C3030306E5C303030745C303030655C3030306C5C3030306C5C303030655C303030725C3030305C3034305C303030415C303030755C303030665C303030625C303030615C30303075}
\BKM@entry{id=26,dest={73756273656374696F6E2E342E34},srcline={243}}{5C3337365C3337375C303030445C303030755C303030725C303030635C303030685C303030665C3030305C3337345C303030685C303030725C303030755C3030306E5C30303067}
\BKM@entry{id=27,dest={73756273656374696F6E2E342E35},srcline={248}}{5C3337365C3337375C303030525C303030655C303030735C303030755C3030306C5C303030745C303030615C303030745C30303065}
\BKM@entry{id=28,dest={73756273656374696F6E2E342E36},srcline={251}}{5C3337365C3337375C303030445C303030695C303030735C3030306B5C303030755C303030735C303030735C303030695C3030306F5C3030306E}
\bibcite{}{1}
\@writefile{toc}{\contentsline {subsection}{\numberline {2.5}Resultate}{3}{subsection.2.5}\protected@file@percent }
\@writefile{toc}{\contentsline {subsection}{\numberline {2.6}Diskussion}{3}{subsection.2.6}\protected@file@percent }
\@writefile{toc}{\contentsline {section}{\numberline {3}Aufgabe 3}{3}{section.3}\protected@file@percent }
\@writefile{toc}{\contentsline {subsection}{\numberline {3.1}Aufgabenstellung}{3}{subsection.3.1}\protected@file@percent }
\@writefile{toc}{\contentsline {subsection}{\numberline {3.2}Physikalische Grundlagen}{3}{subsection.3.2}\protected@file@percent }
\@writefile{toc}{\contentsline {subsection}{\numberline {3.3}Experimenteller Aufbau}{3}{subsection.3.3}\protected@file@percent }
\@writefile{toc}{\contentsline {subsection}{\numberline {3.4}Durchführung}{3}{subsection.3.4}\protected@file@percent }
\@writefile{toc}{\contentsline {subsection}{\numberline {3.5}Resultate}{3}{subsection.3.5}\protected@file@percent }
\@writefile{toc}{\contentsline {subsection}{\numberline {3.6}Diskussion}{3}{subsection.3.6}\protected@file@percent }
\@writefile{toc}{\contentsline {section}{\numberline {4}Aufgabe 4}{3}{section.4}\protected@file@percent }
\@writefile{toc}{\contentsline {subsection}{\numberline {4.1}Aufgabenstellung}{3}{subsection.4.1}\protected@file@percent }
\@writefile{toc}{\contentsline {subsection}{\numberline {4.2}Physikalische Grundlagen}{3}{subsection.4.2}\protected@file@percent }
\@writefile{toc}{\contentsline {subsection}{\numberline {4.3}Experimenteller Aufbau}{3}{subsection.4.3}\protected@file@percent }
\@writefile{toc}{\contentsline {subsection}{\numberline {4.4}Durchführung}{3}{subsection.4.4}\protected@file@percent }
\@writefile{toc}{\contentsline {subsection}{\numberline {4.5}Resultate}{3}{subsection.4.5}\protected@file@percent }
\@writefile{toc}{\contentsline {subsection}{\numberline {4.6}Diskussion}{3}{subsection.4.6}\protected@file@percent }
\global\@namedef{scr@dte@section@lastmaxnumwidth}{9.55988pt}
\global\@namedef{scr@dte@subsection@lastmaxnumwidth}{17.8997pt}
\@writefile{toc}{\providecommand\tocbasic@end@toc@file{}\tocbasic@end@toc@file}
\gdef \@abspage@last{4}
