# Fdb version 3
["pdflatex"] 1649351783 "c:/Users/Jannik Dierks/Documents/Studium/Module/Semester_6/FP2_Protokolle/00_Vorlage/Protokoll/00_Vorlage.tex" "00_Vorlage.pdf" "00_Vorlage" 1649351787
  "00_Vorlage.aux" 1649351786 11006 6978d1df05d0b9241807910f52f2e3b2 "pdflatex"
  "00_Vorlage.out" 1649351786 0 d41d8cd98f00b204e9800998ecf8427e "pdflatex"
  "00_Vorlage.tex" 1649351721 6763 ad95d176ad83905b7c71545765a2de26 ""
  "00_Vorlage.toc" 1649351786 2315 2e684c67e38a533135dfdc0314e675d3 "pdflatex"
  "Bilder//logo.pdf" 1636730592 644266 94e3c06459c698dfdc6f3728a4ed4089 ""
  "C:/Users/Jannik Dierks/AppData/Local/MiKTeX/fonts/map/pdftex/pdftex.map" 1643572012 82507 a9eef8696c92627b87e9975edea03b2a ""
  "C:/Users/Jannik Dierks/AppData/Local/MiKTeX/miktex/data/le/pdftex/pdflatex.fmt" 1639303095 9773796 664c7a7c968d29273c9c010df066c972 ""
  "C:/Users/Jannik Dierks/AppData/Local/Programs/MiKTeX/fonts/enc/dvips/base/8r.enc" 1458477487 4993 80dc9bab7f31fb78a000ccfed0e27cab ""
  "C:/Users/Jannik Dierks/AppData/Local/Programs/MiKTeX/fonts/tfm/adobe/helvetic/phvb8r.tfm" 1136772254 4484 b828043cbd581d289d955903c1339981 ""
  "C:/Users/Jannik Dierks/AppData/Local/Programs/MiKTeX/fonts/tfm/adobe/helvetic/phvb8t.tfm" 1136772254 6628 34c39492c0adc454c1c199922bba8363 ""
  "C:/Users/Jannik Dierks/AppData/Local/Programs/MiKTeX/fonts/tfm/adobe/helvetic/phvbo8r.tfm" 1136772254 4736 423eba67d4e9420ec9df4a8def143b08 ""
  "C:/Users/Jannik Dierks/AppData/Local/Programs/MiKTeX/fonts/tfm/adobe/helvetic/phvbo8t.tfm" 1136772254 6880 fe6c7967f27585f6fa9876f3af14edd2 ""
  "C:/Users/Jannik Dierks/AppData/Local/Programs/MiKTeX/fonts/tfm/adobe/helvetic/phvr8r.tfm" 1136772254 4712 9ef4d7d106579d4b136e1529e1a4533c ""
  "C:/Users/Jannik Dierks/AppData/Local/Programs/MiKTeX/fonts/tfm/adobe/helvetic/phvr8t.tfm" 1136772254 7040 b2bd27e2bfe6f6948cbc3239cae7444f ""
  "C:/Users/Jannik Dierks/AppData/Local/Programs/MiKTeX/fonts/tfm/adobe/helvetic/phvro8t.tfm" 1136772254 7292 d408122871055bbc541d7280c154e210 ""
  "C:/Users/Jannik Dierks/AppData/Local/Programs/MiKTeX/fonts/tfm/jknappen/ec/ecrm1000.tfm" 993062122 3148 7e594c8240c71e432203f65ab5f95a51 ""
  "C:/Users/Jannik Dierks/AppData/Local/Programs/MiKTeX/fonts/tfm/public/amsfonts/cmextra/cmex7.tfm" 1233955448 1004 54797486969f23fa377b128694d548df ""
  "C:/Users/Jannik Dierks/AppData/Local/Programs/MiKTeX/fonts/tfm/public/amsfonts/symbols/msam10.tfm" 1233955454 916 f87d7c45f9c908e672703b83b72241a3 ""
  "C:/Users/Jannik Dierks/AppData/Local/Programs/MiKTeX/fonts/tfm/public/amsfonts/symbols/msam5.tfm" 1233955454 924 9904cf1d39e9767e7a3622f2a125a565 ""
  "C:/Users/Jannik Dierks/AppData/Local/Programs/MiKTeX/fonts/tfm/public/amsfonts/symbols/msam7.tfm" 1233955454 928 2dc8d444221b7a635bb58038579b861a ""
  "C:/Users/Jannik Dierks/AppData/Local/Programs/MiKTeX/fonts/tfm/public/amsfonts/symbols/msbm10.tfm" 1233955454 908 2921f8a10601f252058503cc6570e581 ""
  "C:/Users/Jannik Dierks/AppData/Local/Programs/MiKTeX/fonts/tfm/public/amsfonts/symbols/msbm5.tfm" 1233955454 940 75ac932a52f80982a9f8ea75d03a34cf ""
  "C:/Users/Jannik Dierks/AppData/Local/Programs/MiKTeX/fonts/tfm/public/amsfonts/symbols/msbm7.tfm" 1233955454 940 228d6584342e91276bf566bcf9716b83 ""
  "C:/Users/Jannik Dierks/AppData/Local/Programs/MiKTeX/fonts/tfm/public/latex-fonts/lasy6.tfm" 1136768653 520 4889cce2180234b97cad636b6039c722 ""
  "C:/Users/Jannik Dierks/AppData/Local/Programs/MiKTeX/fonts/type1/urw/helvetic/uhvb8a.pfb" 1136853348 35941 adef23a721dd8354a4a2bf4434f1c484 ""
  "C:/Users/Jannik Dierks/AppData/Local/Programs/MiKTeX/fonts/type1/urw/helvetic/uhvbo8a.pfb" 1136853348 39013 e6ce984d70e653b894670e538a7f0667 ""
  "C:/Users/Jannik Dierks/AppData/Local/Programs/MiKTeX/fonts/type1/urw/helvetic/uhvr8a.pfb" 1136853348 44648 23115b2a545ebfe2c526c3ca99db8b95 ""
  "C:/Users/Jannik Dierks/AppData/Local/Programs/MiKTeX/fonts/vf/adobe/helvetic/phvb8t.vf" 1136772254 2340 0efed6a948c3c37d870e4e7ddb85c7c3 ""
  "C:/Users/Jannik Dierks/AppData/Local/Programs/MiKTeX/fonts/vf/adobe/helvetic/phvbo8t.vf" 1136772254 2344 88834f8322177295b0266ecc4b0754c3 ""
  "C:/Users/Jannik Dierks/AppData/Local/Programs/MiKTeX/fonts/vf/adobe/helvetic/phvr8t.vf" 1136772254 2344 44ff28c9ef2fc97180cd884f900fee71 ""
  "C:/Users/Jannik Dierks/AppData/Local/Programs/MiKTeX/tex/context/base/mkii/supp-pdf.mkii" 1580393758 71627 94eb9990bed73c364d7f53f960cc8c5b ""
  "C:/Users/Jannik Dierks/AppData/Local/Programs/MiKTeX/tex/generic/atbegshi/atbegshi.sty" 1575574700 24708 5584a51a7101caf7e6bbf1fc27d8f7b1 ""
  "C:/Users/Jannik Dierks/AppData/Local/Programs/MiKTeX/tex/generic/babel/babel.sty" 1638209964 147900 18d47b4bbea226e862cd49f17ede0392 ""
  "C:/Users/Jannik Dierks/AppData/Local/Programs/MiKTeX/tex/generic/babel/txtbabel.def" 1638209964 5233 a89961f969f72563cb59411e9dc4ae8e ""
  "C:/Users/Jannik Dierks/AppData/Local/Programs/MiKTeX/tex/generic/bigintcalc/bigintcalc.sty" 1576437202 40635 c40361e206be584d448876bba8a64a3b ""
  "C:/Users/Jannik Dierks/AppData/Local/Programs/MiKTeX/tex/generic/bitset/bitset.sty" 1575930176 33961 6b5c75130e435b2bfdb9f480a09a39f9 ""
  "C:/Users/Jannik Dierks/AppData/Local/Programs/MiKTeX/tex/generic/etexcmds/etexcmds.sty" 1576437238 7734 b98cbb34c81f667027c1e3ebdbfce34b ""
  "C:/Users/Jannik Dierks/AppData/Local/Programs/MiKTeX/tex/generic/gettitlestring/gettitlestring.sty" 1576437266 8371 9d55b8bd010bc717624922fb3477d92e ""
  "C:/Users/Jannik Dierks/AppData/Local/Programs/MiKTeX/tex/generic/iftex/iftex.sty" 1583527000 6501 4011d89d9621e0b0901138815ba5ff29 ""
  "C:/Users/Jannik Dierks/AppData/Local/Programs/MiKTeX/tex/generic/iftex/ifvtex.sty" 1583527000 1057 525c2192b5febbd8c1f662c9468335bb ""
  "C:/Users/Jannik Dierks/AppData/Local/Programs/MiKTeX/tex/generic/infwarerr/infwarerr.sty" 1575403108 8356 7bbb2c2373aa810be568c29e333da8ed ""
  "C:/Users/Jannik Dierks/AppData/Local/Programs/MiKTeX/tex/generic/intcalc/intcalc.sty" 1576437364 31769 002a487f55041f8e805cfbf6385ffd97 ""
  "C:/Users/Jannik Dierks/AppData/Local/Programs/MiKTeX/tex/generic/kvdefinekeys/kvdefinekeys.sty" 1576766904 5412 d5a2436094cd7be85769db90f29250a6 ""
  "C:/Users/Jannik Dierks/AppData/Local/Programs/MiKTeX/tex/generic/kvsetkeys/kvsetkeys.sty" 1576437420 13807 952b0226d4efca026f0e19dd266dcc22 ""
  "C:/Users/Jannik Dierks/AppData/Local/Programs/MiKTeX/tex/generic/ltxcmds/ltxcmds.sty" 1601735609 18568 4409f8f50cd365c68e684407e5350b1b ""
  "C:/Users/Jannik Dierks/AppData/Local/Programs/MiKTeX/tex/generic/pdfescape/pdfescape.sty" 1575930300 19007 15924f7228aca6c6d184b115f4baa231 ""
  "C:/Users/Jannik Dierks/AppData/Local/Programs/MiKTeX/tex/generic/pdftexcmds/pdftexcmds.sty" 1623005277 20089 80423eac55aa175305d35b49e04fe23b ""
  "C:/Users/Jannik Dierks/AppData/Local/Programs/MiKTeX/tex/generic/uniquecounter/uniquecounter.sty" 1576437612 7008 f92eaa0a3872ed622bbf538217cd2ab7 ""
  "C:/Users/Jannik Dierks/AppData/Local/Programs/MiKTeX/tex/latex/00miktex/epstopdf-sys.cfg" 1616070885 584 2a1075dd71571459f59146da9f7502ad ""
  "C:/Users/Jannik Dierks/AppData/Local/Programs/MiKTeX/tex/latex/amsfonts/amsfonts.sty" 1358201372 5949 3f3fd50a8cc94c3d4cbf4fc66cd3df1c ""
  "C:/Users/Jannik Dierks/AppData/Local/Programs/MiKTeX/tex/latex/amsfonts/amssymb.sty" 1358201372 13829 94730e64147574077f8ecfea9bb69af4 ""
  "C:/Users/Jannik Dierks/AppData/Local/Programs/MiKTeX/tex/latex/amsfonts/umsa.fd" 1358201372 961 6518c6525a34feb5e8250ffa91731cff ""
  "C:/Users/Jannik Dierks/AppData/Local/Programs/MiKTeX/tex/latex/amsfonts/umsb.fd" 1358201372 961 d02606146ba5601b5645f987c92e6193 ""
  "C:/Users/Jannik Dierks/AppData/Local/Programs/MiKTeX/tex/latex/amsmath/amsbsy.sty" 1636827941 2222 da905dc1db75412efd2d8f67739f0596 ""
  "C:/Users/Jannik Dierks/AppData/Local/Programs/MiKTeX/tex/latex/amsmath/amsgen.sty" 1636827942 4173 bc0410bcccdff806d6132d3c1ef35481 ""
  "C:/Users/Jannik Dierks/AppData/Local/Programs/MiKTeX/tex/latex/amsmath/amsmath.sty" 1636827942 87648 07fbb6e9169e00cb2a2f40b31b2dbf3c ""
  "C:/Users/Jannik Dierks/AppData/Local/Programs/MiKTeX/tex/latex/amsmath/amsopn.sty" 1636827943 4128 8eea906621b6639f7ba476a472036bbe ""
  "C:/Users/Jannik Dierks/AppData/Local/Programs/MiKTeX/tex/latex/amsmath/amstext.sty" 1636827943 2444 926f379cc60fcf0c6e3fee2223b4370d ""
  "C:/Users/Jannik Dierks/AppData/Local/Programs/MiKTeX/tex/latex/appendix/appendix.sty" 1581248268 9184 d9f65b39ca82f1d70030390eca653b1c ""
  "C:/Users/Jannik Dierks/AppData/Local/Programs/MiKTeX/tex/latex/arabi/bblopts.cfg" 1139965200 902 c30e5c373bc58bde21f8f63a3091626f ""
  "C:/Users/Jannik Dierks/AppData/Local/Programs/MiKTeX/tex/latex/atveryend/atveryend.sty" 1576104710 19336 ce7ae9438967282886b3b036cfad1e4d ""
  "C:/Users/Jannik Dierks/AppData/Local/Programs/MiKTeX/tex/latex/auxhook/auxhook.sty" 1576542332 3935 57aa3c3e203a5c2effb4d2bd2efbc323 ""
  "C:/Users/Jannik Dierks/AppData/Local/Programs/MiKTeX/tex/latex/babel-german/ngerman.ldf" 1614786071 2289 b1d356015c8fd065cb4437d567449559 ""
  "C:/Users/Jannik Dierks/AppData/Local/Programs/MiKTeX/tex/latex/babel-german/ngermanb.ldf" 1614786071 7752 76871ff65dd4689e1a548995ac96d8c3 ""
  "C:/Users/Jannik Dierks/AppData/Local/Programs/MiKTeX/tex/latex/base/atbegshi-ltx.sty" 1638778684 3034 3bfb87122e6fa8758225c0dd3cbaceba ""
  "C:/Users/Jannik Dierks/AppData/Local/Programs/MiKTeX/tex/latex/base/atveryend-ltx.sty" 1638778684 2462 754d6b31b2ab5a09bb72c348ace2ec75 ""
  "C:/Users/Jannik Dierks/AppData/Local/Programs/MiKTeX/tex/latex/base/fontenc.sty" 1638778684 4946 461cc78f6f26901410d9f1d725079cc6 ""
  "C:/Users/Jannik Dierks/AppData/Local/Programs/MiKTeX/tex/latex/base/inputenc.sty" 1638778684 5049 969aec05d5f39c43f8005910498fcf90 ""
  "C:/Users/Jannik Dierks/AppData/Local/Programs/MiKTeX/tex/latex/bookmark/bkm-pdftex.def" 1604859466 8609 8ac7db65d9617618cf703bd16c1bd0b8 ""
  "C:/Users/Jannik Dierks/AppData/Local/Programs/MiKTeX/tex/latex/bookmark/bookmark.sty" 1604859466 18237 5cbdfe9ef383a557f780a0a1f45cdb1c ""
  "C:/Users/Jannik Dierks/AppData/Local/Programs/MiKTeX/tex/latex/caption/caption-koma.sto" 1603744196 6559 a1f99be1697762b19f714b4553fcaefa ""
  "C:/Users/Jannik Dierks/AppData/Local/Programs/MiKTeX/tex/latex/caption/caption.sty" 1603744196 51746 e89c4da670ba533e6ab38e045ce6d1d9 ""
  "C:/Users/Jannik Dierks/AppData/Local/Programs/MiKTeX/tex/latex/caption/caption3.sty" 1603744196 67929 d50ae850e1d9604065e8337a75a41029 ""
  "C:/Users/Jannik Dierks/AppData/Local/Programs/MiKTeX/tex/latex/chemgreek/chemgreek.sty" 1579211076 47530 64600845afa9c25b782d42fa33f66772 ""
  "C:/Users/Jannik Dierks/AppData/Local/Programs/MiKTeX/tex/latex/colortbl/colortbl.sty" 1580045126 11153 d0af3aa11e27ae35ba4685b17597b122 ""
  "C:/Users/Jannik Dierks/AppData/Local/Programs/MiKTeX/tex/latex/csquotes/csquotes.cfg" 1613982684 7068 06f8d141725d114847527a66439066b6 ""
  "C:/Users/Jannik Dierks/AppData/Local/Programs/MiKTeX/tex/latex/csquotes/csquotes.def" 1613982684 20781 dc1bec6693d5466d8972ecc6b81f9f0b ""
  "C:/Users/Jannik Dierks/AppData/Local/Programs/MiKTeX/tex/latex/csquotes/csquotes.sty" 1613982684 62518 6e0d74482f5cb16b3b0755031e72faf1 ""
  "C:/Users/Jannik Dierks/AppData/Local/Programs/MiKTeX/tex/latex/enumitem/enumitem.sty" 1561039820 51697 f8f08183cd2080d9d18a41432d651dfb ""
  "C:/Users/Jannik Dierks/AppData/Local/Programs/MiKTeX/tex/latex/epstopdf-pkg/epstopdf-base.sty" 1623003186 13886 d1306dcf79a944f6988e688c1785f9ce ""
  "C:/Users/Jannik Dierks/AppData/Local/Programs/MiKTeX/tex/latex/etoolbox/etoolbox.sty" 1601897756 46845 3b58f70c6e861a13d927bff09d35ecbc ""
  "C:/Users/Jannik Dierks/AppData/Local/Programs/MiKTeX/tex/latex/float/float.sty" 1469023953 6916 16d2656a1984957e674b149555f1ea1d ""
  "C:/Users/Jannik Dierks/AppData/Local/Programs/MiKTeX/tex/latex/footmisc/footmisc.sty" 1307374151 25776 d28bd6d82f168f8cb2268584b67a2a98 ""
  "C:/Users/Jannik Dierks/AppData/Local/Programs/MiKTeX/tex/latex/geometry/geometry.cfg" 1578057145 1104 7ac475a4e3466b0b43e138e9356bda83 ""
  "C:/Users/Jannik Dierks/AppData/Local/Programs/MiKTeX/tex/latex/geometry/geometry.sty" 1578057145 42759 9cf6c5257b1bc7af01a58859749dd37a ""
  "C:/Users/Jannik Dierks/AppData/Local/Programs/MiKTeX/tex/latex/graphics-cfg/color.cfg" 1465894292 1213 620bba36b25224fa9b7e1ccb4ecb76fd ""
  "C:/Users/Jannik Dierks/AppData/Local/Programs/MiKTeX/tex/latex/graphics-cfg/graphics.cfg" 1465894292 1224 978390e9c2234eab29404bc21b268d1e ""
  "C:/Users/Jannik Dierks/AppData/Local/Programs/MiKTeX/tex/latex/graphics-def/pdftex.def" 1637521928 19103 48d29b6e2a64cb717117ef65f107b404 ""
  "C:/Users/Jannik Dierks/AppData/Local/Programs/MiKTeX/tex/latex/graphics/color.sty" 1636828063 7202 2086d39847c85b4b6fb051160304eaa9 ""
  "C:/Users/Jannik Dierks/AppData/Local/Programs/MiKTeX/tex/latex/graphics/graphics.sty" 1636828063 18399 7e40f80366dffb22c0e7b70517db5cb4 ""
  "C:/Users/Jannik Dierks/AppData/Local/Programs/MiKTeX/tex/latex/graphics/graphicx.sty" 1636828063 7996 a8fb260d598dcaf305a7ae7b9c3e3229 ""
  "C:/Users/Jannik Dierks/AppData/Local/Programs/MiKTeX/tex/latex/graphics/keyval.sty" 1636828063 2671 4de6781a30211fe0ea4c672e4a2a8166 ""
  "C:/Users/Jannik Dierks/AppData/Local/Programs/MiKTeX/tex/latex/graphics/trig.sty" 1636828063 4009 187ea2dc3194cd5a76cd99a8d7a6c4d0 ""
  "C:/Users/Jannik Dierks/AppData/Local/Programs/MiKTeX/tex/latex/hycolor/hycolor.sty" 1580384392 18571 4c28a13fc3d975e6e81c9bea1d697276 ""
  "C:/Users/Jannik Dierks/AppData/Local/Programs/MiKTeX/tex/latex/hyperref/hpdftex.def" 1623057842 49890 0bb76a5b745d92e86aed6f3f93e334f0 ""
  "C:/Users/Jannik Dierks/AppData/Local/Programs/MiKTeX/tex/latex/hyperref/hyperref-langpatches.def" 1623057842 1777 940b1aa83773bc035eb882e8d6842769 ""
  "C:/Users/Jannik Dierks/AppData/Local/Programs/MiKTeX/tex/latex/hyperref/hyperref.sty" 1623057842 230915 97a8817f13de4e61bbc3592cb2caa995 ""
  "C:/Users/Jannik Dierks/AppData/Local/Programs/MiKTeX/tex/latex/hyperref/nameref.sty" 1623057842 13242 133e617c5eebffdd05e421624022b267 ""
  "C:/Users/Jannik Dierks/AppData/Local/Programs/MiKTeX/tex/latex/hyperref/pd1enc.def" 1623057842 14132 c9404e8e78123ef0d1007c34d1d6da51 ""
  "C:/Users/Jannik Dierks/AppData/Local/Programs/MiKTeX/tex/latex/hyperref/puenc.def" 1623057842 117004 86586f287ddfad919a0a4bd68934277a ""
  "C:/Users/Jannik Dierks/AppData/Local/Programs/MiKTeX/tex/latex/koma-script/scrartcl.cls" 1636831314 233526 8fb61d6ba408819abc218e59135c021f ""
  "C:/Users/Jannik Dierks/AppData/Local/Programs/MiKTeX/tex/latex/koma-script/scrbase.sty" 1636831314 99856 6cbb9d59d820d727b2acbf2edddcf8c8 ""
  "C:/Users/Jannik Dierks/AppData/Local/Programs/MiKTeX/tex/latex/koma-script/scrkbase.sty" 1636831314 21809 660eea2921bba49c8ba50045d5b71887 ""
  "C:/Users/Jannik Dierks/AppData/Local/Programs/MiKTeX/tex/latex/koma-script/scrlayer-scrpage.sty" 1636831314 60523 639023529c3595b40a4ec2b09edc90fc ""
  "C:/Users/Jannik Dierks/AppData/Local/Programs/MiKTeX/tex/latex/koma-script/scrlayer.sty" 1636831314 87056 ca24ad784c3470e70189d9ae8eff754d ""
  "C:/Users/Jannik Dierks/AppData/Local/Programs/MiKTeX/tex/latex/koma-script/scrlfile-hook.sty" 1636831314 11081 5538240709a5dbcdc97e4d1524f034a8 ""
  "C:/Users/Jannik Dierks/AppData/Local/Programs/MiKTeX/tex/latex/koma-script/scrlfile.sty" 1636831314 3225 54deb0fdd4552a94c6525a4a8ff74efc ""
  "C:/Users/Jannik Dierks/AppData/Local/Programs/MiKTeX/tex/latex/koma-script/scrlogo.sty" 1636831314 1954 94f3677c5f3a58b3854eb25278202694 ""
  "C:/Users/Jannik Dierks/AppData/Local/Programs/MiKTeX/tex/latex/koma-script/scrsize10pt.clo" 1636831314 6340 0c02227e93fbb4fa1c4660a651ebe8d4 ""
  "C:/Users/Jannik Dierks/AppData/Local/Programs/MiKTeX/tex/latex/koma-script/tocbasic.sty" 1636831314 107099 32be8c26e58788fe2c40d02a36b4486c ""
  "C:/Users/Jannik Dierks/AppData/Local/Programs/MiKTeX/tex/latex/koma-script/typearea.sty" 1636831314 56073 759db929335307786c6fae3cee68c3f8 ""
  "C:/Users/Jannik Dierks/AppData/Local/Programs/MiKTeX/tex/latex/kvoptions/kvoptions.sty" 1602228096 22521 d2fceb764a442a2001d257ef11db7618 ""
  "C:/Users/Jannik Dierks/AppData/Local/Programs/MiKTeX/tex/latex/l3backend/l3backend-pdftex.def" 1634577016 29971 6c47712bf4bc87d15b2ca318615f75a3 ""
  "C:/Users/Jannik Dierks/AppData/Local/Programs/MiKTeX/tex/latex/l3kernel/expl3.sty" 1637599432 6208 8e07b49f15e79668e492fab98378014d ""
  "C:/Users/Jannik Dierks/AppData/Local/Programs/MiKTeX/tex/latex/l3packages/l3keys2e/l3keys2e.sty" 1636724396 4674 175cd58a3276550cf236fd19e68aba45 ""
  "C:/Users/Jannik Dierks/AppData/Local/Programs/MiKTeX/tex/latex/l3packages/xparse/xparse.sty" 1636724396 6758 00f6c8a8db7d6342f781c270a186f6c8 ""
  "C:/Users/Jannik Dierks/AppData/Local/Programs/MiKTeX/tex/latex/letltxmacro/letltxmacro.sty" 1575403136 5766 13a9e8766c47f30327caf893ece86ac8 ""
  "C:/Users/Jannik Dierks/AppData/Local/Programs/MiKTeX/tex/latex/mdframed/md-frame-0.mdf" 1372708085 24831 326d9f019009ed0c076106fa6cb860fb ""
  "C:/Users/Jannik Dierks/AppData/Local/Programs/MiKTeX/tex/latex/mdframed/mdframed.sty" 1372708085 53487 3e997243f47cb3ba8b4c7b8df9c82989 ""
  "C:/Users/Jannik Dierks/AppData/Local/Programs/MiKTeX/tex/latex/mhchem/mhchem.sty" 1529699746 133481 dc82a4183457b704dd7d0522a9b06baf ""
  "C:/Users/Jannik Dierks/AppData/Local/Programs/MiKTeX/tex/latex/multirow/multirow.sty" 1615979718 6149 2398eec4faa1ee24ff761581e580ecf1 ""
  "C:/Users/Jannik Dierks/AppData/Local/Programs/MiKTeX/tex/latex/needspace/needspace.sty" 1364796577 852 0e34dbb72efc69fa07602405ad95585e ""
  "C:/Users/Jannik Dierks/AppData/Local/Programs/MiKTeX/tex/latex/psnfss/helvet.sty" 1585926771 1558 de0ad166b701b820e03588a29bb30798 ""
  "C:/Users/Jannik Dierks/AppData/Local/Programs/MiKTeX/tex/latex/psnfss/t1phv.fd" 1585257378 1536 47067fbe7c3ffed1ede7aaa7b8549d7a ""
  "C:/Users/Jannik Dierks/AppData/Local/Programs/MiKTeX/tex/latex/refcount/refcount.sty" 1576437552 9878 9e94e8fa600d95f9c7731bb21dfb67a4 ""
  "C:/Users/Jannik Dierks/AppData/Local/Programs/MiKTeX/tex/latex/rerunfilecheck/rerunfilecheck.sty" 1575574882 9715 b051d5b493d9fe5f4bc251462d039e5f ""
  "C:/Users/Jannik Dierks/AppData/Local/Programs/MiKTeX/tex/latex/siunitx/siunitx.sty" 1638636002 276392 352655dcd9b310be6c1185013982c407 ""
  "C:/Users/Jannik Dierks/AppData/Local/Programs/MiKTeX/tex/latex/subfig/subfig.sty" 1121281010 22049 9ef165ca6df8815c92e693146a376c92 ""
  "C:/Users/Jannik Dierks/AppData/Local/Programs/MiKTeX/tex/latex/tools/array.sty" 1636713860 12694 6c23725d50ab9d1e2d3ce482c58ffcf3 ""
  "C:/Users/Jannik Dierks/AppData/Local/Programs/MiKTeX/tex/latex/tools/calc.sty" 1636713860 10214 00ce62e730d0cfe22b35e8f1c84949c7 ""
  "C:/Users/Jannik Dierks/AppData/Local/Programs/MiKTeX/tex/latex/translations/dicts/translations-basic-dictionary-german.trsl" 1610894760 5730 10c99be20075e7dc9440e7f0353ff369 ""
  "C:/Users/Jannik Dierks/AppData/Local/Programs/MiKTeX/tex/latex/translations/translations.sty" 1610894760 44057 b43a7c4927b669cd6ab13bb97942d706 ""
  "C:/Users/Jannik Dierks/AppData/Local/Programs/MiKTeX/tex/latex/ulem/ulem.sty" 1578655045 15682 94f55b803e160cf7fb6e4d77d07cfe1d ""
  "C:/Users/Jannik Dierks/AppData/Local/Programs/MiKTeX/tex/latex/url/url.sty" 1388494052 12796 8edb7d69a20b857904dd0ea757c14ec9 ""
  "C:/Users/Jannik Dierks/AppData/Local/Programs/MiKTeX/tex/latex/xcolor/xcolor.sty" 1636288472 56029 3f7889dab51d620aa43177c391b7b190 ""
  "C:/Users/Jannik Dierks/AppData/Local/Programs/MiKTeX/tex/latex/zref/zref-abspage.sty" 1602241898 2275 d29aca6fd67823551cb07584e3681d5d ""
  "C:/Users/Jannik Dierks/AppData/Local/Programs/MiKTeX/tex/latex/zref/zref-base.sty" 1602241898 20688 beaddf14d96104d4bf016523be5395c5 ""
  "c:/Users/Jannik Dierks/Documents/Studium/Module/Semester_6/FP2_Protokolle/00_Vorlage/Protokoll/00_Vorlage.tex" 1649351721 6763 ad95d176ad83905b7c71545765a2de26 ""
  (generated)
  "00_Vorlage.aux"
  "00_Vorlage.log"
  "00_Vorlage.out"
  "00_Vorlage.pdf"
  "00_Vorlage.toc"
