<?xml version="1.0" encoding="UTF-8" standalone="no"?>
<svg
   xmlns:dc="http://purl.org/dc/elements/1.1/"
   xmlns:cc="http://creativecommons.org/ns#"
   xmlns:rdf="http://www.w3.org/1999/02/22-rdf-syntax-ns#"
   xmlns:svg="http://www.w3.org/2000/svg"
   xmlns="http://www.w3.org/2000/svg"
   xmlns:sodipodi="http://sodipodi.sourceforge.net/DTD/sodipodi-0.dtd"
   xmlns:inkscape="http://www.inkscape.org/namespaces/inkscape"
   version="1.1"
   width="1121"
   height="948"
   id="svg1117"
   sodipodi:docname="LJPotential.svg"
   inkscape:version="1.0.1 (3bc2e813f5, 2020-09-07)">
  <metadata
     id="metadata1121">
    <rdf:RDF>
      <cc:Work
         rdf:about="">
        <dc:format>image/svg+xml</dc:format>
        <dc:type
           rdf:resource="http://purl.org/dc/dcmitype/StillImage" />
        <dc:title></dc:title>
      </cc:Work>
    </rdf:RDF>
  </metadata>
  <sodipodi:namedview
     pagecolor="#ffffff"
     bordercolor="#666666"
     borderopacity="1"
     objecttolerance="10"
     gridtolerance="10"
     guidetolerance="10"
     inkscape:pageopacity="0"
     inkscape:pageshadow="2"
     inkscape:window-width="1920"
     inkscape:window-height="1017"
     id="namedview1119"
     showgrid="true"
     inkscape:zoom="0.44091672"
     inkscape:cx="779.88443"
     inkscape:cy="545.69858"
     inkscape:window-x="-8"
     inkscape:window-y="182"
     inkscape:window-maximized="1"
     inkscape:current-layer="g1113">
    <inkscape:grid
       type="xygrid"
       id="grid1123" />
  </sodipodi:namedview>
  <defs
     id="defs981">
    <clipPath
       id="odBWTedXcWVh">
      <path
         fill="none"
         stroke="none"
         d=" M 0 0 L 1121 0 L 1121 948 L 0 948 L 0 0 Z"
         id="path978" />
    </clipPath>
  </defs>
  <g
     transform="scale(1,1)"
     clip-path="url(#odBWTedXcWVh)"
     id="g1115">
    <g
       id="g1113">
      <g
         id="g1501"
         transform="translate(0,-10)">
        <g
           transform="scale(67)"
           id="g1111">
          <g
             transform="translate(8.1940299,4.4600602)"
             id="g1057">
            <path
               fill="#000000"
               stroke="none"
               paint-order="stroke fill markers"
               d="M 0.628,-0.569 0.268,0.004 Q 0.252,0.021 0.24,0.022 0.226,0.022 0.222,0.01 0.221,0.006 0.22,-0.001 L 0.141,-0.618 Q 0.138,-0.641 0.127,-0.646 0.116,-0.652 0.081,-0.652 q -0.023,0 -0.025,-0.012 0,-0.019 0.019,-0.019 l 0.053,0.002 h 0.001 l 0.053,0.001 h 0.002 l 0.123,-0.003 h 0.001 q 0.014,0 0.014,0.011 -0.008,0.019 -0.025,0.02 -0.064,0 -0.069,0.03 l 0.068,0.529 0.307,-0.488 0.013,-0.028 q 0.002,-0.006 0.002,-0.01 0,-0.03 -0.046,-0.033 -0.016,0 -0.016,-0.012 0,-0.019 0.019,-0.019 l 0.098,0.003 h 0.001 l 0.08,-0.003 h 0.002 q 0.013,0 0.013,0.012 0,0.018 -0.013,0.019 -0.052,0.003 -0.082,0.028 -0.011,0.009 -0.022,0.022 -0.012,0.014 -0.024,0.033 z"
               id="path1055" />
          </g>
          <g
             transform="translate(8.9990299,4.4600602)"
             id="g1061">
            <path
               fill="#000000"
               stroke="none"
               paint-order="stroke fill markers"
               d="m 0.331,0.24 v 0 q 0,0.01 -0.01,0.01 Q 0.309,0.25 0.268,0.209 0.206,0.147 0.165,0.062 0.099,-0.074 0.099,-0.25 q 0,-0.169 0.063,-0.305 0.052,-0.111 0.132,-0.178 0.021,-0.017 0.027,-0.017 0.01,0 0.01,0.01 0,0.005 -0.013,0.017 -0.161,0.164 -0.161,0.473 0,0.308 0.157,0.468 0.017,0.017 0.017,0.022 z"
               id="path1059" />
          </g>
          <g
             transform="translate(9.3880299,4.4600602)"
             id="g1065">
            <path
               fill="#000000"
               stroke="none"
               paint-order="stroke fill markers"
               d="m 0.088,-0.059 v 0 L 0.146,-0.29 q 0.016,-0.064 0.016,-0.084 0,-0.046 -0.031,-0.046 -0.041,0 -0.067,0.095 -0.003,0.011 -0.006,0.024 -0.011,0.022 -0.017,0.023 -0.012,0 -0.012,-0.01 0,-0.016 0.018,-0.067 0.007,-0.018 0.013,-0.03 0.024,-0.049 0.06,-0.056 0.007,-0.001 0.014,-0.001 0.056,0 0.081,0.048 0.006,0.011 0.009,0.024 0.001,0.002 0.001,0.005 0.058,-0.072 0.128,-0.077 0.056,0 0.076,0.039 0.007,0.012 0.007,0.026 0,0.039 -0.033,0.054 -0.011,0.005 -0.022,0.005 -0.031,0 -0.037,-0.027 -10e-4,-0.004 -10e-4,-0.008 0,-0.033 0.034,-0.049 L 0.378,-0.403 Q 0.386,-0.406 0.395,-0.408 L 0.375,-0.417 Q 0.362,-0.419 0.353,-0.42 q -0.042,0 -0.08,0.033 -0.031,0.028 -0.053,0.074 -0.002,0.005 -0.003,0.008 l -0.032,0.13 -0.04,0.158 Q 0.136,0.009 0.108,0.011 0.083,0.006 0.079,-0.016 q 0,0.002 0.009,-0.043 z"
               id="path1063" />
          </g>
          <g
             transform="translate(9.8670299,4.4600602)"
             id="g1069">
            <path
               fill="#000000"
               stroke="none"
               paint-order="stroke fill markers"
               d="m 0.289,-0.25 v 0 q 0,0.169 -0.063,0.305 Q 0.174,0.166 0.094,0.233 0.073,0.25 0.067,0.25 q -0.01,0 -0.01,-0.01 0,-0.005 0.013,-0.017 0.161,-0.164 0.161,-0.473 0,-0.305 -0.15,-0.462 L 0.076,-0.717 Q 0.057,-0.735 0.057,-0.74 q 0,-0.01 0.01,-0.01 0.012,0 0.053,0.041 0.062,0.062 0.103,0.147 0.066,0.136 0.066,0.312 z"
               id="path1067" />
          </g>
          <g
             transform="translate(10.533808,4.4600602)"
             id="g1073">
            <path
               fill="#000000"
               stroke="none"
               paint-order="stroke fill markers"
               d="M 0.687,-0.327 H 0.09 q -0.032,0 -0.034,-0.02 0,-0.02 0.033,-0.02 h 0.599 q 0.032,0 0.033,0.02 0,0.02 -0.034,0.02 m 10e-4,0.194 H 0.089 q -0.032,0 -0.033,-0.02 0,-0.02 0.034,-0.02 h 0.597 q 0.032,0 0.034,0.02 0,0.02 -0.033,0.02 z"
               id="path1071" />
          </g>
          <g
             transform="translate(11.936146,3.7835522)"
             id="g1077">
            <path
               fill="#000000"
               stroke="none"
               paint-order="stroke fill markers"
               d="m 0.373,-0.378 q 0.005,-0.034 0.031,-0.042 0.005,-0.002 0.011,-0.002 0.026,0 0.029,0.027 0,0.006 -0.007,0.034 l -0.036,0.14 q -0.015,0.063 -0.022,0.09 -0.013,0.052 -0.013,0.074 0,0.046 0.03,0.046 0.038,0 0.064,-0.08 0.005,-0.017 0.012,-0.044 0.008,-0.017 0.014,-0.018 0.012,0 0.012,0.01 0,0.015 -0.018,0.07 Q 0.474,-0.056 0.468,-0.044 0.44,0.011 0.394,0.011 0.338,0.011 0.313,-0.037 0.306,-0.049 0.303,-0.064 0.24,0.011 0.173,0.011 0.098,0.011 0.062,-0.057 0.04,-0.097 0.04,-0.149 q 0,-0.108 0.075,-0.2 0.07,-0.084 0.152,-0.092 0.007,-0.001 0.014,-0.001 0.061,0 0.092,0.064 m -0.065,0.259 v 0 l 0.05,-0.196 q 0.003,-0.015 0.003,-0.017 0,-0.021 -0.018,-0.051 -0.022,-0.037 -0.061,-0.037 -0.052,0 -0.099,0.068 -0.009,0.013 -0.017,0.028 -0.029,0.058 -0.049,0.165 -0.006,0.034 -0.006,0.054 0,0.068 0.038,0.088 0.011,0.006 0.026,0.006 0.056,0 0.113,-0.071 0.014,-0.016 0.019,-0.033 v -0.001 q 0.001,-0.002 0.001,-0.003 z"
               id="path1075" />
          </g>
          <rect
             fill="#000000"
             stroke="none"
             x="11.607429"
             y="4.1900606"
             width="1.1864349"
             height="0.039999001"
             id="rect1079" />
          <g
             transform="translate(11.607429,5.1460112)"
             id="g1083">
            <path
               fill="#000000"
               stroke="none"
               paint-order="stroke fill markers"
               d="m 0.088,-0.059 v 0 L 0.146,-0.29 q 0.016,-0.064 0.016,-0.084 0,-0.046 -0.031,-0.046 -0.041,0 -0.067,0.095 -0.003,0.011 -0.006,0.024 -0.011,0.022 -0.017,0.023 -0.012,0 -0.012,-0.01 0,-0.016 0.018,-0.067 0.007,-0.018 0.013,-0.03 0.024,-0.049 0.06,-0.056 0.007,-0.001 0.014,-0.001 0.056,0 0.081,0.048 0.006,0.011 0.009,0.024 0.001,0.002 0.001,0.005 0.058,-0.072 0.128,-0.077 0.056,0 0.076,0.039 0.007,0.012 0.007,0.026 0,0.039 -0.033,0.054 -0.011,0.005 -0.022,0.005 -0.031,0 -0.037,-0.027 -10e-4,-0.004 -10e-4,-0.008 0,-0.033 0.034,-0.049 L 0.378,-0.403 Q 0.386,-0.406 0.395,-0.408 L 0.375,-0.417 Q 0.362,-0.419 0.353,-0.42 q -0.042,0 -0.08,0.033 -0.031,0.028 -0.053,0.074 -0.002,0.005 -0.003,0.008 l -0.032,0.13 -0.04,0.158 Q 0.136,0.009 0.108,0.011 0.083,0.006 0.079,-0.016 q 0,0.002 0.009,-0.043 z"
               id="path1081" />
          </g>
          <g
             transform="matrix(0.7,0,0,0.7,12.086429,4.8571222)"
             id="g1087">
            <path
               fill="#000000"
               stroke="none"
               paint-order="stroke fill markers"
               d="m 0.294,-0.64 v 0.561 q 0,0.03 0.012,0.038 0.017,0.01 0.081,0.01 H 0.419 V 0 Q 0.384,-0.003 0.257,-0.003 0.13,-0.003 0.095,0 v -0.031 h 0.032 q 0.077,0 0.088,-0.018 L 0.216,-0.05 Q 0.22,-0.058 0.22,-0.079 v -0.518 q -0.052,0.026 -0.131,0.026 v -0.031 q 0.12,0 0.182,-0.064 0.019,0 0.022,0.007 v 0 0.001 q 0.001,0.003 0.001,0.018 z"
               id="path1085" />
          </g>
          <g
             transform="matrix(0.7,0,0,0.7,12.436429,4.8571222)"
             id="g1091">
            <path
               fill="#000000"
               stroke="none"
               paint-order="stroke fill markers"
               d="m 0.449,-0.174 v 0 L 0.421,0 H 0.05 q 0,-0.025 0.006,-0.032 l 0.005,-0.005 0.192,-0.214 q 0.105,-0.118 0.105,-0.221 0,-0.089 -0.054,-0.135 L 0.303,-0.608 H 0.302 Q 0.27,-0.635 0.224,-0.635 q -0.072,0 -0.115,0.062 -0.012,0.018 -0.02,0.04 0.003,-0.001 0.013,-0.001 0.04,0 0.051,0.036 v 0.001 q 0.002,0.007 0.002,0.015 0,0.04 -0.038,0.051 -0.008,0.002 -0.014,0.002 -0.037,0 -0.049,-0.031 -0.004,-0.011 -0.004,-0.025 0,-0.077 0.059,-0.132 0.053,-0.049 0.128,-0.049 0.11,0 0.171,0.074 0.035,0.043 0.04,0.102 0.001,0.009 0.001,0.018 0,0.073 -0.055,0.139 -0.029,0.034 -0.09,0.09 l -0.061,0.054 -0.01,0.009 -0.106,0.103 h 0.18 q 0.088,0 0.095,-0.008 0.01,-0.014 0.022,-0.089 z"
               id="path1089" />
          </g>
          <g
             transform="translate(13.03393,4.4600602)"
             id="g1095">
            <path
               fill="#000000"
               stroke="none"
               paint-order="stroke fill markers"
               d="M 0.661,-0.23 H 0.116 q -0.032,0 -0.033,-0.02 0,-0.02 0.033,-0.02 h 0.545 q 0.032,0 0.033,0.02 0,0.02 -0.033,0.02 z"
               id="path1093" />
          </g>
          <g
             transform="translate(14.255713,3.7835522)"
             id="g1099">
            <path
               fill="#000000"
               stroke="none"
               paint-order="stroke fill markers"
               d="m 0.239,-0.683 -0.074,0.301 q 0.058,-0.06 0.117,-0.06 0.075,0 0.112,0.069 0.021,0.04 0.021,0.091 0,0.106 -0.074,0.198 Q 0.272,0.001 0.189,0.01 0.181,0.011 0.174,0.011 q -0.072,0 -0.107,-0.067 -0.02,-0.038 -0.02,-0.09 0,-0.034 0.016,-0.101 l 0.082,-0.326 q 0.014,-0.059 0.014,-0.062 0,-0.011 -0.014,-0.014 v 0 q -0.012,-0.003 -0.036,-0.003 -0.022,0 -0.024,-0.012 0,-0.017 0.019,-0.02 l 0.122,-0.01 q 0.013,0 0.013,0.011 m -0.094,0.378 -0.022,0.092 q -0.016,0.063 -0.016,0.101 0,0.086 0.052,0.099 0.007,0.002 0.015,0.002 0.053,0 0.099,-0.07 0.01,-0.015 0.019,-0.033 0.027,-0.057 0.045,-0.154 0.006,-0.035 0.006,-0.058 0,-0.08 -0.049,-0.092 L 0.293,-0.419 Q 0.287,-0.42 0.28,-0.42 q -0.06,0 -0.12,0.08 -0.008,0.01 -0.015,0.035 z"
               id="path1097" />
          </g>
          <rect
             fill="#000000"
             stroke="none"
             x="14.051995"
             y="4.1900606"
             width="0.83643478"
             height="0.039999001"
             id="rect1101" />
          <g
             transform="translate(14.051995,5.1460112)"
             id="g1105">
            <path
               fill="#000000"
               stroke="none"
               paint-order="stroke fill markers"
               d="m 0.088,-0.059 v 0 L 0.146,-0.29 q 0.016,-0.064 0.016,-0.084 0,-0.046 -0.031,-0.046 -0.041,0 -0.067,0.095 -0.003,0.011 -0.006,0.024 -0.011,0.022 -0.017,0.023 -0.012,0 -0.012,-0.01 0,-0.016 0.018,-0.067 0.007,-0.018 0.013,-0.03 0.024,-0.049 0.06,-0.056 0.007,-0.001 0.014,-0.001 0.056,0 0.081,0.048 0.006,0.011 0.009,0.024 0.001,0.002 0.001,0.005 0.058,-0.072 0.128,-0.077 0.056,0 0.076,0.039 0.007,0.012 0.007,0.026 0,0.039 -0.033,0.054 -0.011,0.005 -0.022,0.005 -0.031,0 -0.037,-0.027 -10e-4,-0.004 -10e-4,-0.008 0,-0.033 0.034,-0.049 L 0.378,-0.403 Q 0.386,-0.406 0.395,-0.408 L 0.375,-0.417 Q 0.362,-0.419 0.353,-0.42 q -0.042,0 -0.08,0.033 -0.031,0.028 -0.053,0.074 -0.002,0.005 -0.003,0.008 l -0.032,0.13 -0.04,0.158 Q 0.136,0.009 0.108,0.011 0.083,0.006 0.079,-0.016 q 0,0.002 0.009,-0.043 z"
               id="path1103" />
          </g>
          <g
             transform="matrix(0.7,0,0,0.7,14.530995,4.8571222)"
             id="g1109">
            <path
               fill="#000000"
               stroke="none"
               paint-order="stroke fill markers"
               d="m 0.132,-0.328 v 0 q 0.041,-0.099 0.125,-0.099 0.092,0 0.151,0.076 0.033,0.041 0.044,0.096 0.005,0.025 0.005,0.051 0,0.111 -0.077,0.178 -0.056,0.048 -0.129,0.048 -0.102,0 -0.159,-0.097 -0.05,-0.087 -0.05,-0.241 0,-0.173 0.098,-0.275 0.073,-0.075 0.165,-0.075 0.087,0 0.117,0.061 0.01,0.021 0.01,0.047 0,0.04 -0.037,0.047 Q 0.39,-0.51 0.386,-0.51 0.354,-0.51 0.343,-0.538 0.34,-0.546 0.34,-0.556 q 0,-0.045 0.055,-0.045 -0.026,-0.04 -0.088,-0.04 -0.07,0 -0.118,0.063 -0.057,0.075 -0.057,0.226 v 0.024 m 0.119,0.322 v 0 q 0.067,0 0.099,-0.065 0.017,-0.036 0.017,-0.134 0,-0.1 -0.018,-0.137 -0.031,-0.062 -0.093,-0.062 -0.079,0 -0.109,0.094 -0.013,0.039 -0.013,0.084 0,0.098 0.018,0.145 0.019,0.046 0.059,0.066 0.019,0.009 0.04,0.009 z"
               id="path1107" />
          </g>
        </g>
        <path
           style="fill:none;stroke:#000000;stroke-width:5.15906;stroke-linecap:round;stroke-linejoin:miter;stroke-miterlimit:4;stroke-dasharray:none;stroke-opacity:1"
           d="M 180,50 V 920"
           id="path1127" />
        <path
           style="fill:none;stroke:#000000;stroke-width:5.419;stroke-linecap:round;stroke-linejoin:miter;stroke-miterlimit:4;stroke-dasharray:none;stroke-opacity:1"
           d="M 1080,670 H 120"
           id="path1127-5" />
        <path
           fill="none"
           stroke="#cc0000"
           paint-order="fill stroke markers"
           d="m 272.30176,68.906091 0.13684,5.76662 0.13684,5.72952 0.13684,5.69265 0.13684,5.65601 0.13684,5.619579 0.13684,5.58339 0.13684,5.54742 0.13684,5.51167 0.13684,5.47614 0.13684,5.44082 0.13684,5.40573 0.13685,5.37085 0.13684,5.33619 0.13684,5.30173 0.13684,5.26749 0.13684,5.23347 0.13684,5.19964 0.13684,5.16603 0.13684,5.13263 0.13684,5.09942 0.13684,5.06643 0.13684,5.03364 0.27369,9.96969 0.27368,9.84091 0.27368,9.71372 0.27368,9.58807 0.27368,9.46396 0.27368,9.34138 0.27368,9.22028 0.27369,9.10068 0.27368,8.98253 0.27368,8.86582 0.27368,8.75055 0.27368,8.63667 0.27368,8.52419 0.27369,8.41309 0.27368,8.30333 0.27368,8.19492 0.27368,8.08783 0.27368,7.98205 0.27368,7.87755 0.27369,7.77433 0.27368,7.67238 0.27368,7.57165 0.27368,7.47216 0.27368,7.37388 0.27368,7.2768 0.27369,7.1809 0.27368,7.08617 0.27368,6.99259 0.27368,6.90014 0.27368,6.80884 0.27368,6.71863 0.27369,6.62953 0.27368,6.5415 0.27368,6.45455 0.27368,6.36866 0.27368,6.28381 0.27368,6.2 0.27369,6.1172 0.27368,6.0354 0.27368,5.95461 0.27368,5.87479 0.27368,5.79595 0.27368,5.71807 0.27369,5.64112 0.27368,5.56512 0.27368,5.49003 0.27368,5.41587 0.27368,5.34259 0.27368,5.27022 0.27369,5.19872 0.27368,5.12808 0.27368,5.05832 0.27368,4.98938 0.54736,9.77534 0.54737,9.50954 0.54736,9.25016 0.54736,8.99705 0.54737,8.75004 0.54736,8.509 0.54736,8.27377 0.54737,8.04422 0.54736,7.82021 0.54736,7.60162 0.54737,7.38829 0.54736,7.18013 0.54736,6.97698 0.54737,6.77875 0.54736,6.58531 0.54736,6.39654 0.54737,6.21233 0.54736,6.03258 0.54736,5.85718 0.54737,5.68602 0.54736,5.51901 0.54736,5.35603 0.54737,5.19701 0.54736,5.04184 1.09473,9.63312 1.09472,9.05645 1.09473,8.50745 1.09473,7.98482 1.09472,7.48734 1.09473,7.01383 1.09473,6.56317 1.09472,6.1343 1.09473,5.72618 1.09472,5.33789 1.09473,4.96846 2.18945,8.89984 2.18946,7.62757 2.18945,6.47735 2.18945,5.43819 4.37891,8.15368 2.18945,2.89094 2.18946,2.20424 2.18945,1.58671 1.09473,0.58167 1.09472,0.45044 2.18946,0.53475 1.09472,0.0973 1.09473,-0.008 2.18945,-0.30847 2.18946,-0.66333 2.18945,-0.97904 2.18945,-1.25915 4.37891,-3.23222 4.3789,-4.00149 4.37891,-4.58551 4.37891,-5.0172 4.3789,-5.32389 4.37891,-5.52836 4.37891,-5.64954 4.3789,-5.70319 4.37891,-5.70241 4.3789,-5.65809 4.37891,-5.57926 4.37891,-5.47343 4.3789,-5.34679 4.37891,-5.20448 4.37891,-5.05073 4.3789,-4.88901 4.37891,-4.72218 4.3789,-4.55255 4.37891,-4.382 4.37891,-4.21205 4.3789,-4.04394 4.37891,-3.87858 4.3789,-3.71674 4.37891,-3.55901 4.37891,-3.40578 4.3789,-3.25737 4.37891,-3.114 4.3789,-2.97578 4.37891,-2.84278 4.37891,-2.71499 4.3789,-2.5924 4.37891,-2.47492 4.37891,-2.36246 4.3789,-2.2549 4.37891,-2.15211 4.3789,-2.05393 4.37891,-1.96023 4.37891,-1.87083 4.3789,-1.78558 4.37891,-1.70431 4.37891,-1.62685 4.3789,-1.55307 4.37891,-1.48277 4.37891,-1.41582 4.3789,-1.35206 4.37891,-1.29136 4.3789,-1.23355 4.37891,-1.17852 4.37891,-1.12611 4.3789,-1.07622 4.37891,-1.02871 4.3789,-0.98348 4.37891,-0.9404 4.37891,-0.89938 4.3789,-0.86031 4.37891,-0.8231 4.37891,-0.78764 4.3789,-0.75386 4.37891,-0.72168 4.3789,-0.69101 4.37891,-0.66177 4.37891,-0.6339 4.3789,-0.60733 4.37891,-0.58198 4.37891,-0.55782 4.3789,-0.53477 4.37891,-0.51276 4.37891,-0.49178 4.3789,-0.47174 4.37891,-0.45261 4.37891,-0.43435 4.3789,-0.41692 4.37891,-0.40025 4.3789,-0.38434 4.37891,-0.36913 4.37891,-0.3546 4.3789,-0.3407 4.37891,-0.32743 4.37891,-0.31471 4.3789,-0.30257 4.37891,-0.29094 4.3789,-0.27982 4.37891,-0.26918 4.37891,-0.25898 4.3789,-0.24923 4.37891,-0.23989 4.37891,-0.23093 4.3789,-0.22236 4.37891,-0.21415 4.3789,-0.20627 4.37891,-0.19873 4.37891,-0.19149 4.3789,-0.18455 4.37891,-0.1779 4.37891,-0.17151 4.3789,-0.16538 4.37891,-0.15951 4.3789,-0.15386 4.37891,-0.14845 4.37891,-0.14324 4.3789,-0.13824 4.37891,-0.13345 4.37891,-0.12884 4.3789,-0.1244 4.37891,-0.12015 4.3789,-0.11605 4.37891,-0.11212 4.37891,-0.10833 4.3789,-0.1047 4.37891,-0.10119 4.37891,-0.0978 4.3789,-0.0946 4.37891,-0.0915 4.3789,-0.0885 4.37891,-0.0856 4.37891,-0.0828 4.3789,-0.0801 4.37891,-0.0775 4.37891,-0.075 4.3789,-0.0726 4.37891,-0.0703 4.3789,-0.0681 4.37891,-0.0659 4.37891,-0.0639 4.3789,-0.0619 4.37891,-0.0599 4.37891,-0.0581 4.3789,-0.0563 4.37891,-0.0546 4.3789,-0.0529 4.37891,-0.0513 4.37891,-0.0497 4.3789,-0.0482 4.37891,-0.0468 4.37891,-0.0454 4.3789,-0.044 4.37891,-0.0427 4.3789,-0.0414 4.37891,-0.0402 4.37891,-0.039 4.3789,-0.0379 4.37891,-0.0368 4.37891,-0.0357 4.3789,-0.0347 4.37891,-0.0337 4.3789,-0.0327 4.37891,-0.0318 4.37891,-0.0309 4.37893,-0.03 4.3789,-0.0292 4.3789,-0.0284 4.3789,-0.0276 L 1020,670"
           stroke-opacity="1"
           stroke-linecap="round"
           stroke-linejoin="round"
           stroke-miterlimit="10"
           stroke-width="6.5"
           id="path1053" />
        <path
           style="fill:none;stroke:#000000;stroke-width:7.42677;stroke-linecap:round;stroke-linejoin:round;stroke-miterlimit:4;stroke-dasharray:none;stroke-opacity:1"
           d="m 175,50 h 10 l -5,-15 -5,15"
           id="path1450"
           sodipodi:nodetypes="cccc" />
        <path
           style="fill:none;stroke:#000000;stroke-width:7.42677;stroke-linecap:round;stroke-linejoin:round;stroke-miterlimit:4;stroke-dasharray:none;stroke-opacity:1"
           d="m 1080,665 v 10 l 15,-5 -15,-5"
           id="path1450-4"
           sodipodi:nodetypes="cccc" />
        <path
           style="fill:none;stroke:#000000;stroke-width:5.419;stroke-linecap:round;stroke-linejoin:miter;stroke-miterlimit:4;stroke-dasharray:5.419, 21.676;stroke-dashoffset:0;stroke-opacity:1"
           d="M 105,670 H -5"
           id="path1533" />
      </g>
      <text
         xml:space="preserve"
         style="font-style:normal;font-weight:normal;font-size:53.3333px;line-height:1.25;font-family:sans-serif;fill:#000000;fill-opacity:1;stroke:none"
         x="69.383873"
         y="52.422031"
         id="text1505"><tspan
           sodipodi:role="line"
           id="tspan1503"
           x="69.383873"
           y="52.422031"
           style="font-size:53.3333px">V(r)</tspan></text>
      <text
         xml:space="preserve"
         style="font-style:normal;font-weight:normal;font-size:53.3333px;line-height:1.25;font-family:sans-serif;fill:#000000;fill-opacity:1;stroke:none"
         x="1067.7321"
         y="643.14404"
         id="text1509"><tspan
           sodipodi:role="line"
           id="tspan1507"
           x="1067.7321"
           y="643.14404"
           style="font-size:53.3333px">r</tspan></text>
      <text
         xml:space="preserve"
         style="font-style:normal;font-weight:normal;font-size:53.3333px;line-height:1.25;font-family:sans-serif;fill:#000000;fill-opacity:1;stroke:none"
         x="-605.7489"
         y="106.43049"
         id="text1513"
         transform="rotate(-90)"><tspan
           sodipodi:role="line"
           id="tspan1511"
           x="-605.7489"
           y="106.43049"
           style="font-size:53.3333px">Repulsiv</tspan></text>
      <text
         xml:space="preserve"
         style="font-style:normal;font-weight:normal;font-size:53.3333px;line-height:1.25;font-family:sans-serif;fill:#000000;fill-opacity:1;stroke:none"
         x="-907.35266"
         y="110.49299"
         id="text1513-8"
         transform="rotate(-90)"><tspan
           sodipodi:role="line"
           id="tspan1511-4"
           x="-907.35266"
           y="110.49299"
           style="font-style:normal;font-variant:normal;font-weight:normal;font-stretch:normal;font-size:53.3333px;font-family:Arial;-inkscape-font-specification:Arial">Attraktiv</tspan></text>
    </g>
  </g>
</svg>
