transmitted power / uW;input power / mW;;;
17,02;33,7;Mirror 1 (700mm);;
16,8;32,4;;;
17,6;33,6;;;
16,6;33,9;;;
17,4;34,2;;;
10,02;35,7;Mirror 2 (1000mm);;
9,41;35,2;;;
9,6;37,3;;;
10,53;35,3;;;
12,66;35,8;;;