\relax 
\providecommand\zref@newlabel[2]{}
\providecommand\hyper@newdestlabel[2]{}
\providecommand*\new@tpo@label[2]{}
\providecommand\babel@aux[2]{}
\@nameuse{bbl@beforestart}
\catcode `"\active 
\providecommand\HyperFirstAtBeginDocument{\AtBeginDocument}
\HyperFirstAtBeginDocument{\ifx\hyper@anchor\@undefined
\global\let\oldcontentsline\contentsline
\gdef\contentsline#1#2#3#4{\oldcontentsline{#1}{#2}{#3}}
\global\let\oldnewlabel\newlabel
\gdef\newlabel#1#2{\newlabelxx{#1}#2}
\gdef\newlabelxx#1#2#3#4#5#6{\oldnewlabel{#1}{{#2}{#3}}}
\AtEndDocument{\ifx\hyper@anchor\@undefined
\let\contentsline\oldcontentsline
\let\newlabel\oldnewlabel
\fi}
\fi}
\global\let\hyper@last\relax 
\gdef\HyperFirstAtBeginDocument#1{#1}
\providecommand\HyField@AuxAddToFields[1]{}
\providecommand\HyField@AuxAddToCoFields[2]{}
\providecommand\BKM@entry[2]{}
\babel@aux{ngerman}{}
\BKM@entry{id=1,dest={73656374696F6E2E31},srcline={87}}{5C3337365C3337375C303030505C303030685C303030795C303030735C303030695C3030306B5C303030615C3030306C5C303030695C303030735C303030635C303030685C303030655C3030305C3034305C303030475C303030725C303030755C3030306E5C303030645C3030306C5C303030615C303030675C303030655C3030306E}
\@writefile{toc}{\contentsline {section}{\numberline {1}Physikalische Grundlagen}{2}{section.1}\protected@file@percent }
\newlabel{eq:kor1}{{1.1}{2}{Physikalische Grundlagen}{equation.1.1}{}}
\newlabel{eq:kor2}{{1.2}{2}{Physikalische Grundlagen}{equation.1.2}{}}
\newlabel{eq:lambda_fit}{{1.3}{2}{Physikalische Grundlagen}{equation.1.3}{}}
\newlabel{eq:lambda_leifi}{{1.4}{2}{Physikalische Grundlagen}{equation.1.4}{}}
\BKM@entry{id=2,dest={73656374696F6E2E32},srcline={139}}{5C3337365C3337375C303030455C303030785C303030705C303030655C303030725C303030695C3030306D5C303030655C3030306E5C303030745C303030655C3030306C5C3030306C5C303030655C303030725C3030305C3034305C303030415C303030755C303030665C303030625C303030615C30303075}
\@writefile{lof}{\contentsline {figure}{\numberline {1.1}{\ignorespaces Schematischer Aufbau der Messapparatur [\ref  {bib:aufbau}]\relax }}{3}{figure.1.1}\protected@file@percent }
\newlabel{fig:aufbau}{{1.1}{3}{Schematischer Aufbau der Messapparatur \bib {aufbau}\relax }{figure.1.1}{}}
\newlabel{eq:lambda}{{1.6}{3}{Physikalische Grundlagen}{equation.1.6}{}}
\@writefile{toc}{\contentsline {section}{\numberline {2}Experimenteller Aufbau}{3}{section.2}\protected@file@percent }
\@writefile{lof}{\contentsline {figure}{\numberline {2.1}{\ignorespaces Schematischer Aufbau der Messapparatur [\ref  {bib:aufbau}]\relax }}{3}{figure.2.1}\protected@file@percent }
\newlabel{fig:aufbau}{{2.1}{3}{Schematischer Aufbau der Messapparatur \bib {aufbau}\relax }{figure.2.1}{}}
\BKM@entry{id=3,dest={73656374696F6E2E33},srcline={177}}{5C3337365C3337375C303030415C303030755C303030665C303030675C303030615C303030625C303030655C3030305C3034305C30303031}
\BKM@entry{id=4,dest={73756273656374696F6E2E332E31},srcline={178}}{5C3337365C3337375C303030415C303030755C303030665C303030675C303030615C303030625C303030655C3030306E5C303030735C303030745C303030655C3030306C5C3030306C5C303030755C3030306E5C30303067}
\BKM@entry{id=5,dest={73756273656374696F6E2E332E32},srcline={181}}{5C3337365C3337375C303030445C303030755C303030725C303030635C303030685C303030665C3030305C3337345C303030685C303030725C303030755C3030306E5C30303067}
\@writefile{lof}{\contentsline {figure}{\numberline {2.2}{\ignorespaces Schematischer Aufbau eines PMT [\ref  {bib:aufbau_pmt}]\relax }}{4}{figure.2.2}\protected@file@percent }
\newlabel{fig:aufbau_pmt}{{2.2}{4}{Schematischer Aufbau eines PMT \bib {aufbau_pmt}\relax }{figure.2.2}{}}
\@writefile{toc}{\contentsline {section}{\numberline {3}Aufgabe 1}{4}{section.3}\protected@file@percent }
\@writefile{toc}{\contentsline {subsection}{\numberline {3.1}Aufgabenstellung}{4}{subsection.3.1}\protected@file@percent }
\@writefile{toc}{\contentsline {subsection}{\numberline {3.2}Durchführung}{4}{subsection.3.2}\protected@file@percent }
\BKM@entry{id=6,dest={73756273656374696F6E2E332E33},srcline={203}}{5C3337365C3337375C303030525C303030655C303030735C303030755C3030306C5C303030745C303030615C303030745C30303065}
\@writefile{toc}{\contentsline {subsection}{\numberline {3.3}Resultate}{5}{subsection.3.3}\protected@file@percent }
\@writefile{lot}{\contentsline {table}{\numberline {3.1}{\ignorespaces Quotient bei Verschiedenen Diskriminatoreinstellungen (Dis-Stufe)\relax }}{5}{table.caption.5}\protected@file@percent }
\providecommand*\caption@xref[2]{\@setref\relax\@undefined{#1}}
\newlabel{tab:diskrim}{{3.1}{5}{Quotient bei Verschiedenen Diskriminatoreinstellungen (Dis-Stufe)\relax }{table.caption.5}{}}
\@writefile{lot}{\contentsline {table}{\numberline {3.2}{\ignorespaces Dunkelstromzählrate für $T = 10s$\relax }}{6}{table.caption.6}\protected@file@percent }
\newlabel{tab:dunkel}{{3.2}{6}{Dunkelstromzählrate für $T = 10s$\relax }{table.caption.6}{}}
\@writefile{lof}{\contentsline {figure}{\numberline {3.1}{\ignorespaces Pulsdauer des PMT\relax }}{6}{figure.3.1}\protected@file@percent }
\newlabel{fig:pulsPMT}{{3.1}{6}{Pulsdauer des PMT\relax }{figure.3.1}{}}
\@writefile{lot}{\contentsline {table}{\numberline {3.3}{\ignorespaces Photonenzählrate für $T = \SI {10}{\second }$ bei $x_0= \SI {248}{\micro \meter }$ \relax }}{6}{table.caption.7}\protected@file@percent }
\newlabel{tab:puls}{{3.3}{6}{Photonenzählrate für $T = \SI {10}{\second }$ bei $x_0= \SI {248}{\micro \meter }$ \relax }{table.caption.7}{}}
\newlabel{eq:beta}{{3.4}{7}{Resultate}{equation.3.4}{}}
\@writefile{lof}{\contentsline {figure}{\numberline {3.2}{\ignorespaces Verlauf der Zählrate $Z_{\text  {kor1}}(x)$ über der Position des Mikrometertriebs $x$\relax }}{7}{figure.3.2}\protected@file@percent }
\newlabel{fig:zkor1}{{3.2}{7}{Verlauf der Zählrate $Z\sst {kor1}(x)$ über der Position des Mikrometertriebs $x$\relax }{figure.3.2}{}}
\BKM@entry{id=7,dest={73756273656374696F6E2E332E34},srcline={332}}{5C3337365C3337375C303030445C303030695C303030735C3030306B5C303030755C303030735C303030735C303030695C3030306F5C3030306E}
\@writefile{lof}{\contentsline {figure}{\numberline {3.3}{\ignorespaces Verlauf der Zählrate $Z_{\text  {kor2}}(x)$ über der Position des Mikrometertriebs $x$\relax }}{8}{figure.3.3}\protected@file@percent }
\newlabel{fig:zkor2}{{3.3}{8}{Verlauf der Zählrate $Z\sst {kor2}(x)$ über der Position des Mikrometertriebs $x$\relax }{figure.3.3}{}}
\@writefile{lot}{\contentsline {table}{\numberline {3.4}{\ignorespaces Normierte Zählratendifferenz $\Delta Z$ für verschiedene Maxima\relax }}{8}{table.caption.8}\protected@file@percent }
\newlabel{tab:delta_z}{{3.4}{8}{Normierte Zählratendifferenz $\Delta Z$ für verschiedene Maxima\relax }{table.caption.8}{}}
\@writefile{toc}{\contentsline {subsection}{\numberline {3.4}Diskussion}{8}{subsection.3.4}\protected@file@percent }
\BKM@entry{id=8,dest={73656374696F6E2E34},srcline={345}}{5C3337365C3337375C303030415C303030755C303030665C303030675C303030615C303030625C303030655C3030305C3034305C30303032}
\BKM@entry{id=9,dest={73756273656374696F6E2E342E31},srcline={346}}{5C3337365C3337375C303030415C303030755C303030665C303030675C303030615C303030625C303030655C3030306E5C303030735C303030745C303030655C3030306C5C3030306C5C303030755C3030306E5C30303067}
\BKM@entry{id=10,dest={73756273656374696F6E2E342E32},srcline={349}}{5C3337365C3337375C303030445C303030755C303030725C303030635C303030685C303030665C3030305C3337345C303030685C303030725C303030755C3030306E5C30303067}
\BKM@entry{id=11,dest={73756273656374696F6E2E342E33},srcline={354}}{5C3337365C3337375C303030525C303030655C303030735C303030755C3030306C5C303030745C303030615C303030745C30303065}
\@writefile{toc}{\contentsline {section}{\numberline {4}Aufgabe 2}{9}{section.4}\protected@file@percent }
\@writefile{toc}{\contentsline {subsection}{\numberline {4.1}Aufgabenstellung}{9}{subsection.4.1}\protected@file@percent }
\@writefile{toc}{\contentsline {subsection}{\numberline {4.2}Durchführung}{9}{subsection.4.2}\protected@file@percent }
\@writefile{toc}{\contentsline {subsection}{\numberline {4.3}Resultate}{9}{subsection.4.3}\protected@file@percent }
\BKM@entry{id=12,dest={73756273656374696F6E2E342E34},srcline={375}}{5C3337365C3337375C303030445C303030695C303030735C3030306B5C303030755C303030735C303030735C303030695C3030306F5C3030306E}
\@writefile{lof}{\contentsline {figure}{\numberline {4.1}{\ignorespaces Fit für die Bestimmung der Wellenlänge $\lambda $\relax }}{10}{figure.4.1}\protected@file@percent }
\newlabel{fig:lambda_fit}{{4.1}{10}{Fit für die Bestimmung der Wellenlänge $\lambda $\relax }{figure.4.1}{}}
\@writefile{toc}{\contentsline {subsection}{\numberline {4.4}Diskussion}{10}{subsection.4.4}\protected@file@percent }
\bibcite{}{1}
\bibcite{}{2}
\newlabel{bib:aufbau}{{1}{11}{\refname }{section*.9}{}}
\newlabel{bib:aufbau_pmt}{{2}{11}{\refname }{section*.9}{}}
\BKM@entry{id=13,dest={617070656E6469782E41},srcline={405}}{5C3337365C3337375C303030415C303030755C303030735C303030675C3030306C5C303030655C303030695C303030635C303030685C303030725C303030655C303030635C303030685C3030306E5C303030755C3030306E5C303030675C3030305C3034305C303030665C3030305C3337345C303030725C3030305C3034305C303030645C303030695C303030655C3030305C3034305C3030304B5C303030615C3030306C5C303030695C303030625C303030725C303030695C303030655C303030725C303030755C3030306E5C303030675C3030305C3034305C303030645C303030655C303030735C3030305C3034305C303030505C3030304D5C30303054}
\@writefile{toc}{\contentsline {section}{\numberline {A}Ausgleichrechnung für die Kalibrierung des PMT}{12}{appendix.A}\protected@file@percent }
\@writefile{lof}{\contentsline {figure}{\numberline {A.1}{\ignorespaces Lineare Regression für die Kalibrierung des PMT nach Gl.(\ref  {eq:kor2})\relax }}{12}{figure.caption.11}\protected@file@percent }
\newlabel{fig:agr_beta}{{A.1}{12}{Lineare Regression für die Kalibrierung des PMT nach \gl {kor2}\relax }{figure.caption.11}{}}
\global\csname @altsecnumformattrue\endcsname
\global\@namedef{scr@dte@section@lastmaxnumwidth}{13.9998pt}
\global\@namedef{scr@dte@subsection@lastmaxnumwidth}{20.6796pt}
\@writefile{toc}{\providecommand\tocbasic@end@toc@file{}\tocbasic@end@toc@file}
\gdef \@abspage@last{12}
