MesswerteWave		
	0.4	1.00522
	0.400914634146341	0.9998316666666666
	0.401829268292683	1.003695
	0.402743902439024	0.9873266666666657
	0.403658536585366	1.00522
	0.404573170731707	0.990579999999999
	0.405487804878049	1.002475
	0.40640243902439	0.9927149999999992
	0.407317073170732	1.000645
	0.408231707317073	0.9878349999999992
	0.409146341463415	1.004813333333334
	0.410060975609756	0.9933249999999992
	0.410975609756098	1.01376
	0.411890243902439	0.9970866666666662
	0.412804878048781	1.003491666666667
	0.413719512195122	0.9867166666666657
	0.414634146341463	1.001458333333333
	0.415548780487805	0.988749999999999
	0.416463414634146	1.005728333333333
	0.417378048780488	0.9873266666666657
	0.418292682926829	1.005118333333333
	0.419207317073171	0.9885466666666657
	0.420121951219512	1.003491666666666
	0.421036585365854	1.002271666666666
	0.421951219512195	1.015081666666666
	0.422865853658537	1.095398333333334
	0.423780487804878	1.153348333333333
	0.42469512195122	1.140335
	0.425609756097561	1.00156
	0.426524390243902	1.009998333333334
	0.427439024390244	0.989359999999999
	0.428353658536585	1.005525
	0.429268292682927	0.9912916666666666
	0.430182926829268	1.005626666666667
	0.43109756097561	0.9931216666666666
	0.432012195121951	1.001356666666667
	0.432926829268293	0.9934266666666662
	0.433841463414634	0.9942399999999996
	0.434756097560976	0.9978999999999996
	0.435670731707317	1.003288333333333
	0.436585365853659	0.9929183333333326
	0.4375	1.001051666666667
	0.438414634146341	0.9927149999999999
	0.439329268292683	1.003796666666667
	0.440243902439024	0.9903766666666662
	0.441158536585366	1.007253333333334
	0.442073170731707	0.9876316666666659
	0.442987804878049	1.00339
	0.44390243902439	0.991189999999999
	0.444817073170732	1.004203333333334
	0.445731707317073	0.9919016666666659
	0.446646341463415	0.9974933333333329
	0.447560975609756	1.001661666666666
	0.448475609756098	0.9953583333333332
	0.449390243902439	0.9998316666666666
	0.45030487804878	0.9892583333333326
	0.451219512195122	0.9973916666666666
	0.452134146341463	1.005626666666667
	0.453048780487805	0.9964766666666668
	0.453963414634146	0.9981033333333329
	0.454878048780488	0.9952566666666662
	0.455792682926829	0.9900716666666659
	0.456707317073171	1.003491666666666
	0.457621951219512	0.9864116666666659
	0.458536585365854	1.002983333333333
	0.459451219512195	0.9909866666666657
	0.460365853658537	1.004915
	0.461280487804878	0.9890549999999987
	0.46219512195122	0.9989166666666662
	0.463109756097561	0.9932233333333329
	0.464024390243902	0.9986116666666666
	0.464939024390244	0.9940366666666657
	0.465853658536585	0.9911899999999996
	0.466768292682927	0.9976966666666668
	0.467682926829268	0.9860049999999992
	0.46859756097561	1.002576666666667
	0.469512195121951	0.9882416666666659
	0.470426829268293	1.00339
	0.471341463414634	0.9922066666666662
	0.472256097560976	1.005931666666667
	0.473170731707317	0.9913933333333329
	0.474085365853659	1.002068333333333
	0.475	0.9953583333333332
	0.475914634146341	0.9912916666666659
	0.476829268292683	0.9970866666666668
	0.477743902439024	0.9891566666666662
	0.478658536585366	1.004203333333334
	0.479573170731707	0.987428333333332
	0.480487804878049	1.004915
	0.48140243902439	0.9884449999999992
	0.482317073170732	1.005423333333334
	0.483231707317073	0.9899699999999996
	0.484146341463415	1.004915
	0.485060975609756	0.9913933333333329
	0.485975609756098	1.004406666666667
	0.486890243902439	0.9980016666666666
	0.48780487804878	0.9964766666666662
	0.488719512195122	1.000746666666666
	0.489634146341463	0.9929183333333326
	0.490548780487805	1.002068333333333
	0.491463414634146	0.9943416666666666
	0.492378048780488	1.001356666666667
	0.493292682926829	0.9888516666666654
	0.494207317073171	1.000238333333334
	0.495121951219512	0.989359999999999
	0.496036585365854	1.001255
	0.496951219512195	0.9910883333333332
	0.497865853658537	1.009591666666666
	0.498780487804878	0.9938333333333329
	0.49969512195122	1.000645
	0.500609756097561	0.9931216666666666
	0.501524390243902	1.000136666666667
	0.502439024390244	0.9999333333333335
	0.503353658536585	1.000543333333333
	0.504268292682927	0.9866149999999992
	0.505182926829268	1.007151666666666
	0.50609756097561	0.9928166666666662
	0.507012195121951	1.005423333333334
	0.507926829268293	0.9897666666666662
	0.508841463414634	1.006745
	0.509756097560976	0.9900716666666659
	0.510670731707317	1.004203333333333
	0.511585365853659	0.9890549999999992
	0.5125	1.00461
	0.513414634146341	0.9893599999999996
	0.514329268292683	0.9994249999999999
	0.515243902439024	1.000035
	0.516158536585366	1.002373333333333
	0.517073170731707	1.004508333333333
	0.517987804878049	0.9962733333333329
	0.51890243902439	1.004101666666666
	0.519817073170732	0.9927149999999992
	0.520731707317073	1.009388333333333
	0.521646341463415	1.002271666666666
	0.522560975609756	1.063068333333334
	0.523475609756098	1.154975
	0.524390243902439	1.158025
	0.525304878048781	1.028298333333333
	0.526219512195122	1.001051666666666
	0.527134146341463	1.005931666666666
	0.528048780487805	0.9934266666666662
	0.528963414634146	1.00461
	0.529878048780488	0.9894616666666659
	0.530792682926829	0.9991200000000001
	0.531707317073171	0.9959683333333332
	0.532621951219512	1.003796666666667
	0.533536585365854	0.9927149999999992
	0.534451219512195	1.003085
	0.535365853658537	0.9973916666666666
	0.536280487804878	0.9976966666666662
	0.53719512195122	0.9987133333333329
	0.538109756097561	0.9877333333333324
	0.539024390243902	1.000441666666666
	0.539939024390244	0.9927149999999992
	0.540853658536585	1.005016666666667
	0.541768292682927	0.9908849999999992
	0.542682926829268	0.9972899999999996
	0.54359756097561	0.9961716666666659
	0.544512195121951	0.9962733333333335
	0.545426829268293	0.9969849999999999
	0.546341463414634	0.994239999999999
	0.547256097560976	1.000746666666666
	0.548170731707317	0.9907833333333329
	0.549085365853659	1.001763333333334
	0.55	0.9921049999999999
	0.550914634146341	1.004305
	0.551829268292683	0.9874283333333326
	0.552743902439024	1.00522
	0.553658536585366	0.9899699999999996
	0.554573170731707	1.006338333333333
	0.555487804878049	0.9915966666666657
	0.55640243902439	1.00522
	0.557317073170732	0.9965783333333332
	0.558231707317073	1.003593333333334
	0.559146341463415	0.9967816666666659
	0.560060975609756	1.01376
	0.560975609756098	1.0223
	0.561890243902439	1.105361666666667
	0.56280487804878	1.161075
	0.563719512195122	1.130168333333333
	0.564634146341463	1.037753333333333
	0.565548780487805	1.008778333333333
	0.566463414634146	1.009185
	0.567378048780488	0.9963749999999992
	0.568292682926829	1.00461
	0.569207317073171	0.9891566666666657
	0.570121951219512	1.004508333333334
	0.571036585365854	0.9907833333333324
	0.571951219512195	1.004508333333334
	0.572865853658537	0.9919016666666653
	0.573780487804878	1.002881666666666
	0.57469512195122	0.9965783333333332
	0.575609756097561	1.00095
	0.576524390243902	0.9973916666666666
	0.577439024390244	1.007558333333333
	0.578353658536585	0.9952566666666662
	0.579268292682927	1.002881666666666
	0.580182926829268	0.9885466666666662
	0.58109756097561	1.00766
	0.582012195121951	1.002068333333333
	0.582926829268293	0.9964766666666662
	0.583841463414634	1.000848333333333
	0.584756097560976	0.9947483333333326
	0.585670731707317	1.002983333333334
	0.586585365853659	0.9873266666666662
	0.5875	1.004203333333334
	0.588414634146341	1.005321666666666
	0.589329268292683	1.0101
	0.590243902439024	1.026773333333334
	0.591158536585366	1.01925
	0.592073170731707	1.008676666666666
	0.592987804878049	0.9966799999999996
	0.59390243902439	1.003288333333333
	0.594817073170732	0.9885466666666662
	0.595731707317073	1.002373333333334
	0.596646341463415	0.9914949999999992
	0.597560975609756	1.00339
	0.598475609756098	1.004813333333334
	0.599390243902439	0.9980016666666659
	0.600304878048781	0.9948499999999996
	0.601219512195122	1.001255
	0.602134146341463	0.9898683333333326
	0.603048780487805	1.002678333333333
	0.603963414634146	0.9890549999999992
	0.604878048780488	1.005626666666666
	0.605792682926829	0.9930199999999996
	0.606707317073171	1.005931666666666
	0.607621951219512	0.9923083333333326
	0.608536585365854	1.005626666666666
	0.609451219512195	0.9899699999999996
	0.610365853658537	1.000644999999999
	0.611280487804878	0.9962733333333335
	0.61219512195122	0.9906816666666659
	0.613109756097561	0.9968833333333329
	0.614024390243902	0.9997299999999996
	0.614939024390244	1.002881666666666
	0.615853658536585	0.9920033333333329
	0.616768292682927	1.00644
	0.617682926829268	0.9914949999999992
	0.61859756097561	1.005931666666666
	0.619512195121951	0.992409999999999
	0.620426829268293	1.003085
	0.621341463414634	0.9952566666666668
	0.622256097560976	0.9982049999999999
	0.623170731707317	0.9974933333333335
	0.624085365853658	1.000238333333333
	0.625	0.9960700000000001
	0.625914634146342	1.004406666666667
	0.626829268292683	1.004203333333334
	0.627743902439024	0.9951549999999992
	0.628658536585366	1.003491666666666
	0.629573170731707	0.9889533333333329
	0.630487804878049	1.003593333333333
	0.63140243902439	0.9894616666666659
	0.632317073170732	1.007863333333333
	0.633231707317073	0.9931216666666659
	0.634146341463415	1.004508333333333
	0.635060975609756	0.9928166666666662
	0.635975609756098	1.006541666666666
	0.636890243902439	0.9994249999999999
	0.63780487804878	1.001966666666666
	0.638719512195122	0.9962733333333335
	0.639634146341463	0.9992216666666666
	0.640548780487805	0.9989166666666662
	0.641463414634146	0.9912916666666659
	0.642378048780488	1.006236666666667
	0.643292682926829	0.9903766666666662
	0.644207317073171	1.003695
	0.645121951219512	0.9931216666666659
	0.646036585365854	1.006236666666667
	0.646951219512195	0.9936299999999996
	0.647865853658537	1.005931666666666
	0.648780487804878	0.9915966666666657
	0.649695121951219	1.013353333333334
	0.650609756097561	1.010506666666666
	0.651524390243903	1.015183333333334
	0.652439024390244	0.9959683333333332
	0.653353658536585	1.006745
	0.654268292682927	0.9964766666666668
	0.655182926829268	0.9963749999999999
	0.65609756097561	0.9901733333333324
	0.657012195121951	1.002068333333334
	0.657926829268293	1.002271666666666
	0.658841463414634	1.008371666666666
	0.659756097560976	0.9915966666666662
	0.660670731707317	1.002475
	0.661585365853659	0.9962733333333329
	0.6625	1.007355
	0.663414634146341	0.9901733333333324
	0.664329268292683	1.006338333333333
	0.665243902439024	0.9933249999999992
	0.666158536585366	1.002881666666666
	0.667073170731707	0.9974933333333335
	0.667987804878049	0.9949516666666666
	0.66890243902439	1.000746666666667
	0.669817073170732	1.00156
	0.670731707317073	0.9930199999999996
	0.671646341463415	1.006948333333333
	0.672560975609756	0.9936300000000001
	0.673475609756098	1.00095
	0.674390243902439	0.9910883333333326
	0.67530487804878	1.003695
	0.676219512195122	0.9919016666666666
	0.677134146341463	0.9964766666666668
	0.678048780487805	1.00522
	0.678963414634146	0.9961716666666666
	0.679878048780488	1.004508333333333
	0.680792682926829	0.9929183333333326
	0.681707317073171	1.002271666666666
	0.682621951219512	0.9878349999999992
	0.683536585365854	1.003491666666666
	0.684451219512195	0.9864116666666659
	0.685365853658537	0.9904783333333326
	0.686280487804878	0.9974933333333329
	0.68719512195122	0.9983066666666662
	0.688109756097561	1.007355
	0.689024390243902	0.9969849999999999
	0.689939024390244	0.9941383333333332
	0.690853658536585	0.9997300000000001
	0.691768292682927	0.9952566666666662
	0.692682926829268	1.00156
	0.69359756097561	0.9878349999999987
	0.694512195121951	0.9985100000000001
	0.695426829268293	0.9915966666666657
	0.696341463414634	0.9981033333333335
	0.697256097560976	1.00827
	0.698170731707317	0.9890549999999992
	0.699085365853659	1.006033333333334
	0.7	0.9990183333333332
	0.700914634146341	0.9896649999999992
	0.701829268292683	0.9963749999999992
	0.702743902439024	1.00095
	0.703658536585366	1.004508333333333
	0.704573170731707	0.9885466666666657
	0.705487804878049	1.004711666666666
	0.70640243902439	0.9983066666666668
	0.707317073170732	1.004406666666667
	0.708231707317073	1.001153333333333
	0.709146341463415	0.9905799999999996
	0.710060975609756	1.00034
	0.710975609756098	0.9922066666666668
	0.711890243902439	1.003288333333334
	0.712804878048781	0.990579999999999
	0.713719512195122	1.008575
	0.714634146341463	0.9907833333333329
	0.715548780487805	1.013556666666666
	0.716463414634146	0.9958666666666662
	0.717378048780488	1.008778333333334
	0.718292682926829	1.002881666666666
	0.719207317073171	1.059713333333333
	0.720121951219512	1.107903333333333
	0.721036585365854	1.170733333333333
	0.721951219512195	1.146841666666666
	0.722865853658537	1.089095
	0.723780487804878	1.017725
	0.724695121951219	1.017013333333334
	0.725609756097561	1.00217
	0.726524390243902	1.009083333333334
	0.727439024390244	0.9890549999999992
	0.728353658536585	1.006236666666667
	0.729268292682927	1.009185
	0.730182926829268	0.9953583333333332
	0.73109756097561	1.010201666666666
	0.732012195121951	0.9879366666666657
	0.732926829268293	0.9999333333333335
	0.733841463414634	1.008168333333333
	0.734756097560976	0.9923083333333332
	0.735670731707317	1.01559
	0.736585365853659	0.9987133333333329
	0.7375	1.012235
	0.738414634146341	1.000136666666667
	0.739329268292683	1.009693333333333
	0.740243902439024	0.9994249999999999
	0.741158536585366	1.026671666666667
	0.742073170731707	1.030026666666666
	0.742987804878049	1.066321666666666
	0.74390243902439	1.03145
	0.744817073170732	1.020978333333333
	0.745731707317073	0.9987133333333329
	0.746646341463415	1.010201666666666
	0.747560975609756	0.9948499999999996
	0.748475609756098	1.002678333333333
	0.749390243902439	0.9933249999999992
	0.75030487804878	1.007558333333333
	0.751219512195122	0.9956633333333329
	0.752134146341463	0.9923083333333326
	0.753048780487805	1.00583
	0.753963414634146	0.9972899999999996
	0.754878048780488	1.000848333333333
	0.755792682926829	1.001356666666667
	0.756707317073171	0.9885466666666662
	0.757621951219512	1.004
	0.758536585365854	0.9900716666666659
	0.759451219512195	0.9999333333333335
	0.760365853658537	0.9879366666666657
	0.761280487804878	0.9972900000000001
	0.76219512195122	0.9898683333333326
	0.763109756097561	1.001153333333334
	0.764024390243902	1.006135
	0.764939024390244	0.9953583333333332
	0.765853658536585	0.9985099999999996
	0.766768292682927	0.9995266666666668
	0.767682926829268	0.9993233333333329
	0.76859756097561	0.9990183333333338
	0.769512195121951	1.002576666666667
	0.770426829268293	0.9852933333333324
	0.771341463414634	1.004508333333333
	0.772256097560976	0.9916983333333332
	0.773170731707317	1.000848333333333
	0.774085365853659	0.9891566666666657
	0.775	1.00522
	0.775914634146341	0.9904783333333326
	0.776829268292683	1.007151666666666
	0.777743902439024	0.9940366666666662
	0.778658536585366	1.006033333333334
	0.779573170731707	0.9931216666666659
	0.780487804878049	1.003288333333333
	0.78140243902439	0.988648333333332
	0.782317073170732	1.003593333333334
	0.783231707317073	0.9879366666666657
	0.784146341463415	1.000645
	0.785060975609756	0.9900716666666659
	0.785975609756097	1.001763333333334
	0.786890243902439	1.007761666666666
	0.787804878048781	0.9876316666666659
	0.788719512195122	0.9902749999999992
	0.789634146341463	0.9989166666666662
	0.790548780487805	0.9974933333333335
	0.791463414634146	1.005016666666667
	0.792378048780488	1.001051666666666
	0.793292682926829	1.006948333333333
	0.794207317073171	0.9907833333333329
	0.795121951219512	1.006236666666667
	0.796036585365854	0.9938333333333329
	0.796951219512195	1.004203333333334
	0.797865853658537	0.9877333333333324
	0.798780487804878	1.000746666666667
	0.79969512195122	1.003085
	0.800609756097561	1.002068333333333
	0.801524390243902	1.001865
	0.802439024390244	0.989359999999999
	0.803353658536585	1.005016666666667
	0.804268292682927	0.9901733333333329
	0.805182926829268	1.006236666666667
	0.80609756097561	0.9922066666666662
	0.807012195121951	0.9989166666666668
	0.807926829268293	0.9916983333333326
	0.808841463414634	1.004305
	0.809756097560976	0.9877333333333329
	0.810670731707317	1.005016666666667
	0.811585365853658	0.9894616666666659
	0.8125	1.005728333333334
	0.813414634146342	0.9911899999999996
	0.814329268292683	1.005016666666666
	0.815243902439024	0.9882416666666654
	0.816158536585366	1.005626666666667
	0.817073170731707	0.9909866666666662
	0.817987804878049	1.007558333333333
	0.81890243902439	0.9872249999999992
	0.819817073170732	1.00034
	0.820731707317073	1.00705
	0.821646341463415	0.987529999999999
	0.822560975609756	0.9982049999999999
	0.823475609756098	0.9900716666666659
	0.824390243902439	1.001966666666667
	0.82530487804878	0.9913933333333323
	0.826219512195122	1.005423333333334
	0.827134146341463	1.007253333333334
	0.828048780487805	1.001661666666666
	0.828963414634146	1.000746666666666
	0.829878048780488	0.9926133333333329
	0.830792682926829	1.004203333333334
	0.831707317073171	1.00949
	0.832621951219512	1.00034
	0.833536585365854	1.007965
	0.834451219512195	1.003796666666667
	0.835365853658537	1.002271666666666
	0.836280487804878	0.988749999999999
	0.837195121951219	1.003593333333334
	0.838109756097561	0.9907833333333329
	0.839024390243902	1.00034
	0.839939024390244	0.9915966666666662
	0.840853658536585	1.002271666666666
	0.841768292682927	1.005728333333333
	0.842682926829268	0.9909866666666662
	0.84359756097561	1.002068333333333
	0.844512195121951	1.001153333333333
	0.845426829268293	1.006745
	0.846341463414634	0.9930199999999996
	0.847256097560976	1.012946666666666
	0.848170731707317	1.010913333333333
	0.849085365853659	1.040396666666667
	0.85	1.06561
	0.850914634146341	1.083808333333334
	0.851829268292683	1.084825
	0.852743902439024	1.04975
	0.853658536585366	1.022706666666667
	0.854573170731707	1.00827
	0.855487804878049	0.9981033333333329
	0.85640243902439	1.009591666666667
	0.857317073170732	0.9905799999999996
	0.858231707317073	1.007456666666666
	0.859146341463415	0.9920033333333323
	0.860060975609756	1.011625
	0.860975609756098	0.9910883333333332
	0.861890243902439	1.011116666666667
	0.86280487804878	1.007253333333334
	0.863719512195122	1.009185
	0.864634146341463	0.9917999999999996
	0.865548780487805	1.006948333333333
	0.866463414634146	0.9897666666666657
	0.867378048780488	1.006948333333334
	0.868292682926829	0.9962733333333329
	0.869207317073171	1.008168333333334
	0.870121951219512	0.9948499999999996
	0.871036585365854	1.004203333333334
	0.871951219512195	0.9925116666666659
	0.872865853658537	1.002678333333334
	0.873780487804878	0.9894616666666659
	0.87469512195122	0.9926133333333329
	0.875609756097561	1.008371666666666
	0.876524390243902	0.9988149999999999
	0.877439024390244	1.005728333333334
	0.878353658536585	1.008473333333334
	0.879268292682927	1.000136666666666
	0.880182926829268	0.9975949999999999
	0.88109756097561	0.9947483333333326
	0.882012195121951	1.00461
	0.882926829268293	0.9981033333333329
	0.883841463414634	1.003491666666666
	0.884756097560976	1.004711666666666
	0.885670731707317	0.9917999999999996
	0.886585365853659	1.007863333333334
	0.8875	0.9956633333333329
	0.888414634146341	1.004203333333334
	0.889329268292683	0.9876316666666659
	0.890243902439024	1.008473333333334
	0.891158536585366	0.9901733333333324
	0.892073170731707	1.006541666666666
	0.892987804878049	0.9921049999999992
	0.89390243902439	0.9999333333333335
	0.894817073170732	1.003186666666666
	0.895731707317073	1.003898333333333
	0.896646341463415	0.9971883333333326
	0.897560975609756	0.9906816666666659
	0.898475609756098	1.008473333333334
	0.899390243902439	0.9937316666666666
	0.90030487804878	1.009693333333334
	0.901219512195122	0.9995266666666668
	0.902134146341463	1.005626666666667
	0.903048780487805	1.00156
	0.903963414634146	1.000034999999999
	0.904878048780488	1.002983333333334
	0.905792682926829	0.9894616666666654
	0.906707317073171	1.006846666666667
	0.907621951219512	0.9903766666666662
	0.908536585365854	0.994239999999999
	0.909451219512195	1.006948333333333
	0.910365853658537	1.008066666666666
	0.911280487804878	1.011015
	0.91219512195122	0.9998316666666666
	0.913109756097561	0.9921049999999992
	0.914024390243902	1.009693333333333
	0.914939024390244	0.9996283333333326
	0.915853658536585	1.012336666666666
	0.916768292682927	1.001153333333334
	0.917682926829268	0.9993233333333335
	0.91859756097561	0.9983066666666662
	0.919512195121951	1.007558333333334
	0.920426829268293	1.001763333333333
	0.921341463414634	1.008168333333334
	0.922256097560976	1.037753333333333
	0.923170731707317	1.030535
	0.924085365853659	1.041616666666667
	0.925	1.01132
	0.925914634146341	1.020978333333333
	0.926829268292683	1.015081666666667
	0.927743902439024	1.03511
	0.928658536585366	1.043141666666666
	0.929573170731707	1.045683333333333
	0.930487804878049	1.029518333333333
	0.93140243902439	1.030535
	0.932317073170732	1.040091666666667
	0.933231707317073	1.103531666666666
	0.934146341463415	1.154669999999999
	0.935060975609756	1.185068333333333
	0.935975609756098	1.09306
	0.936890243902439	1.062356666666667
	0.93780487804878	1.014268333333334
	0.938719512195122	1.023418333333333
	0.939634146341463	1.002678333333334
	0.940548780487805	1.002678333333334
	0.941463414634146	1.01986
	0.942378048780488	1.009998333333333
	0.943292682926829	1.018538333333333
	0.944207317073171	1.023825
	0.945121951219512	1.052088333333334
	0.946036585365854	1.06439
	0.946951219512195	1.051173333333334
	0.947865853658537	1.018335
	0.948780487804878	1.005626666666666
	0.94969512195122	1.020876666666667
	0.950609756097561	1.009591666666667
	0.951524390243902	1.01376
	0.952439024390244	1.009286666666667
	0.953353658536585	1.00888
	0.954268292682927	1.014065
	0.955182926829268	1.010608333333333
	0.95609756097561	1.018741666666666
	0.957012195121951	1.010811666666666
	0.957926829268293	1.030331666666666
	0.958841463414634	1.032873333333334
	0.959756097560976	1.04609
	0.960670731707317	1.08757
	0.961585365853659	1.153958333333334
	0.9625	1.251456666666667
	0.963414634146341	1.32913
	0.964329268292683	1.257658333333333
	0.965243902439024	1.18944
	0.966158536585366	1.085028333333333
	0.967073170731707	1.045886666666667
	0.967987804878049	1.033788333333333
	0.96890243902439	1.030941666666666
	0.969817073170732	1.024435
	0.970731707317073	1.020876666666667
	0.971646341463415	1.00461
	0.972560975609756	1.021791666666666
	0.973475609756098	1.015183333333334
	0.974390243902439	1.029315
	0.975304878048781	1.02169
	0.976219512195122	1.026061666666666
	0.977134146341463	1.004915
	0.978048780487805	1.016098333333333
	0.978963414634146	1.00949
	0.979878048780488	1.012946666666666
	0.980792682926829	1.001153333333333
	0.981707317073171	1.013455
	0.982621951219512	0.9959683333333332
	0.983536585365854	1.014471666666666
	0.984451219512195	1.00278
	0.985365853658537	1.005321666666666
	0.986280487804878	1.003186666666667
	0.98719512195122	1.008473333333334
	0.988109756097561	1.00583
	0.989024390243902	1.002068333333333
	0.989939024390244	1.001356666666666
	0.990853658536585	1.004711666666666
	0.991768292682927	1.00705
	0.992682926829268	1.002373333333333
	0.99359756097561	1.004508333333333
	0.994512195121951	0.9905799999999996
	0.995426829268293	1.006033333333334
	0.996341463414634	0.9902749999999992
	0.997256097560976	1.005626666666666
	0.998170731707317	0.9929183333333326
	0.999085365853658	1.00705
